C	1.0 1.0 1000.0 1000.0 1.0 0.001 0.001 1000.0 1000.0
rho	3700.0 3300.0 3300.0 2950.0 3300.0 3200.0 2750.0 3300.0 2750.0
H	0.0 0.0 0.0 0.0 0.0 0.0 0.0 0.0 0.0
A	0.0 0.0 0.0 0.0 0.0 0.0 0.0 0.0 0.0
n	0.0 0.0 0.0 0.0 0.0 0.0 0.0 0.0 0.0
Q	0.0 0.0 0.0 0.0 0.0 0.0 0.0 0.0 0.0
V	0.0 0.0 0.0 0.0 0.0 0.0 0.0 0.0 0.0
-660000.0000000000 -43899.9151650547 -6000.0000000000 0.0000000000 0.0000000000 0.0000000000 0.0000000000 0.0000000000
-660000.0000000000 -44999.4657757695 -6000.0000000000 0.0000000000 0.0000000000 0.0000000000 0.0000000000 0.0000000000
-660000.0000000000 -46050.0340248583 -6000.0000000000 0.0000000000 0.0000000000 0.0000000000 0.0000000000 0.0000000000
-660000.0000000000 -46983.6780404971 -6000.0000000000 0.0000000000 0.0000000000 0.0000000000 0.0000000000 0.0000000000
-660000.0000000000 -47733.2064276068 -6000.0000000000 0.0000000000 0.0000000000 0.0000000000 0.0000000000 0.0000000000
-660000.0000000000 -48341.7952193458 -6000.0000000000 0.0000000000 0.0000000000 0.0000000000 0.0000000000 0.0000000000
-660000.0000000000 -48501.9389844692 -6000.0000000000 0.0000000000 0.0000000000 0.0000000000 0.0000000000 0.0000000000
-660000.0000000000 -48274.5233435061 -6000.0000000000 0.0000000000 0.0000000000 0.0000000000 0.0000000000 0.0000000000
-660000.0000000000 -47758.0665790574 -6000.0000000000 0.0000000000 0.0000000000 0.0000000000 0.0000000000 0.0000000000
-660000.0000000000 -47021.3357579743 -6000.0000000000 0.0000000000 0.0000000000 0.0000000000 0.0000000000 0.0000000000
-660000.0000000000 -46133.0979471084 -6000.0000000000 0.0000000000 0.0000000000 0.0000000000 0.0000000000 0.0000000000
-660000.0000000000 -45162.1202133113 -6000.0000000000 0.0000000000 0.0000000000 0.0000000000 0.0000000000 0.0000000000
-660000.0000000000 -44177.1696234342 -6000.0000000000 0.0000000000 0.0000000000 0.0000000000 0.0000000000 0.0000000000
-660000.0000000000 -43247.0132443285 -6000.0000000000 0.0000000000 0.0000000000 0.0000000000 0.0000000000 0.0000000000
-660000.0000000000 -42415.5320115927 -6000.0000000000 0.0000000000 0.0000000000 0.0000000000 0.0000000000 0.0000000000
-660000.0000000000 -41665.4793375226 -6000.0000000000 0.0000000000 0.0000000000 0.0000000000 0.0000000000 0.0000000000
-660000.0000000000 -41013.6987211800 -6000.0000000000 0.0000000000 0.0000000000 0.0000000000 0.0000000000 0.0000000000
-660000.0000000000 -40592.4146259398 -6000.0000000000 0.0000000000 0.0000000000 0.0000000000 0.0000000000 0.0000000000
-660000.0000000000 -40839.1174236308 -6000.0000000000 0.0000000000 0.0000000000 0.0000000000 0.0000000000 0.0000000000
-660000.0000000000 -41542.4777943997 -6000.0000000000 0.0000000000 0.0000000000 0.0000000000 0.0000000000 0.0000000000
-660000.0000000000 -42552.6797028491 -6000.0000000000 0.0000000000 0.0000000000 0.0000000000 0.0000000000 0.0000000000
-660000.0000000000 -43785.8700550463 -6000.0000000000 0.0000000000 0.0000000000 0.0000000000 0.0000000000 0.0000000000
-660000.0000000000 -45158.2675676737 -6000.0000000000 0.0000000000 0.0000000000 0.0000000000 0.0000000000 0.0000000000
-660000.0000000000 -46596.2225772886 -6000.0000000000 0.0000000000 0.0000000000 0.0000000000 0.0000000000 0.0000000000
-660000.0000000000 -47997.8033868705 -6000.0000000000 0.0000000000 0.0000000000 0.0000000000 0.0000000000 0.0000000000
-660000.0000000000 -49200.2145360677 -6000.0000000000 0.0000000000 0.0000000000 0.0000000000 0.0000000000 0.0000000000
-660000.0000000000 -50039.1003593533 -6000.0000000000 0.0000000000 0.0000000000 0.0000000000 0.0000000000 0.0000000000
-660000.0000000000 -50646.2048448173 -6000.0000000000 0.0000000000 0.0000000000 0.0000000000 0.0000000000 0.0000000000
-660000.0000000000 -51450.5931424037 -6000.0000000000 0.0000000000 0.0000000000 0.0000000000 0.0000000000 0.0000000000
-660000.0000000000 -52279.8861050350 -6000.0000000000 0.0000000000 0.0000000000 0.0000000000 0.0000000000 0.0000000000
-660000.0000000000 -52903.6940934626 -6000.0000000000 0.0000000000 0.0000000000 0.0000000000 0.0000000000 0.0000000000
-660000.0000000000 -53262.3483989674 -6000.0000000000 0.0000000000 0.0000000000 0.0000000000 0.0000000000 0.0000000000
-660000.0000000000 -53379.7757291407 -6000.0000000000 0.0000000000 0.0000000000 0.0000000000 0.0000000000 0.0000000000
-660000.0000000000 -53302.1394367957 -6000.0000000000 0.0000000000 0.0000000000 0.0000000000 0.0000000000 0.0000000000
-660000.0000000000 -53072.4168706798 -6000.0000000000 0.0000000000 0.0000000000 0.0000000000 0.0000000000 0.0000000000
-660000.0000000000 -52739.2409779291 -6000.0000000000 0.0000000000 0.0000000000 0.0000000000 0.0000000000 0.0000000000
-660000.0000000000 -52329.6352423944 -6000.0000000000 0.0000000000 0.0000000000 0.0000000000 0.0000000000 0.0000000000
-660000.0000000000 -51845.7135413299 -6000.0000000000 0.0000000000 0.0000000000 0.0000000000 0.0000000000 0.0000000000
-660000.0000000000 -51204.5390881988 -6000.0000000000 0.0000000000 0.0000000000 0.0000000000 0.0000000000 0.0000000000
-660000.0000000000 -50253.3720708936 -6000.0000000000 0.0000000000 0.0000000000 0.0000000000 0.0000000000 0.0000000000
-660000.0000000000 -49067.2818248356 -6000.0000000000 0.0000000000 0.0000000000 0.0000000000 0.0000000000 0.0000000000
-660000.0000000000 -47781.9227409871 -6000.0000000000 0.0000000000 0.0000000000 0.0000000000 0.0000000000 0.0000000000
-660000.0000000000 -46532.0999471635 -6000.0000000000 0.0000000000 0.0000000000 0.0000000000 0.0000000000 0.0000000000
-660000.0000000000 -45383.0668709775 -6000.0000000000 0.0000000000 0.0000000000 0.0000000000 0.0000000000 0.0000000000
-660000.0000000000 -44351.1561381512 -6000.0000000000 0.0000000000 0.0000000000 0.0000000000 0.0000000000 0.0000000000
-660000.0000000000 -43330.2347100515 -6000.0000000000 0.0000000000 0.0000000000 0.0000000000 0.0000000000 0.0000000000
-660000.0000000000 -42318.7642583562 -6000.0000000000 0.0000000000 0.0000000000 0.0000000000 0.0000000000 0.0000000000
-660000.0000000000 -41352.3342476728 -6000.0000000000 0.0000000000 0.0000000000 0.0000000000 0.0000000000 0.0000000000
-660000.0000000000 -40484.2903870818 -6000.0000000000 0.0000000000 0.0000000000 0.0000000000 0.0000000000 0.0000000000
-660000.0000000000 -39754.4607945598 -6000.0000000000 0.0000000000 0.0000000000 0.0000000000 0.0000000000 0.0000000000
-660000.0000000000 -39181.2741942945 -6000.0000000000 0.0000000000 0.0000000000 0.0000000000 0.0000000000 0.0000000000
-660000.0000000000 -38734.5089377248 -6000.0000000000 0.0000000000 0.0000000000 0.0000000000 0.0000000000 0.0000000000
-660000.0000000000 -38381.6929190391 -6000.0000000000 0.0000000000 0.0000000000 0.0000000000 0.0000000000 0.0000000000
-660000.0000000000 -38090.7180506437 -6000.0000000000 0.0000000000 0.0000000000 0.0000000000 0.0000000000 0.0000000000
-660000.0000000000 -37837.8567220994 -6000.0000000000 0.0000000000 0.0000000000 0.0000000000 0.0000000000 0.0000000000
-660000.0000000000 -37602.5003679032 -6000.0000000000 0.0000000000 0.0000000000 0.0000000000 0.0000000000 0.0000000000
-660000.0000000000 -37364.0404225523 -6000.0000000000 0.0000000000 0.0000000000 0.0000000000 0.0000000000 0.0000000000
-660000.0000000000 -37131.5931910733 -6000.0000000000 0.0000000000 0.0000000000 0.0000000000 0.0000000000 0.0000000000
-660000.0000000000 -36936.2667439020 -6000.0000000000 0.0000000000 0.0000000000 0.0000000000 0.0000000000 0.0000000000
-660000.0000000000 -36767.6140777896 -6000.0000000000 0.0000000000 0.0000000000 0.0000000000 0.0000000000 0.0000000000
-660000.0000000000 -36609.2215879851 -6000.0000000000 0.0000000000 0.0000000000 0.0000000000 0.0000000000 0.0000000000
-660000.0000000000 -36444.9361159407 -6000.0000000000 0.0000000000 0.0000000000 0.0000000000 0.0000000000 0.0000000000
-660000.0000000000 -36280.0479009891 -6000.0000000000 0.0000000000 0.0000000000 0.0000000000 0.0000000000 0.0000000000
-660000.0000000000 -36119.9752532334 -6000.0000000000 0.0000000000 0.0000000000 0.0000000000 0.0000000000 0.0000000000
-660000.0000000000 -35972.1238669987 -6000.0000000000 0.0000000000 0.0000000000 0.0000000000 0.0000000000 0.0000000000
-660000.0000000000 -35846.3058779100 -6000.0000000000 0.0000000000 0.0000000000 0.0000000000 0.0000000000 0.0000000000
-660000.0000000000 -35752.3334215916 -6000.0000000000 0.0000000000 0.0000000000 0.0000000000 0.0000000000 0.0000000000
-660000.0000000000 -35700.9465383009 -6000.0000000000 0.0000000000 0.0000000000 0.0000000000 0.0000000000 0.0000000000
-660000.0000000000 -35709.5496200754 -6000.0000000000 0.0000000000 0.0000000000 0.0000000000 0.0000000000 0.0000000000
-660000.0000000000 -35794.4916454258 -6000.0000000000 0.0000000000 0.0000000000 0.0000000000 0.0000000000 0.0000000000
-660000.0000000000 -35957.8426703241 -6000.0000000000 0.0000000000 0.0000000000 0.0000000000 0.0000000000 0.0000000000
-660000.0000000000 -36282.4251767202 -6000.0000000000 0.0000000000 0.0000000000 0.0000000000 0.0000000000 0.0000000000
-660000.0000000000 -36336.8009268498 -6000.0000000000 0.0000000000 0.0000000000 0.0000000000 0.0000000000 0.0000000000
-660000.0000000000 -37084.1941338478 -6000.0000000000 0.0000000000 0.0000000000 0.0000000000 0.0000000000 0.0000000000
-660000.0000000000 -37105.6299801501 -6000.0000000000 0.0000000000 0.0000000000 0.0000000000 0.0000000000 0.0000000000
-660000.0000000000 -37885.9630909754 -6000.0000000000 0.0000000000 0.0000000000 0.0000000000 0.0000000000 0.0000000000
-660000.0000000000 -38054.8090524632 -6000.0000000000 0.0000000000 0.0000000000 0.0000000000 0.0000000000 0.0000000000
-660000.0000000000 -38540.5100775620 -6000.0000000000 0.0000000000 0.0000000000 0.0000000000 0.0000000000 0.0000000000
-660000.0000000000 -39003.4748855889 -6000.0000000000 0.0000000000 0.0000000000 0.0000000000 0.0000000000 0.0000000000
-660000.0000000000 -39421.0955692691 -6000.0000000000 0.0000000000 0.0000000000 0.0000000000 0.0000000000 0.0000000000
-660000.0000000000 -39770.7642213275 -6000.0000000000 0.0000000000 0.0000000000 0.0000000000 0.0000000000 0.0000000000
-660000.0000000000 -40021.1243597294 -6000.0000000000 0.0000000000 0.0000000000 0.0000000000 0.0000000000 0.0000000000
-660000.0000000000 -40145.2941801680 -6000.0000000000 0.0000000000 0.0000000000 0.0000000000 0.0000000000 0.0000000000
-660000.0000000000 -40174.6034109639 -6000.0000000000 0.0000000000 0.0000000000 0.0000000000 0.0000000000 0.0000000000
-660000.0000000000 -40129.7825818850 -6000.0000000000 0.0000000000 0.0000000000 0.0000000000 0.0000000000 0.0000000000
-660000.0000000000 -40022.8130427746 -6000.0000000000 0.0000000000 0.0000000000 0.0000000000 0.0000000000 0.0000000000
-660000.0000000000 -39865.7016840842 -6000.0000000000 0.0000000000 0.0000000000 0.0000000000 0.0000000000 0.0000000000
-660000.0000000000 -39670.4553962653 -6000.0000000000 0.0000000000 0.0000000000 0.0000000000 0.0000000000 0.0000000000
-660000.0000000000 -39449.0810697696 -6000.0000000000 0.0000000000 0.0000000000 0.0000000000 0.0000000000 0.0000000000
-660000.0000000000 -39213.1616782798 -6000.0000000000 0.0000000000 0.0000000000 0.0000000000 0.0000000000 0.0000000000
-660000.0000000000 -38973.5086569207 -6000.0000000000 0.0000000000 0.0000000000 0.0000000000 0.0000000000 0.0000000000
-660000.0000000000 -38742.0418225410 -6000.0000000000 0.0000000000 0.0000000000 0.0000000000 0.0000000000 0.0000000000
-660000.0000000000 -38530.7515082317 -6000.0000000000 0.0000000000 0.0000000000 0.0000000000 0.0000000000 0.0000000000
-660000.0000000000 -38364.8056889186 -6000.0000000000 0.0000000000 0.0000000000 0.0000000000 0.0000000000 0.0000000000
-660000.0000000000 -38271.6887527826 -6000.0000000000 0.0000000000 0.0000000000 0.0000000000 0.0000000000 0.0000000000
-660000.0000000000 -38687.7320481030 -6000.0000000000 0.0000000000 0.0000000000 0.0000000000 0.0000000000 0.0000000000
-660000.0000000000 -38752.5126138173 -6000.0000000000 0.0000000000 0.0000000000 0.0000000000 0.0000000000 0.0000000000
-660000.0000000000 -39489.5010052306 -6000.0000000000 0.0000000000 0.0000000000 0.0000000000 0.0000000000 0.0000000000
-660000.0000000000 -40291.2699623582 -6000.0000000000 0.0000000000 0.0000000000 0.0000000000 0.0000000000 0.0000000000
-660000.0000000000 -41093.0389194859 -6000.0000000000 0.0000000000 0.0000000000 0.0000000000 0.0000000000 0.0000000000
-660000.0000000000 -41894.8078766135 -6000.0000000000 0.0000000000 0.0000000000 0.0000000000 0.0000000000 0.0000000000
-660000.0000000000 -42696.5768337411 -6000.0000000000 0.0000000000 0.0000000000 0.0000000000 0.0000000000 0.0000000000
-660000.0000000000 -43498.3457908687 -6000.0000000000 0.0000000000 0.0000000000 0.0000000000 0.0000000000 0.0000000000
-660000.0000000000 -44300.1147479963 -6000.0000000000 0.0000000000 0.0000000000 0.0000000000 0.0000000000 0.0000000000
-660000.0000000000 -45101.8837051239 -6000.0000000000 0.0000000000 0.0000000000 0.0000000000 0.0000000000 0.0000000000
-660000.0000000000 -45184.4062831098 -6000.0000000000 0.0000000000 0.0000000000 0.0000000000 0.0000000000 0.0000000000
-660000.0000000000 -45903.6526622515 -6000.0000000000 0.0000000000 0.0000000000 0.0000000000 0.0000000000 0.0000000000
-660000.0000000000 -46440.0997011270 -6000.0000000000 0.0000000000 0.0000000000 0.0000000000 0.0000000000 0.0000000000
-660000.0000000000 -46687.7890966428 -6000.0000000000 0.0000000000 0.0000000000 0.0000000000 0.0000000000 0.0000000000
-660000.0000000000 -46574.8071613564 -6000.0000000000 0.0000000000 0.0000000000 0.0000000000 0.0000000000 0.0000000000
-660000.0000000000 -46218.5556307833 -6000.0000000000 0.0000000000 0.0000000000 0.0000000000 0.0000000000 0.0000000000
-660000.0000000000 -46705.4216193791 -6000.0000000000 0.0000000000 0.0000000000 0.0000000000 0.0000000000 0.0000000000
-660000.0000000000 -47507.1905765067 -6000.0000000000 0.0000000000 0.0000000000 0.0000000000 0.0000000000 0.0000000000
-660000.0000000000 -48308.9595336343 -6000.0000000000 0.0000000000 0.0000000000 0.0000000000 0.0000000000 0.0000000000
-660000.0000000000 -49110.7284907619 -6000.0000000000 0.0000000000 0.0000000000 0.0000000000 0.0000000000 0.0000000000
-660000.0000000000 -49912.4974478895 -6000.0000000000 0.0000000000 0.0000000000 0.0000000000 0.0000000000 0.0000000000
-660000.0000000000 -50714.2664050171 -6000.0000000000 0.0000000000 0.0000000000 0.0000000000 0.0000000000 0.0000000000
-660000.0000000000 -51516.0353621447 -6000.0000000000 0.0000000000 0.0000000000 0.0000000000 0.0000000000 0.0000000000
-660000.0000000000 -52317.8043192723 -6000.0000000000 0.0000000000 0.0000000000 0.0000000000 0.0000000000 0.0000000000
-660000.0000000000 -53119.5732763999 -6000.0000000000 0.0000000000 0.0000000000 0.0000000000 0.0000000000 0.0000000000
-660000.0000000000 -53921.3422335276 -6000.0000000000 0.0000000000 0.0000000000 0.0000000000 0.0000000000 0.0000000000
-660000.0000000000 -54723.1111906552 -6000.0000000000 0.0000000000 0.0000000000 0.0000000000 0.0000000000 0.0000000000
-660000.0000000000 -55524.8801477828 -6000.0000000000 0.0000000000 0.0000000000 0.0000000000 0.0000000000 0.0000000000
-660000.0000000000 -56326.6491049104 -6000.0000000000 0.0000000000 0.0000000000 0.0000000000 0.0000000000 0.0000000000
-660000.0000000000 -57128.4180620380 -6000.0000000000 0.0000000000 0.0000000000 0.0000000000 0.0000000000 0.0000000000
-660000.0000000000 -57930.1870191656 -6000.0000000000 0.0000000000 0.0000000000 0.0000000000 0.0000000000 0.0000000000
-660000.0000000000 -58731.9559762932 -6000.0000000000 0.0000000000 0.0000000000 0.0000000000 0.0000000000 0.0000000000
-660000.0000000000 -59533.7249334208 -6000.0000000000 0.0000000000 0.0000000000 0.0000000000 0.0000000000 0.0000000000
-660000.0000000000 -60335.4938905484 -6000.0000000000 0.0000000000 0.0000000000 0.0000000000 0.0000000000 0.0000000000
-660000.0000000000 -61137.2628476760 -6000.0000000000 0.0000000000 0.0000000000 0.0000000000 0.0000000000 0.0000000000
-660000.0000000000 -61939.0318048036 -6000.0000000000 0.0000000000 0.0000000000 0.0000000000 0.0000000000 0.0000000000
-660000.0000000000 -62740.8007619312 -6000.0000000000 0.0000000000 0.0000000000 0.0000000000 0.0000000000 0.0000000000
-660000.0000000000 -63542.5697190588 -6000.0000000000 0.0000000000 0.0000000000 0.0000000000 0.0000000000 0.0000000000
-660000.0000000000 -63993.0868480102 -6000.0000000000 0.0000000000 0.0000000000 0.0000000000 0.0000000000 0.0000000000
-660000.0000000000 -64852.7330798888 -6000.0000000000 0.0000000000 0.0000000000 0.0000000000 0.0000000000 0.0000000000
-660000.0000000000 -65415.6880964519 -6000.0000000000 0.0000000000 0.0000000000 0.0000000000 0.0000000000 0.0000000000
-660000.0000000000 -65709.6221121508 -6000.0000000000 0.0000000000 0.0000000000 0.0000000000 0.0000000000 0.0000000000
-660000.0000000000 -65722.0284499012 -6000.0000000000 0.0000000000 0.0000000000 0.0000000000 0.0000000000 0.0000000000
-660000.0000000000 -65481.1157304985 -6000.0000000000 0.0000000000 0.0000000000 0.0000000000 0.0000000000 0.0000000000
-660000.0000000000 -65006.4891104662 -6000.0000000000 0.0000000000 0.0000000000 0.0000000000 0.0000000000 0.0000000000
-660000.0000000000 -64336.3166045023 -6000.0000000000 0.0000000000 0.0000000000 0.0000000000 0.0000000000 0.0000000000
-660000.0000000000 -64344.3386761864 -6000.0000000000 0.0000000000 0.0000000000 0.0000000000 0.0000000000 0.0000000000
-660000.0000000000 -65146.1076333140 -6000.0000000000 0.0000000000 0.0000000000 0.0000000000 0.0000000000 0.0000000000
-660000.0000000000 -65947.8765904417 -6000.0000000000 0.0000000000 0.0000000000 0.0000000000 0.0000000000 0.0000000000
-660000.0000000000 -66749.6455475693 -6000.0000000000 0.0000000000 0.0000000000 0.0000000000 0.0000000000 0.0000000000
-660000.0000000000 -67551.4145046969 -6000.0000000000 0.0000000000 0.0000000000 0.0000000000 0.0000000000 0.0000000000
-660000.0000000000 -68353.1834618245 -6000.0000000000 0.0000000000 0.0000000000 0.0000000000 0.0000000000 0.0000000000
-660000.0000000000 -69154.9524189521 -6000.0000000000 0.0000000000 0.0000000000 0.0000000000 0.0000000000 0.0000000000
-660000.0000000000 -69956.7213760797 -6000.0000000000 0.0000000000 0.0000000000 0.0000000000 0.0000000000 0.0000000000
-660000.0000000000 -70758.4903332073 -6000.0000000000 0.0000000000 0.0000000000 0.0000000000 0.0000000000 0.0000000000
-660000.0000000000 -71560.2592903349 -6000.0000000000 0.0000000000 0.0000000000 0.0000000000 0.0000000000 0.0000000000
-660000.0000000000 -72362.0282474625 -6000.0000000000 0.0000000000 0.0000000000 0.0000000000 0.0000000000 0.0000000000
-660000.0000000000 -73163.7972045901 -6000.0000000000 0.0000000000 0.0000000000 0.0000000000 0.0000000000 0.0000000000
-660000.0000000000 -73965.5661617177 -6000.0000000000 0.0000000000 0.0000000000 0.0000000000 0.0000000000 0.0000000000
-660000.0000000000 -74767.3351188453 -6000.0000000000 0.0000000000 0.0000000000 0.0000000000 0.0000000000 0.0000000000
-660000.0000000000 -75569.1040759729 -6000.0000000000 0.0000000000 0.0000000000 0.0000000000 0.0000000000 0.0000000000
-660000.0000000000 -76370.8730331005 -6000.0000000000 0.0000000000 0.0000000000 0.0000000000 0.0000000000 0.0000000000
-660000.0000000000 -77172.6419902281 -6000.0000000000 0.0000000000 0.0000000000 0.0000000000 0.0000000000 0.0000000000
-660000.0000000000 -77974.4109473557 -6000.0000000000 0.0000000000 0.0000000000 0.0000000000 0.0000000000 0.0000000000
-660000.0000000000 -78776.1799044833 -6000.0000000000 0.0000000000 0.0000000000 0.0000000000 0.0000000000 0.0000000000
-660000.0000000000 -79577.9488616110 -6000.0000000000 0.0000000000 0.0000000000 0.0000000000 0.0000000000 0.0000000000
-660000.0000000000 -80379.7178187386 -6000.0000000000 0.0000000000 0.0000000000 0.0000000000 0.0000000000 0.0000000000
-660000.0000000000 -81181.4867758662 -6000.0000000000 0.0000000000 0.0000000000 0.0000000000 0.0000000000 0.0000000000
-660000.0000000000 -81983.2557329938 -6000.0000000000 0.0000000000 0.0000000000 0.0000000000 0.0000000000 0.0000000000
-660000.0000000000 -82785.0246901214 -6000.0000000000 -73.8425602993 -73.8425602993 -73.8425602993 0.0000000000 0.0000000000
-660000.0000000000 -83586.7936285585 -6774.5028413121 -766.0732270300 -766.0732270300 -766.0732270300 0.0000000000 0.0000000000
-660000.0000000000 -84388.5625873633 -7449.7022229042 -1436.3011718064 -1436.3011718064 -1436.3011718064 0.0000000000 0.0000000000
-660000.0000000000 -85190.3315983697 -8119.7161383169 -2106.2072153299 -2106.2072153299 -2106.2072153299 0.0000000000 0.0000000000
-660000.0000000000 -85992.1005987961 -8789.7244130336 -2776.2386393800 -2776.2386393800 -2776.2386393800 0.0000000000 0.0000000000
-660000.0000000000 -86793.8695651989 -9459.7725307156 -3446.2910787102 -3446.2910787102 -3446.2910787102 0.0000000000 0.0000000000
-660000.0000000000 -87595.6385269912 -10129.8264571545 -4116.3454056400 -4116.3454056400 -4116.3454056400 0.0000000000 0.0000000000
-660000.0000000000 -88397.4074802523 -10799.8808718156 -4786.3998565046 -4786.3998565046 -4786.3998565046 0.0000000000 0.0000000000
-660000.0000000000 -89199.1764719489 -11469.9352900191 -5456.4542788223 -5456.4542788223 -5456.4542788223 0.0000000000 0.0000000000
-660000.0000000000 -90000.9459072969 -12139.9896535036 -6126.5086616086 -6126.5086616086 -6126.5086616086 0.0000000000 0.0000000000
-660000.0000000000 -90802.7178541318 -12810.0440545483 -6796.5629392839 -6796.5629392839 -6796.5629392839 0.0000000000 0.0000000000
-660000.0000000000 -91604.4834254239 -13480.1047328211 -7466.6175842500 -7466.6175842500 -7466.6175842500 0.0000000000 0.0000000000
-660000.0000000000 -92405.7868538418 -14150.2800628995 -8136.6948794260 -8136.6948794260 -8136.6948794260 0.0000000000 0.0000000000
-660000.0000000000 -93195.1008578578 -14822.1145618464 -8807.1544153580 -8807.1544153580 -8807.1544153580 0.0000000000 0.0000000000
-660000.0000000000 -93994.7363041983 -15516.6645578468 -9483.0296821765 -9483.0296821765 -9483.0296821765 0.0000000000 0.0000000000
-660000.0000000000 -94870.0864559711 -16272.9745609399 -10232.6046560562 -10232.6046560562 -10232.6046560562 0.0000000000 0.0000000000
-660000.0000000000 -95830.0279384986 -17115.3340841140 -11068.4423447000 -11068.4423447000 -11068.4423447000 0.0000000000 0.0000000000
-660000.0000000000 -96885.9709571767 -18052.8551339879 -11998.5491730710 -11998.5491730710 -11998.5491730710 0.0000000000 0.0000000000
-660000.0000000000 -98049.3765863950 -19093.4865301002 -13030.7189680014 -13030.7189680014 -13030.7189680014 0.0000000000 0.0000000000
-660000.0000000000 -99331.0999857382 -20245.1648974135 -14172.6477008202 -14172.6477008202 -14172.6477008202 0.0000000000 0.0000000000
-660000.0000000000 -100741.9722858809 -21515.5883829857 -15432.3002443882 -15432.3002443882 -15432.3002443882 0.0000000000 0.0000000000
-660000.0000000000 -102293.1931730489 -22911.7696763048 -16816.3719177000 -16816.3719177000 -16816.3719177000 0.0000000000 0.0000000000
-660000.0000000000 -103993.7456939691 -24439.9975579053 -18331.2297485413 -18331.2297485413 -18331.2297485413 0.0000000000 0.0000000000
-660000.0000000000 -105851.8815431594 -26105.6619805784 -19982.2733020046 -19982.2733020046 -19982.2733020046 0.0000000000 0.0000000000
-660000.0000000000 -107875.8876692730 -27912.8129059060 -21773.7947618818 -21773.7947618818 -21773.7947618818 0.0000000000 0.0000000000
-660000.0000000000 -110070.7410852328 -29864.2845654080 -23708.2228586695 -23708.2228586695 -23708.2228586695 0.0000000000 0.0000000000
-660000.0000000000 -112439.9012579691 -31961.9164729001 -25787.9219055001 -25787.9219055001 -25787.9219055001 0.0000000000 0.0000000000
-660000.0000000000 -114984.9627354958 -34206.4982280665 -28013.3729913537 -28013.3729913537 -28013.3729913537 0.0000000000 0.0000000000
-660000.0000000000 -117703.7532466815 -36597.7355969680 -30384.8789506571 -30384.8789506571 -30384.8789506571 0.0000000000 0.0000000000
-660000.0000000000 -120587.2195116836 -39134.0054666564 -32900.7791971235 -32900.7791971235 -32900.7791971235 0.0000000000 0.0000000000
-660000.0000000000 -123623.2978073047 -41812.0747616153 -35558.5668315428 -35558.5668315428 -35558.5668315428 0.0000000000 0.0000000000
-660000.0000000000 -126792.0438209718 -44626.7600260477 -38353.2638550000 -38353.2638550000 -38353.2638550000 0.0000000000 0.0000000000
-660000.0000000000 -130068.5835858323 -47570.1536970144 -41278.3267292006 -41278.3267292006 -41278.3267292006 0.0000000000 0.0000000000
-660000.0000000000 -133424.5359533445 -50630.6844499627 -44322.7750608796 -44322.7750608796 -44322.7750608796 0.0000000000 0.0000000000
-660000.0000000000 -136829.0860947605 -53792.9725837880 -47472.3278041573 -47472.3278041573 -47472.3278041573 0.0000000000 0.0000000000
-660000.0000000000 -140252.6875063442 -57037.6158028121 -50708.6312920397 -50708.6312920397 -50708.6312920397 0.0000000000 0.0000000000
-660000.0000000000 -143667.4397101542 -60341.6565428726 -54009.1552734000 -54009.1552734000 -52000.0000000000 0.0000000000 0.0000000000
-660000.0000000000 -147050.7938154948 -63679.9535409834 -57348.9635868084 -57348.9635868084 -52000.0000000000 0.0000000000 0.0000000000
-660000.0000000000 -150384.8918271549 -67026.8391177802 -60702.0080180167 -60702.0080180167 -52000.0000000000 0.0000000000 0.0000000000
-660000.0000000000 -153657.8945009847 -70358.0006814807 -64043.1452249921 -64043.1452249921 -52000.0000000000 -768.3111435720 -768.3111435720
-660000.0000000000 -156864.2679318101 -73652.6106839597 -67350.0512320461 -67350.0512320461 -52000.0000000000 -4115.1332394201 -4115.1332394201
-660000.0000000000 -160003.4302983927 -76894.9775769384 -70605.7815552000 -70605.7815552000 -52000.0000000000 -7448.4792624674 -7448.4792624674
-660000.0000000000 -163081.2021833717 -80075.6223594064 -73799.1440329501 -73799.1440329501 -52000.0000000000 -10746.3435338167 -10746.3435338167
-660000.0000000000 -166107.2765725606 -83191.7187473828 -76926.2949173058 -76926.2949173057 -52000.0000000000 -13991.4654198070 -13991.4654198070
-660000.0000000000 -169095.5977286890 -86246.9619134488 -79989.6635761566 -79989.6635761566 -52000.0000000000 -17172.7427385312 -17172.7427385312
-660000.0000000000 -172062.2306142152 -89250.7393526014 -82998.4359906366 -82998.4359906366 -52000.0000000000 -20287.2318781074 -20287.2318781074
-660000.0000000000 -175027.1868461391 -92216.7120515078 -85965.8660889000 -85965.8660889000 -52000.0000000000 -23338.6576651999 -23338.6576651999
-660000.0000000000 -178010.1116610967 -95161.6143181841 -88908.6832806154 -88908.6832806154 -52000.0000000000 -26337.8958424230 -26337.8958424230
-660000.0000000000 -181033.6096155032 -98104.1039188023 -91845.5887066655 -91845.5887066655 -52000.0000000000 -29299.9883730322 -29299.9883730322
-660000.0000000000 -184122.1175385722 -101063.9057717511 -94796.2585914727 -94796.2585914727 -52000.0000000000 -32242.8358533119 -32242.8358533119
-660000.0000000000 -187301.9933383834 -104061.3521784306 -97780.9583590132 -97780.9583590132 -52000.0000000000 -35185.8605437448 -35185.8605437448
-660000.0000000000 -190603.1055466270 -107117.3600305766 -100820.2133180000 -100820.2133180000 -52000.0000000000 -38148.7112431539 -38148.7112431539
-660000.0000000000 -194056.3676145228 -110253.6580065809 -103935.4101954188 -103935.4101954188 -52000.0000000000 -41151.0275897437 -41151.0275897437
-660000.0000000000 -197692.0177117369 -113492.4619361916 -107148.7140817951 -107148.7140817951 -52000.0000000000 -44212.1072647169 -44212.1072647169
-660000.0000000000 -201538.0922004235 -116856.2935197015 -110481.9323836579 -110481.9323836579 -52000.0000000000 -47351.1343159818 -47351.1343159818
-660000.0000000000 -205612.4938200116 -120367.6410711887 -113957.7216499352 -113957.7216499352 -52000.0000000000 -50587.5023497111 -50587.5023497111
-660000.0000000000 -209921.1765939214 -124046.9655133787 -117597.3587040001 -117597.3587040001 -53939.5408351364 -53939.5408351364 -52370.4211449407
-660000.0000000000 -214458.5496855251 -127911.2289563783 -121417.8468999045 -121417.8468999045 -57424.4585844793 -57424.4585844793 -52638.0586612658
-660000.0000000000 -219208.3645077867 -131972.0759975192 -125433.1069015993 -123294.9997915501 -61058.7453303155 -61058.7453303155 -52930.3545491384
-660000.0000000000 -205054.1083517360 -136234.8873438452 -129648.5479316821 -122566.5099454808 -64855.4983675870 -64855.4983675870 -53245.1593639976
-660000.0000000000 -190899.8521956847 -140698.5610406774 -134065.8748490271 -121878.3799818338 -68824.5130980173 -68824.5130980173 -53580.4780716210
-660000.0000000000 -176745.5960396341 -145355.0132036482 -138677.8411870000 -121277.7237986583 -72972.9673758170 -72972.9673758170 -53934.3156377863
-660000.0000000000 -162591.3398835828 -150192.2920255851 -143472.4333218813 -120811.6552940027 -77303.4703004581 -77303.4703004581 -54304.6770282708
-660000.0000000000 -148437.0837275321 -148437.0837275321 -148437.0837275321 -120560.2851550646 -81818.1180698989 -81818.1180698989 -54690.3896448217
-660000.0000000000 -120679.3557716396 -120679.3557716396 -120679.3557716396 -120679.3557716396 -120679.3557716396 -86518.0189869157 -55092.0359448890
-660000.0000000000 -121283.3298784652 -121283.3298784652 -121283.3298784652 -121283.3298784652 -121283.3298784652 -91380.2571770423 -55509.0750002026
-660000.0000000000 -122331.3647384722 -122331.3647384722 -122331.3647384722 -122331.3647384722 -122331.3647384722 -122331.3647384722 -55938.2142965494
-660000.0000000000 -123455.1247987223 -123455.1247987223 -123455.1247987223 -123455.1247987223 -123455.1247987223 -123455.1247987223 -56368.9898225015
-660000.0000000000 -124197.0967669884 -124197.0967669884 -124197.0967669884 -124197.0967669884 -124197.0967669884 -124197.0967669884 -56815.7380160982
-660000.0000000000 -124391.0085550276 -124391.0085550276 -124391.0085550276 -124391.0085550276 -124391.0085550276 -124391.0085550276 -57317.8835094386
-660000.0000000000 -124185.5080475571 -124185.5080475571 -124185.5080475571 -124185.5080475571 -124185.5080475571 -124185.5080475571 -57850.1914571103
-660000.0000000000 -123778.0170269136 -123778.0170269136 -123778.0170269136 -123778.0170269136 -123778.0170269136 -123778.0170269136 -58376.9006006107
-660000.0000000000 -123256.8128200704 -123256.8128200704 -123256.8128200704 -123256.8128200704 -123256.8128200704 -123256.8128200704 -58885.1061175273
-660000.0000000000 -122687.8074148306 -122687.8074148306 -122687.8074148306 -122687.8074148306 -122687.8074148306 -122687.8074148306 -59366.5944032387
-660000.0000000000 -122136.9127989975 -122136.9127989975 -122136.9127989975 -122136.9127989975 -122136.9127989975 -122136.9127989975 -59813.1518531232
-660000.0000000000 -121670.0409603744 -121670.0409603744 -121670.0409603744 -121670.0409603744 -121670.0409603744 -121670.0409603744 -60216.5648625591
-660000.0000000000 -121353.1038867642 -121353.1038867642 -121353.1038867642 -121353.1038867642 -121353.1038867642 -121353.1038867642 -60568.6198269248
-660000.0000000000 -121250.6196653870 -121250.6196653870 -121250.6196653870 -121250.6196653870 -121250.6196653870 -121250.6196653870 -60861.5164113103
-660000.0000000000 -121425.9688030922 -121425.9688030922 -121425.9688030922 -121425.9688030922 -121425.9688030922 -121425.9688030922 -61088.2517173074
-660000.0000000000 -121982.4197941394 -121982.4197941394 -121982.4197941394 -121982.4197941394 -121982.4197941394 -121982.4197941394 -61243.8139687006
-660000.0000000000 -123254.2907129792 -123254.2907129792 -123254.2907129792 -123254.2907129792 -123254.2907129792 -123254.2907129792 -61366.7763833633
-660000.0000000000 -124927.3837500667 -124927.3837500667 -124927.3837500667 -124927.3837500667 -124927.3837500667 -124927.3837500667 -61414.2180538771
-660000.0000000000 -127269.6311167005 -127269.6311167005 -127269.6311167005 -127269.6311167005 -127269.6311167005 -127269.6311167005 -61416.6549424172
-660000.0000000000 -130281.5214226674 -130281.5214226674 -130281.5214226674 -130281.5214226674 -130281.5214226674 -130281.5214226674 -61398.4119588039
-660000.0000000000 -133762.5445943060 -133762.5445943060 -133762.5445943060 -133762.5445943060 -133762.5445943060 -133762.5445943060 -61357.0653673946
-660000.0000000000 -137551.7543111512 -137551.7543111512 -137551.7543111512 -137551.7543111512 -137551.7543111512 -137551.7543111512 -61293.3088995128
-660000.0000000000 -141497.0014325233 -141497.0014325233 -141497.0014325233 -141497.0014325233 -141497.0014325233 -141497.0014325233 -61209.2720447686
-660000.0000000000 -145446.1368177426 -145446.1368177426 -145446.1368177426 -145446.1368177426 -145446.1368177426 -145446.1368177426 -61107.0842927717
-660000.0000000000 -149247.0113261300 -149247.0113261300 -149247.0113261300 -149247.0113261300 -149247.0113261300 -149247.0113261300 -60988.8751331321
-660000.0000000000 -152747.4758170056 -152747.4758170056 -152747.4758170056 -152747.4758170056 -152747.4758170056 -152747.4758170056 -60856.7740554598
-660000.0000000000 -155795.3811496911 -155795.3811496911 -155795.3811496911 -155795.3811496911 -155795.3811496911 -155795.3811496911 -60712.9105493645
-660000.0000000000 -158231.7348466939 -158231.7348466939 -158231.7348466939 -158231.7348466939 -158231.7348466939 -158231.7348466939 -60559.5499489793
-660000.0000000000 -159672.8034175360 -159672.8034175360 -159672.8034175360 -159672.8034175360 -159672.8034175360 -159672.8034175360 -60403.3005767099
-660000.0000000000 -159811.6675896567 -159811.6675896567 -159811.6675896567 -159811.6675896567 -159811.6675896567 -159811.6675896567 -60244.8016125090
-660000.0000000000 -159244.1218274730 -159244.1218274730 -159244.1218274730 -159244.1218274730 -159244.1218274730 -159244.1218274730 -60039.4842367245
-660000.0000000000 -158166.4744478634 -158166.4744478634 -158166.4744478634 -158166.4744478634 -158166.4744478634 -158166.4744478634 -59772.3137018716
-660000.0000000000 -155701.3039775905 -155701.3039775905 -155701.3039775905 -155701.3039775905 -155701.3039775905 -155701.3039775905 -59455.7325026176
-660000.0000000000 -152246.7785489472 -152246.7785489472 -152246.7785489472 -152246.7785489472 -152246.7785489472 -152246.7785489472 -59101.2610791252
-660000.0000000000 -148086.6192059304 -148086.6192059304 -148086.6192059304 -148086.6192059304 -148086.6192059304 -148086.6192059304 -58713.9528170442
-660000.0000000000 -143433.4026343250 -143433.4026343250 -143433.4026343250 -143433.4026343250 -143433.4026343250 -143433.4026343250 -58296.0949673357
-660000.0000000000 -138499.7055199161 -138499.7055199161 -138499.7055199161 -138499.7055199161 -138499.7055199161 -138499.7055199161 -57849.9747809603
-660000.0000000000 -133498.1045484868 -133498.1045484868 -133498.1045484868 -133498.1045484868 -133498.1045484868 -133498.1045484868 -57377.8795088789
-660000.0000000000 -128641.1764058220 -128641.1764058220 -128641.1764058220 -128641.1764058220 -128641.1764058220 -128641.1764058220 -56882.0964020523
-660000.0000000000 -124141.4977777064 -124141.4977777064 -124141.4977777064 -124141.4977777064 -124141.4977777064 -124141.4977777064 -56364.9127114412
-660000.0000000000 -120211.6453499242 -120211.6453499242 -120211.6453499242 -120211.6453499242 -120211.6453499242 -120211.6453499242 -55828.6156880065
-660000.0000000000 -117064.1958082601 -117064.1958082601 -117064.1958082601 -117064.1958082601 -117064.1958082601 -117064.1958082601 -55275.4925827091
-660000.0000000000 -114977.9467049974 -114977.9467049974 -114977.9467049974 -114977.9467049974 -114977.9467049974 -114977.9467049974 -54709.4485926442
-660000.0000000000 -114299.5716878674 -114299.5716878674 -114299.5716878674 -114299.5716878674 -114299.5716878674 -114299.5716878674 -54131.8178996773
-660000.0000000000 -114787.5976110295 -114787.5976110295 -114787.5976110295 -114787.5976110295 -114787.5976110295 -114787.5976110295 -53543.1211504626
-660000.0000000000 -117617.0979481896 -117617.0979481896 -117617.0979481896 -117617.0979481896 -117617.0979481896 -117617.0979481896 -52894.0178703166
-660000.0000000000 -122310.2767172724 -122310.2767172724 -122310.2767172724 -122310.2767172724 -122310.2767172724 -122310.2767172724 -52193.5321012838
-660000.0000000000 -128451.7721738890 -128451.7721738890 -128451.7721738890 -128451.7721738890 -128451.7721738890 -128451.7721738890 -51464.4476223906
-660000.0000000000 -135765.3079597813 -135765.3079597813 -135765.3079597813 -135765.3079597813 -135765.3079597813 -135765.3079597813 -50722.1147358276
-660000.0000000000 -143974.6077166906 -143974.6077166906 -143974.6077166906 -143974.6077166906 -143974.6077166906 -143974.6077166906 -49981.8837437851
-660000.0000000000 -152803.3950863575 -152803.3950863575 -152803.3950863575 -152803.3950863575 -152803.3950863575 -152803.3950863575 -49259.1049484538
-660000.0000000000 -161975.3937105262 -161975.3937105262 -161975.3937105262 -161975.3937105262 -161975.3937105262 -161975.3937105262 -48569.1286520237
-660000.0000000000 -171214.3272309371 -171214.3272309371 -171214.3272309371 -171214.3272309371 -171214.3272309371 -171214.3272309371 -47927.3051566856
-660000.0000000000 -180243.9192893312 -180243.9192893312 -180243.9192893312 -180243.9192893312 -180243.9192893312 -180243.9192893312 -47348.9847646297
-660000.0000000000 -188787.8935274509 -188787.8935274509 -188787.8935274509 -188787.8935274509 -188787.8935274509 -188787.8935274509 -46849.5177780466
-660000.0000000000 -196569.9735870385 -196569.9735870385 -196569.9735870385 -196569.9735870385 -196569.9735870385 -196569.9735870385 -46444.2544991267
-660000.0000000000 -203313.8831098349 -203313.8831098349 -203313.8831098349 -203313.8831098349 -203313.8831098349 -203313.8831098349 -46148.5452300604
-660000.0000000000 -208741.6872901722 -208741.6872901722 -208741.6872901722 -208741.6872901722 -208741.6872901722 -208741.6872901722 -45985.2257402813
-660000.0000000000 -212051.7527892003 -212051.7527892003 -212051.7527892003 -212051.7527892003 -212051.7527892003 -212051.7527892003 -45962.6185605711
-660000.0000000000 -213085.3933452211 -213085.3933452211 -213085.3933452211 -213085.3933452211 -213085.3933452211 -213085.3933452211 -46078.0429243879
-660000.0000000000 -212122.9293630782 -212122.9293630782 -212122.9293630782 -212122.9293630782 -212122.9293630782 -212122.9293630782 -46308.6360905189
-660000.0000000000 -209411.1672963176 -209411.1672963176 -209411.1672963176 -209411.1672963176 -209411.1672963176 -209411.1672963176 -46631.8296755710
-660000.0000000000 -205197.9413303907 -205197.9413303907 -205197.9413303907 -205197.9413303907 -205197.9413303907 -205197.9413303907 -47024.9680436593
-660000.0000000000 -199736.0789589401 -199736.0789589401 -199736.0789589401 -199736.0789589401 -199736.0789589401 -199736.0789589401 -47464.9822887689
-660000.0000000000 -193273.6898303448 -193273.6898303448 -193273.6898303448 -193273.6898303448 -193273.6898303448 -193273.6898303448 -47929.2202280427
-660000.0000000000 -186057.9672261197 -186057.9672261197 -186057.9672261197 -186057.9672261197 -186057.9672261197 -186057.9672261197 -48395.1085845058
-660000.0000000000 -178336.1044277779 -178336.1044277779 -178336.1044277779 -178336.1044277779 -178336.1044277779 -178336.1044277779 -48840.0740811837
-660000.0000000000 -170355.2947168334 -170355.2947168334 -170355.2947168334 -170355.2947168334 -170355.2947168334 -170355.2947168334 -49241.5434411015
-660000.0000000000 -162363.2016865406 -162363.2016865406 -162363.2016865406 -162363.2016865406 -162363.2016865406 -162363.2016865406 -49574.0495174282
-660000.0000000000 -154330.0053821152 -154330.0053821152 -154330.0053821152 -154330.0053821152 -154330.0053821152 -154330.0053821152 -49829.9120713985
-660000.0000000000 -147224.5968978977 -147224.5968978977 -147224.5968978977 -147224.5968978977 -147224.5968978977 -147224.5968978977 -50015.1624208672
-660000.0000000000 -140840.3800077754 -140840.3800077754 -140840.3800077754 -140840.3800077754 -140840.3800077754 -140840.3800077754 -50133.4448939993
-660000.0000000000 -135096.7187239659 -135096.7187239659 -135096.7187239659 -135096.7187239659 -135096.7187239659 -135096.7187239659 -50195.3853294000
-660000.0000000000 -129944.4725960574 -129944.4725960574 -129944.4725960574 -129944.4725960574 -129944.4725960574 -129944.4725960574 -50209.9483651241
-660000.0000000000 -125334.5011736379 -125334.5011736379 -125334.5011736379 -125334.5011736379 -125334.5011736379 -125334.5011736379 -50186.0986392262
-660000.0000000000 -121217.6640062949 -121217.6640062949 -121217.6640062949 -121217.6640062949 -121217.6640062949 -121217.6640062949 -50132.8007897612
-660000.0000000000 -117544.8206436158 -117544.8206436158 -117544.8206436158 -117544.8206436158 -117544.8206436158 -117544.8206436158 -50059.0194547838
-660000.0000000000 -114266.8306351888 -114266.8306351888 -114266.8306351888 -114266.8306351888 -114266.8306351888 -114266.8306351888 -49973.7192723488
-660000.0000000000 -111336.5652093979 -111336.5652093979 -111336.5652093979 -111336.5652093979 -111336.5652093979 -111336.5652093979 -49885.8616788081
-660000.0000000000 -108836.0182933085 -108836.0182933085 -108836.0182933085 -108836.0182933085 -108836.0182933085 -108836.0182933085 -49804.6912456823
-660000.0000000000 -107213.1425518866 -107213.1425518866 -107213.1425518866 -107213.1425518866 -107213.1425518866 -107213.1425518866 -49735.5363550111
-660000.0000000000 -106393.8861125156 -106393.8861125156 -106393.8861125156 -106393.8861125156 -106393.8861125156 -106393.8861125156 -49687.5537236416
-660000.0000000000 -105163.6808761181 -105163.6808761181 -105163.6808761181 -105163.6808761181 -105163.6808761181 -105163.6808761181 -49665.3228352026
-660000.0000000000 -103789.8595526476 -103789.8595526476 -103789.8595526476 -103789.8595526476 -103789.8595526476 -103789.8595526476 -49649.3422512133
-660000.0000000000 -102385.4935216374 -102385.4935216374 -102385.4935216374 -102385.4935216374 -102385.4935216374 -102385.4935216374 -49641.8456663085
-660000.0000000000 -101058.1676537365 -101058.1676537365 -101058.1676537365 -101058.1676537365 -101058.1676537365 -101058.1676537365 -49644.8809699139
-660000.0000000000 -100000.0000000000 -100000.0000000000 -100000.0000000000 -100000.0000000000 -100000.0000000000 -100000.0000000000 -49657.4222069214
-660000.0000000000 -100000.0000000000 -100000.0000000000 -100000.0000000000 -100000.0000000000 -100000.0000000000 -100000.0000000000 -49678.3034908489
-660000.0000000000 -100000.0000000000 -100000.0000000000 -100000.0000000000 -100000.0000000000 -100000.0000000000 -100000.0000000000 -49706.2858493375
-660000.0000000000 -100000.0000000000 -100000.0000000000 -100000.0000000000 -100000.0000000000 -100000.0000000000 -100000.0000000000 -49736.7031202186
-660000.0000000000 -100000.0000000000 -100000.0000000000 -100000.0000000000 -100000.0000000000 -100000.0000000000 -100000.0000000000 -49763.9181370918
-660000.0000000000 -100000.0000000000 -100000.0000000000 -100000.0000000000 -100000.0000000000 -100000.0000000000 -100000.0000000000 -49793.8584344407
-660000.0000000000 -100000.0000000000 -100000.0000000000 -100000.0000000000 -100000.0000000000 -100000.0000000000 -100000.0000000000 -49853.1593312838
-660000.0000000000 -100000.0000000000 -100000.0000000000 -100000.0000000000 -100000.0000000000 -100000.0000000000 -100000.0000000000 -49897.7979620595
-660000.0000000000 -100000.0000000000 -100000.0000000000 -100000.0000000000 -100000.0000000000 -100000.0000000000 -100000.0000000000 -49899.0745120490
-660000.0000000000 -100000.0000000000 -100000.0000000000 -100000.0000000000 -100000.0000000000 -100000.0000000000 -100000.0000000000 -49880.4078278655
-660000.0000000000 -100000.0000000000 -100000.0000000000 -100000.0000000000 -100000.0000000000 -100000.0000000000 -100000.0000000000 -49850.1424248019
-660000.0000000000 -100000.0000000000 -100000.0000000000 -100000.0000000000 -100000.0000000000 -100000.0000000000 -100000.0000000000 -49806.5805646735
-660000.0000000000 -100000.0000000000 -100000.0000000000 -100000.0000000000 -100000.0000000000 -100000.0000000000 -100000.0000000000 -49748.0067246685
-660000.0000000000 -100000.0000000000 -100000.0000000000 -100000.0000000000 -100000.0000000000 -100000.0000000000 -100000.0000000000 -49668.8873810650
-660000.0000000000 -100000.0000000000 -100000.0000000000 -100000.0000000000 -100000.0000000000 -100000.0000000000 -100000.0000000000 -49555.7736767377
-660000.0000000000 -100000.0000000000 -100000.0000000000 -100000.0000000000 -100000.0000000000 -100000.0000000000 -100000.0000000000 -49394.3011265901
-660000.0000000000 -100000.0000000000 -100000.0000000000 -100000.0000000000 -100000.0000000000 -100000.0000000000 -100000.0000000000 -49150.7049383312
-660000.0000000000 -100000.0000000000 -100000.0000000000 -100000.0000000000 -100000.0000000000 -100000.0000000000 -100000.0000000000 -48742.3790447979
-660000.0000000000 -100000.0000000000 -100000.0000000000 -100000.0000000000 -100000.0000000000 -100000.0000000000 -100000.0000000000 -48217.1725862990
-660000.0000000000 -100000.0000000000 -100000.0000000000 -100000.0000000000 -100000.0000000000 -100000.0000000000 -100000.0000000000 -47695.5297491668
-660000.0000000000 -100000.0000000000 -100000.0000000000 -100000.0000000000 -100000.0000000000 -100000.0000000000 -100000.0000000000 -47239.3491210489
-660000.0000000000 -100000.0000000000 -100000.0000000000 -100000.0000000000 -100000.0000000000 -100000.0000000000 -100000.0000000000 -46875.4899139584
-660000.0000000000 -100000.0000000000 -100000.0000000000 -100000.0000000000 -100000.0000000000 -100000.0000000000 -100000.0000000000 -46611.6898940423
-660000.0000000000 -100000.0000000000 -100000.0000000000 -100000.0000000000 -100000.0000000000 -100000.0000000000 -100000.0000000000 -46430.1414332541
-660000.0000000000 -100000.0000000000 -100000.0000000000 -100000.0000000000 -100000.0000000000 -100000.0000000000 -100000.0000000000 -46311.3933385971
-660000.0000000000 -100000.0000000000 -100000.0000000000 -100000.0000000000 -100000.0000000000 -100000.0000000000 -100000.0000000000 -46246.6139441350
-660000.0000000000 -100000.0000000000 -100000.0000000000 -100000.0000000000 -100000.0000000000 -100000.0000000000 -100000.0000000000 -46257.9905493720
-660000.0000000000 -100118.3187703187 -100118.3187703187 -100118.3187703187 -100118.3187703187 -100118.3187703187 -100118.3187703187 -46366.1984443486
-660000.0000000000 -100613.9406595900 -100613.9406595900 -100613.9406595900 -100613.9406595900 -100613.9406595900 -100613.9406595900 -46540.0874425064
-660000.0000000000 -100901.4925123431 -100901.4925123431 -100901.4925123431 -100901.4925123431 -100901.4925123431 -100901.4925123431 -46763.8073776270
-660000.0000000000 -101048.7905053937 -101048.7905053937 -101048.7905053937 -101048.7905053937 -101048.7905053937 -101048.7905053937 -47027.0378574824
-660000.0000000000 -101040.6549761776 -101040.6549761776 -101040.6549761776 -101040.6549761776 -101040.6549761776 -101040.6549761776 -47291.6051063963
-660000.0000000000 -100792.7677218253 -100792.7677218253 -100792.7677218253 -100792.7677218253 -100792.7677218253 -100792.7677218253 -47519.1178229693
-660000.0000000000 -100221.8953862033 -100221.8953862033 -100221.8953862033 -100221.8953862033 -100221.8953862033 -100221.8953862033 -47676.2422066433
-660000.0000000000 -100000.0000000000 -100000.0000000000 -100000.0000000000 -100000.0000000000 -100000.0000000000 -100000.0000000000 -47761.9195669487
-660000.0000000000 -100000.0000000000 -100000.0000000000 -100000.0000000000 -100000.0000000000 -100000.0000000000 -100000.0000000000 -47851.4008439119
-660000.0000000000 -100000.0000000000 -100000.0000000000 -100000.0000000000 -100000.0000000000 -100000.0000000000 -100000.0000000000 -47953.1557516519
-660000.0000000000 -100000.0000000000 -100000.0000000000 -100000.0000000000 -100000.0000000000 -100000.0000000000 -100000.0000000000 -48092.7593904610
-660000.0000000000 -100000.0000000000 -100000.0000000000 -100000.0000000000 -100000.0000000000 -100000.0000000000 -100000.0000000000 -48287.3891161561
-660000.0000000000 -100000.0000000000 -100000.0000000000 -100000.0000000000 -100000.0000000000 -100000.0000000000 -100000.0000000000 -48503.6992379227
-660000.0000000000 -100000.0000000000 -100000.0000000000 -100000.0000000000 -100000.0000000000 -100000.0000000000 -100000.0000000000 -48725.8948057793
-660000.0000000000 -100000.0000000000 -100000.0000000000 -100000.0000000000 -100000.0000000000 -100000.0000000000 -100000.0000000000 -48947.3449313984
-660000.0000000000 -100000.0000000000 -100000.0000000000 -100000.0000000000 -100000.0000000000 -100000.0000000000 -100000.0000000000 -49161.9354915741
-660000.0000000000 -100000.0000000000 -100000.0000000000 -100000.0000000000 -100000.0000000000 -100000.0000000000 -100000.0000000000 -49365.7116617849
-660000.0000000000 -100000.0000000000 -100000.0000000000 -100000.0000000000 -100000.0000000000 -100000.0000000000 -100000.0000000000 -49553.4677179848
-660000.0000000000 -100000.0000000000 -100000.0000000000 -100000.0000000000 -100000.0000000000 -100000.0000000000 -100000.0000000000 -49718.9918087508
-660000.0000000000 -100000.0000000000 -100000.0000000000 -100000.0000000000 -100000.0000000000 -100000.0000000000 -100000.0000000000 -49856.1866078899
-660000.0000000000 -100000.0000000000 -100000.0000000000 -100000.0000000000 -100000.0000000000 -100000.0000000000 -100000.0000000000 -49963.6197671350
-660000.0000000000 -100000.0000000000 -100000.0000000000 -100000.0000000000 -100000.0000000000 -100000.0000000000 -100000.0000000000 -50050.8174706688
-660000.0000000000 -100000.0000000000 -100000.0000000000 -100000.0000000000 -100000.0000000000 -100000.0000000000 -100000.0000000000 -50126.9575417890
-660000.0000000000 -100000.0000000000 -100000.0000000000 -100000.0000000000 -100000.0000000000 -100000.0000000000 -100000.0000000000 -50174.1166757287
-660000.0000000000 -100000.0000000000 -100000.0000000000 -100000.0000000000 -100000.0000000000 -100000.0000000000 -100000.0000000000 -50192.5968782521
-660000.0000000000 -100000.0000000000 -100000.0000000000 -100000.0000000000 -100000.0000000000 -100000.0000000000 -100000.0000000000 -50187.2782594808
-660000.0000000000 -100000.0000000000 -100000.0000000000 -100000.0000000000 -100000.0000000000 -100000.0000000000 -100000.0000000000 -50162.4170653546
-660000.0000000000 -100000.0000000000 -100000.0000000000 -100000.0000000000 -100000.0000000000 -100000.0000000000 -100000.0000000000 -50122.2856810130
-660000.0000000000 -100000.0000000000 -100000.0000000000 -100000.0000000000 -100000.0000000000 -100000.0000000000 -100000.0000000000 -50071.1564915955
-660000.0000000000 -100000.0000000000 -100000.0000000000 -100000.0000000000 -100000.0000000000 -100000.0000000000 -100000.0000000000 -50013.3018822418
-660000.0000000000 -100000.0000000000 -100000.0000000000 -100000.0000000000 -100000.0000000000 -100000.0000000000 -100000.0000000000 -49952.9942380911
-660000.0000000000 -100000.0000000000 -100000.0000000000 -100000.0000000000 -100000.0000000000 -100000.0000000000 -100000.0000000000 -49894.5059442832
-660000.0000000000 -100000.0000000000 -100000.0000000000 -100000.0000000000 -100000.0000000000 -100000.0000000000 -100000.0000000000 -49844.7342385315
-660000.0000000000 -100000.0000000000 -100000.0000000000 -100000.0000000000 -100000.0000000000 -100000.0000000000 -100000.0000000000 -49804.9122887359
-660000.0000000000 -100000.0000000000 -100000.0000000000 -100000.0000000000 -100000.0000000000 -100000.0000000000 -100000.0000000000 -49770.2752864936
-660000.0000000000 -100000.0000000000 -100000.0000000000 -100000.0000000000 -100000.0000000000 -100000.0000000000 -100000.0000000000 -49744.4977461650
-660000.0000000000 -100000.0000000000 -100000.0000000000 -100000.0000000000 -100000.0000000000 -100000.0000000000 -100000.0000000000 -49726.1586209932
-660000.0000000000 -100000.0000000000 -100000.0000000000 -100000.0000000000 -100000.0000000000 -100000.0000000000 -100000.0000000000 -49713.3704062469
-660000.0000000000 -100000.0000000000 -100000.0000000000 -100000.0000000000 -100000.0000000000 -100000.0000000000 -100000.0000000000 -49704.1874650313
-660000.0000000000 -100000.0000000000 -100000.0000000000 -100000.0000000000 -100000.0000000000 -100000.0000000000 -100000.0000000000 -49697.1228719101
-660000.0000000000 -100000.0000000000 -100000.0000000000 -100000.0000000000 -100000.0000000000 -100000.0000000000 -100000.0000000000 -49690.6897400351
-660000.0000000000 -100000.0000000000 -100000.0000000000 -100000.0000000000 -100000.0000000000 -100000.0000000000 -100000.0000000000 -49683.4011825581
-660000.0000000000 -100000.0000000000 -100000.0000000000 -100000.0000000000 -100000.0000000000 -100000.0000000000 -100000.0000000000 -49673.7703126306
-660000.0000000000 -100000.0000000000 -100000.0000000000 -100000.0000000000 -100000.0000000000 -100000.0000000000 -100000.0000000000 -49660.3589596539
-660000.0000000000 -100000.0000000000 -100000.0000000000 -100000.0000000000 -100000.0000000000 -100000.0000000000 -100000.0000000000 -49643.4757830315
-660000.0000000000 -100000.0000000000 -100000.0000000000 -100000.0000000000 -100000.0000000000 -100000.0000000000 -100000.0000000000 -49641.4862609046
-660000.0000000000 -100000.0000000000 -100000.0000000000 -100000.0000000000 -100000.0000000000 -100000.0000000000 -100000.0000000000 -49653.6477361829
-660000.0000000000 -111360.3934797563 -111360.3934797563 -111360.3934797563 -111360.3934797563 -111360.3934797563 -111360.3934797563 -49675.4245657540
-660000.0000000000 -126759.9245217970 -126759.9245217970 -126759.9245217970 -126759.9245217970 -126759.9245217970 -126759.9245217970 -49707.6352321909
-660000.0000000000 -143322.1355506424 -143322.1355506424 -143322.1355506424 -143322.1355506424 -143322.1355506424 -143322.1355506424 -49751.0089545238
-660000.0000000000 -160469.9055092369 -160469.9055092369 -160469.9055092369 -160469.9055092369 -160469.9055092369 -160469.9055092369 -49806.1541704919
-660000.0000000000 -177626.2257305369 -177626.2257305369 -177626.2257305369 -177626.2257305369 -177626.2257305369 -177626.2257305369 -49873.6790697749
-660000.0000000000 -194214.0875474931 -194214.0875474931 -194214.0875474931 -194214.0875474931 -194214.0875474931 -194214.0875474931 -49954.1918420527
-660000.0000000000 -209425.6219915027 -209425.6219915027 -209425.6219915027 -209425.6219915027 -209425.6219915027 -209425.6219915027 -50048.6825510480
-660000.0000000000 -221546.0788945532 -221546.0788945532 -221546.0788945532 -221546.0788945532 -221546.0788945532 -221546.0788945532 -50159.6487916113
-660000.0000000000 -229092.4482588403 -229092.4482588403 -229092.4482588403 -229092.4482588403 -229092.4482588403 -229092.4482588403 -50290.4626712581
-660000.0000000000 -233085.4700377667 -233085.4700377667 -233085.4700377667 -233085.4700377667 -233085.4700377667 -233085.4700377667 -50470.3292895366
-660000.0000000000 -235151.3204691344 -235151.3204691344 -235151.3204691344 -235151.3204691344 -235151.3204691344 -235151.3204691344 -50676.2538843539
-660000.0000000000 -236625.0041655577 -236625.0041655577 -236625.0041655577 -236625.0041655577 -236625.0041655577 -236625.0041655577 -50839.7003628504
-660000.0000000000 -237423.2908856681 -237423.2908856681 -237423.2908856681 -237423.2908856681 -237423.2908856681 -237423.2908856681 -50943.2491231875
-660000.0000000000 -236994.5966739177 -236994.5966739177 -236994.5966739177 -236994.5966739177 -236994.5966739177 -236994.5966739177 -50988.1447244206
-660000.0000000000 -235437.3535512056 -235437.3535512056 -235437.3535512056 -235437.3535512056 -235437.3535512056 -235437.3535512056 -50990.6480764003
-660000.0000000000 -232871.9051488776 -232871.9051488776 -232871.9051488776 -232871.9051488776 -232871.9051488776 -232871.9051488776 -50967.2884242762
-660000.0000000000 -229468.9948003193 -229468.9948003193 -229468.9948003193 -229468.9948003193 -229468.9948003193 -229468.9948003193 -50934.5732015876
-660000.0000000000 -225809.1542403896 -225809.1542403896 -225809.1542403896 -225809.1542403896 -225809.1542403896 -225809.1542403896 -50899.6669605503
-660000.0000000000 -222644.8917360468 -222644.8917360468 -222644.8917360468 -222644.8917360468 -222644.8917360468 -222644.8917360468 -50858.9861689946
-660000.0000000000 -220704.5428805389 -220704.5428805389 -220704.5428805389 -220704.5428805389 -220704.5428805389 -220704.5428805389 -50807.6908770827
-660000.0000000000 -219563.7976428028 -219563.7976428028 -219563.7976428028 -219563.7976428028 -219563.7976428028 -219563.7976428028 -50707.9884321975
-660000.0000000000 -218766.3735102825 -218766.3735102825 -218766.3735102825 -218766.3735102825 -218766.3735102825 -218766.3735102825 -50550.8248557930
-660000.0000000000 -218221.3464068148 -218221.3464068148 -218221.3464068148 -218221.3464068148 -218221.3464068148 -218221.3464068148 -50359.9853616996
-660000.0000000000 -217509.6079936261 -217509.6079936261 -217509.6079936261 -217509.6079936261 -217509.6079936261 -217509.6079936261 -50189.7956658202
-660000.0000000000 -216379.1556465912 -216379.1556465912 -216379.1556465912 -216379.1556465912 -216379.1556465912 -216379.1556465912 -50066.1444339734
-660000.0000000000 -214680.7289616528 -214680.7289616528 -214680.7289616528 -214680.7289616528 -214680.7289616528 -214680.7289616528 -50010.3871620598
-660000.0000000000 -212653.9034084411 -212653.9034084411 -212653.9034084411 -212653.9034084411 -212653.9034084411 -212653.9034084411 -50018.2402050830
-660000.0000000000 -210473.0868507109 -210473.0868507109 -210473.0868507109 -210473.0868507109 -210473.0868507109 -210473.0868507109 -50064.8099270550
-660000.0000000000 -208415.2338827769 -208415.2338827769 -208415.2338827769 -208415.2338827769 -208415.2338827769 -208415.2338827769 -50110.8322779063
-660000.0000000000 -207066.5995250792 -207066.5995250792 -207066.5995250792 -207066.5995250792 -207066.5995250792 -207066.5995250792 -50086.5050536152
-660000.0000000000 -206693.2710654118 -206693.2710654118 -206693.2710654118 -206693.2710654118 -206693.2710654118 -206693.2710654118 -49963.3982537595
-660000.0000000000 -207216.6702702618 -207216.6702702618 -207216.6702702618 -207216.6702702618 -207216.6702702618 -207216.6702702618 -49755.5400322579
-660000.0000000000 -208300.8879983767 -208300.8879983767 -208300.8879983767 -208300.8879983767 -208300.8879983767 -208300.8879983767 -49497.2261358557
-660000.0000000000 -209644.9205297875 -209644.9205297875 -209644.9205297875 -209644.9205297875 -209644.9205297875 -209644.9205297875 -49215.0995732428
-660000.0000000000 -210958.9100962456 -210958.9100962456 -210958.9100962456 -210958.9100962456 -210958.9100962456 -210958.9100962456 -48934.0443466426
-660000.0000000000 -212115.0541908553 -212115.0541908553 -212115.0541908553 -212115.0541908553 -212115.0541908553 -212115.0541908553 -48659.7137846758
-660000.0000000000 -213100.4343680744 -213100.4343680744 -213100.4343680744 -213100.4343680744 -213100.4343680744 -213100.4343680744 -48385.9973678172
-660000.0000000000 -213904.2477687544 -213904.2477687544 -213904.2477687544 -213904.2477687544 -213904.2477687544 -213904.2477687544 -48106.6200855627
-660000.0000000000 -214506.8353547701 -214506.8353547701 -214506.8353547701 -214506.8353547701 -214506.8353547701 -214506.8353547701 -47816.7954285073
-660000.0000000000 -214867.3298426624 -214867.3298426624 -214867.3298426624 -214867.3298426624 -214867.3298426624 -214867.3298426624 -47524.5709516003
-660000.0000000000 -214920.6241534075 -214920.6241534075 -214920.6241534075 -214920.6241534075 -214920.6241534075 -214920.6241534075 -47268.3166685166
-660000.0000000000 -214337.4808104799 -214337.4808104799 -214337.4808104799 -214337.4808104799 -214337.4808104799 -214337.4808104799 -47136.9066117478
-660000.0000000000 -212680.4207943219 -212680.4207943219 -212680.4207943219 -212680.4207943219 -212680.4207943219 -212680.4207943219 -47088.6422391102
-660000.0000000000 -210143.6998659002 -210143.6998659002 -210143.6998659002 -210143.6998659002 -210143.6998659002 -210143.6998659002 -47086.2790904940
-660000.0000000000 -207141.8853950904 -207141.8853950904 -207141.8853950904 -207141.8853950904 -207141.8853950904 -207141.8853950904 -47115.2712458304
-660000.0000000000 -203975.9383354964 -203975.9383354964 -203975.9383354964 -203975.9383354964 -203975.9383354964 -203975.9383354964 -47165.4792406910
-660000.0000000000 -200832.1427751146 -200832.1427751146 -200832.1427751146 -200832.1427751146 -200832.1427751146 -200832.1427751146 -47230.6208144546
-660000.0000000000 -197896.3398768200 -197896.3398768200 -197896.3398768200 -197896.3398768200 -197896.3398768200 -197896.3398768200 -47304.4276682914
-660000.0000000000 -195354.3708034876 -195354.3708034876 -195354.3708034876 -195354.3708034876 -195354.3708034876 -195354.3708034876 -47380.6315033716
-660000.0000000000 -193392.2405634256 -193392.2405634256 -193392.2405634256 -193392.2405634256 -193392.2405634256 -193392.2405634256 -47452.9554014984
-660000.0000000000 -192275.0797027916 -192275.0797027916 -192275.0797027916 -192275.0797027916 -192275.0797027916 -192275.0797027916 -47510.9866746285
-660000.0000000000 -192306.0044258349 -192306.0044258349 -192306.0044258349 -192306.0044258349 -192306.0044258349 -192306.0044258349 -47551.7146752897
-660000.0000000000 -193289.4514158440 -193289.4514158440 -193289.4514158440 -193289.4514158440 -193289.4514158440 -193289.4514158440 -47595.0104479390
-660000.0000000000 -194766.0850572878 -194766.0850572878 -194766.0850572878 -194766.0850572878 -194766.0850572878 -194766.0850572878 -47615.4844526751
-660000.0000000000 -196827.8743815914 -196827.8743815914 -196827.8743815914 -196827.8743815914 -196827.8743815914 -196827.8743815914 -47631.0190523237
-660000.0000000000 -199380.0402011221 -199380.0402011221 -199380.0402011221 -199380.0402011221 -199380.0402011221 -199380.0402011221 -47639.6651193670
-660000.0000000000 -202307.4231629888 -202307.4231629888 -202307.4231629888 -202307.4231629888 -202307.4231629888 -202307.4231629888 -47638.8896282342
-660000.0000000000 -205494.8692310421 -205494.8692310421 -205494.8692310421 -205494.8692310421 -205494.8692310421 -205494.8692310421 -47626.0011274099
-660000.0000000000 -208826.7340679957 -208826.7340679957 -208826.7340679957 -208826.7340679957 -208826.7340679957 -208826.7340679957 -47595.6773343214
-660000.0000000000 -212185.9561686525 -212185.9561686525 -212185.9561686525 -212185.9561686525 -212185.9561686525 -212185.9561686525 -47544.4478109709
-660000.0000000000 -215455.2564721753 -215455.2564721753 -215455.2564721753 -215455.2564721753 -215455.2564721753 -215455.2564721753 -47469.8902355898
-660000.0000000000 -218517.3559177257 -218517.3559177257 -218517.3559177257 -218517.3559177257 -218517.3559177257 -218517.3559177257 -47369.5822864096
-660000.0000000000 -221213.5547453094 -221213.5547453094 -221213.5547453094 -221213.5547453094 -221213.5547453094 -221213.5547453094 -47243.1853367165
-660000.0000000000 -222953.2803024068 -222953.2803024068 -222953.2803024068 -222953.2803024068 -222953.2803024068 -222953.2803024068 -47103.5964492426
-660000.0000000000 -224497.5179897423 -224497.5179897423 -224497.5179897423 -224497.5179897423 -224497.5179897423 -224497.5179897423 -46903.9390654002
-660000.0000000000 -226084.1045125184 -226084.1045125184 -226084.1045125184 -226084.1045125184 -226084.1045125184 -226084.1045125184 -46754.7842464856
-660000.0000000000 -227527.4688918629 -227527.4688918629 -227527.4688918629 -227527.4688918629 -227527.4688918629 -227527.4688918629 -46678.4608362212
-660000.0000000000 -228754.1961626565 -228754.1961626565 -228754.1961626565 -228754.1961626565 -228754.1961626565 -228754.1961626565 -46642.1429325535
-660000.0000000000 -229732.2991276190 -229732.2991276190 -229732.2991276190 -229732.2991276190 -229732.2991276190 -229732.2991276190 -46633.2494771072
-660000.0000000000 -230441.9677124622 -230441.9677124622 -230441.9677124622 -230441.9677124622 -230441.9677124622 -230441.9677124622 -46645.3592322455
-660000.0000000000 -230863.3918428977 -230863.3918428977 -230863.3918428977 -230863.3918428977 -230863.3918428977 -230863.3918428977 -46672.0509603316
-660000.0000000000 -230976.7401667280 -230976.7401667280 -230976.7401667280 -230976.7401667280 -230976.7401667280 -230976.7401667280 -46707.2087274792
-660000.0000000000 -230754.3502235841 -230754.3502235841 -230754.3502235841 -230754.3502235841 -230754.3502235841 -230754.3502235841 -46769.5863915454
-660000.0000000000 -230149.3158478792 -230149.3158478792 -230149.3158478792 -230149.3158478792 -230149.3158478792 -230149.3158478792 -46886.5005510911
-660000.0000000000 -229248.6943142020 -229248.6943142020 -229248.6943142020 -229248.6943142020 -229248.6943142020 -229248.6943142020 -47031.1246392670
-660000.0000000000 -228515.5865415575 -228515.5865415575 -228515.5865415575 -228515.5865415575 -228515.5865415575 -228515.5865415575 -47061.7715798913
-660000.0000000000 -227741.4537503762 -227741.4537503762 -227741.4537503762 -227741.4537503762 -227741.4537503762 -227741.4537503762 -46978.5322061573
-660000.0000000000 -226655.1152316443 -226655.1152316443 -226655.1152316443 -226655.1152316443 -226655.1152316443 -226655.1152316443 -46764.1195432118
-660000.0000000000 -225325.7318471662 -225325.7318471662 -225325.7318471662 -225325.7318471662 -225325.7318471662 -225325.7318471662 -46479.1834427118
-660000.0000000000 -223889.2738122476 -223889.2738122476 -223889.2738122476 -223889.2738122476 -223889.2738122476 -223889.2738122476 -46185.2951310489
-660000.0000000000 -222376.7311660405 -222376.7311660405 -222376.7311660405 -222376.7311660405 -222376.7311660405 -222376.7311660405 -45888.6040900731
-660000.0000000000 -220821.9410888419 -220821.9410888419 -220821.9410888419 -220821.9410888419 -220821.9410888419 -220821.9410888419 -45596.3343817662
-660000.0000000000 -219321.9143007216 -219321.9143007216 -219321.9143007216 -219321.9143007216 -219321.9143007216 -219321.9143007216 -45346.1154741407
-660000.0000000000 -217990.4600954984 -217990.4600954984 -217990.4600954984 -217990.4600954984 -217990.4600954984 -217990.4600954984 -45196.8106153334
-660000.0000000000 -216862.7887953168 -216862.7887953168 -216862.7887953168 -216862.7887953168 -216862.7887953168 -216862.7887953168 -45192.3600078261
-660000.0000000000 -215236.2583554691 -215236.2583554691 -215236.2583554691 -215236.2583554691 -215236.2583554691 -215236.2583554691 -45211.0021511721
-660000.0000000000 -213127.3242919928 -213127.3242919928 -213127.3242919928 -213127.3242919928 -213127.3242919928 -213127.3242919928 -45216.2846070241
-660000.0000000000 -210851.7703045799 -210851.7703045799 -210851.7703045799 -210851.7703045799 -210851.7703045799 -210851.7703045799 -45216.5657272392
-660000.0000000000 -208773.9341701449 -208773.9341701449 -208773.9341701449 -208773.9341701449 -208773.9341701449 -208773.9341701449 -45208.1195747362
-660000.0000000000 -207050.8500029035 -207050.8500029035 -207050.8500029035 -207050.8500029035 -207050.8500029035 -207050.8500029035 -45182.7578467233
-660000.0000000000 -205814.5358146754 -205814.5358146754 -205814.5358146754 -205814.5358146754 -205814.5358146754 -205814.5358146754 -45132.5832217471
-660000.0000000000 -204980.7496625634 -204980.7496625634 -204980.7496625634 -204980.7496625634 -204980.7496625634 -204980.7496625634 -45079.3808247496
-660000.0000000000 -204356.4118385730 -204356.4118385730 -204356.4118385730 -204356.4118385730 -204356.4118385730 -204356.4118385730 -45052.0539724729
-660000.0000000000 -203999.4086235607 -203999.4086235607 -203999.4086235607 -203999.4086235607 -203999.4086235607 -203999.4086235607 -45050.8454652708
-660000.0000000000 -204096.2076389123 -204096.2076389123 -204096.2076389123 -204096.2076389123 -204096.2076389123 -204096.2076389123 -45087.3547319468
-660000.0000000000 -205750.7554898640 -205750.7554898640 -205750.7554898640 -205750.7554898640 -205750.7554898640 -205750.7554898640 -45144.7523859300
-660000.0000000000 -209234.9139828563 -209234.9139828563 -209234.9139828563 -209234.9139828563 -209234.9139828563 -209234.9139828563 -45201.4030934515
-660000.0000000000 -213777.2033141099 -213777.2033141099 -213777.2033141099 -213777.2033141099 -213777.2033141099 -213777.2033141099 -45253.1709155622
-660000.0000000000 -218670.2334620880 -218670.2334620880 -218670.2334620880 -218670.2334620880 -218670.2334620880 -218670.2334620880 -45296.9387216682
-660000.0000000000 -223639.2820036222 -223639.2820036222 -223639.2820036222 -223639.2820036222 -223639.2820036222 -223639.2820036222 -45330.4272484046
-660000.0000000000 -228449.0754545177 -228449.0754545177 -228449.0754545177 -228449.0754545177 -228449.0754545177 -228449.0754545177 -45351.3819635740
-660000.0000000000 -232864.3403305798 -232864.3403305798 -232864.3403305798 -232864.3403305798 -232864.3403305798 -232864.3403305798 -45357.5483349790
-660000.0000000000 -236646.0992503885 -236646.0992503885 -236646.0992503885 -236646.0992503885 -236646.0992503885 -236646.0992503885 -45346.1408810388
-660000.0000000000 -239536.1300267628 -239536.1300267628 -239536.1300267628 -239536.1300267628 -239536.1300267628 -239536.1300267628 -45312.3987746430
-660000.0000000000 -241145.7222732719 -241145.7222732719 -241145.7222732719 -241145.7222732719 -241145.7222732719 -241145.7222732719 -45262.7797888424
-660000.0000000000 -241896.3557386836 -241896.3557386836 -241896.3557386836 -241896.3557386836 -241896.3557386836 -241896.3557386836 -45216.5893451555
-660000.0000000000 -241815.5710024135 -241815.5710024135 -241815.5710024135 -241815.5710024135 -241815.5710024135 -241815.5710024135 -45180.8703292998
-660000.0000000000 -240786.8977998929 -240786.8977998929 -240786.8977998929 -240786.8977998929 -240786.8977998929 -240786.8977998929 -45152.9494747143
-660000.0000000000 -238979.2385813024 -238979.2385813024 -238979.2385813024 -238979.2385813024 -238979.2385813024 -238979.2385813024 -45131.1365958486
-660000.0000000000 -236626.2701743022 -236626.2701743022 -236626.2701743022 -236626.2701743022 -236626.2701743022 -236626.2701743022 -45110.8201457911
-660000.0000000000 -233931.8496288772 -233931.8496288772 -233931.8496288772 -233931.8496288772 -233931.8496288772 -233931.8496288772 -45089.5394263479
-660000.0000000000 -231075.4411597888 -231075.4411597888 -231075.4411597888 -231075.4411597888 -231075.4411597888 -231075.4411597888 -45066.1350247148
-660000.0000000000 -228236.5089817978 -228236.5089817978 -228236.5089817978 -228236.5089817978 -228236.5089817978 -228236.5089817978 -45039.4475280873
-660000.0000000000 -225594.5173096660 -225594.5173096660 -225594.5173096660 -225594.5173096660 -225594.5173096660 -225594.5173096660 -45008.3175236610
-660000.0000000000 -223554.6813520669 -223554.6813520669 -223554.6813520669 -223554.6813520669 -223554.6813520669 -223554.6813520669 -44983.7127005192
-660000.0000000000 -222513.9429799157 -222513.9429799157 -222513.9429799157 -222513.9429799157 -222513.9429799157 -222513.9429799157 -44993.7825735492
-660000.0000000000 -220977.0581435640 -220977.0581435640 -220977.0581435640 -220977.0581435640 -220977.0581435640 -220977.0581435640 -45012.0465256311
-660000.0000000000 -219393.3821051797 -219393.3821051797 -219393.3821051797 -219393.3821051797 -219393.3821051797 -219393.3821051797 -44992.5007210194
-660000.0000000000 -218009.7389607503 -218009.7389607503 -218009.7389607503 -218009.7389607503 -218009.7389607503 -218009.7389607503 -44967.7336921910
-660000.0000000000 -216789.8384990605 -216789.8384990605 -216789.8384990605 -216789.8384990605 -216789.8384990605 -216789.8384990605 -44943.1366371817
-660000.0000000000 -215675.0860963443 -215675.0860963443 -215675.0860963443 -215675.0860963443 -215675.0860963443 -215675.0860963443 -44920.5347130002
-660000.0000000000 -214605.0799104028 -214605.0799104028 -214605.0799104028 -214605.0799104028 -214605.0799104028 -214605.0799104028 -44901.6620434548
-660000.0000000000 -213550.8766086763 -213550.8766086763 -213550.8766086763 -213550.8766086763 -213550.8766086763 -213550.8766086763 -44889.5995159461
-660000.0000000000 -212574.2275104391 -212574.2275104391 -212574.2275104391 -212574.2275104391 -212574.2275104391 -212574.2275104391 -44893.6071226726
-660000.0000000000 -211771.2682511587 -211771.2682511587 -211771.2682511587 -211771.2682511587 -211771.2682511587 -211771.2682511587 -44925.8139194175
-660000.0000000000 -211187.3711014481 -211187.3711014481 -211187.3711014481 -211187.3711014481 -211187.3711014481 -211187.3711014481 -44994.9302487009
-660000.0000000000 -210455.0097485511 -210455.0097485511 -210455.0097485511 -210455.0097485511 -210455.0097485511 -210455.0097485511 -45076.4895789138
-660000.0000000000 -209566.5755620055 -209566.5755620055 -209566.5755620055 -209566.5755620055 -209566.5755620055 -209566.5755620055 -45160.4204979291
-660000.0000000000 -208658.9777435997 -208658.9777435997 -208658.9777435997 -208658.9777435997 -208658.9777435997 -208658.9777435997 -45235.9796597300
-660000.0000000000 -207777.7254507105 -207777.7254507105 -207777.7254507105 -207777.7254507105 -207777.7254507105 -207777.7254507105 -45296.3149047315
-660000.0000000000 -206929.5690276957 -206929.5690276957 -206929.5690276957 -206929.5690276957 -206929.5690276957 -206929.5690276957 -45342.5758824597
-660000.0000000000 -206080.7778548170 -206080.7778548170 -206080.7778548170 -206080.7778548170 -206080.7778548170 -206080.7778548170 -45412.4039123839
-660000.0000000000 -205240.2728102069 -205240.2728102069 -205240.2728102069 -205240.2728102069 -205240.2728102069 -205240.2728102069 -45502.6338120059
-660000.0000000000 -204430.0768598814 -204430.0768598814 -204430.0768598814 -204430.0768598814 -204430.0768598814 -204430.0768598814 -45597.8782110376
-660000.0000000000 -203700.7840468038 -203700.7840468038 -203700.7840468038 -203700.7840468038 -203700.7840468038 -203700.7840468038 -45674.5296749990
-660000.0000000000 -203138.7266605562 -203138.7266605562 -203138.7266605562 -203138.7266605562 -203138.7266605562 -203138.7266605562 -45710.7057782773
-660000.0000000000 -202813.0850561093 -202813.0850561093 -202813.0850561093 -202813.0850561093 -202813.0850561093 -202813.0850561093 -45696.3499327009
-660000.0000000000 -202859.4174007563 -202859.4174007563 -202859.4174007563 -202859.4174007563 -202859.4174007563 -202859.4174007563 -45620.1405284886
-660000.0000000000 -203881.0621743029 -203881.0621743029 -203881.0621743029 -203881.0621743029 -203881.0621743029 -203881.0621743029 -45463.8853758744
-660000.0000000000 -205765.2705247026 -205765.2705247026 -205765.2705247026 -205765.2705247026 -205765.2705247026 -205765.2705247026 -45227.5009489201
-660000.0000000000 -208198.9064610705 -208198.9064610705 -208198.9064610705 -208198.9064610705 -208198.9064610705 -208198.9064610705 -44914.9911351157
-660000.0000000000 -210504.8265746212 -210504.8265746212 -210504.8265746212 -210504.8265746212 -210504.8265746212 -210504.8265746212 -44526.1426369206
-660000.0000000000 -212276.5600590477 -212276.5600590477 -212276.5600590477 -212276.5600590477 -212276.5600590477 -212276.5600590477 -44051.1279774076
-660000.0000000000 -213324.1578089168 -213324.1578089168 -213324.1578089168 -213324.1578089168 -213324.1578089168 -213324.1578089168 -43479.4262173186
-660000.0000000000 -213651.6387994505 -213651.6387994505 -213651.6387994505 -213651.6387994505 -213651.6387994505 -213651.6387994505 -42886.0197125474
-660000.0000000000 -213423.4466988653 -213423.4466988653 -213423.4466988653 -213423.4466988653 -213423.4466988653 -213423.4466988653 -42320.8922756586
-660000.0000000000 -212750.5855989835 -212750.5855989835 -212750.5855989835 -212750.5855989835 -212750.5855989835 -212750.5855989835 -41773.6603212364
-660000.0000000000 -211736.2324455337 -211736.2324455337 -211736.2324455337 -211736.2324455337 -211736.2324455337 -211736.2324455337 -41234.2746830047
-660000.0000000000 -210345.8408712155 -210345.8408712155 -210345.8408712155 -210345.8408712155 -210345.8408712155 -210345.8408712155 -40701.9940410154
-660000.0000000000 -208451.6181695580 -208451.6181695580 -208451.6181695580 -208451.6181695580 -208451.6181695580 -208451.6181695580 -40186.2431139284
-660000.0000000000 -205927.3287315321 -205927.3287315321 -205927.3287315321 -205927.3287315321 -205927.3287315321 -205927.3287315321 -39696.9487692005
-660000.0000000000 -202835.9673187019 -202835.9673187019 -202835.9673187019 -202835.9673187019 -202835.9673187019 -202835.9673187019 -39148.4794911580
-660000.0000000000 -199797.5640613525 -199797.5640613525 -199797.5640613525 -199797.5640613525 -199797.5640613525 -199797.5640613525 -38250.5766608620
-660000.0000000000 -196908.4862387874 -196908.4862387874 -196908.4862387874 -196908.4862387874 -196908.4862387874 -196908.4862387874 -37067.8078424265
-660000.0000000000 -194272.9547605226 -194272.9547605226 -194272.9547605226 -194272.9547605226 -194272.9547605226 -194272.9547605226 -35734.4895552255
-660000.0000000000 -192228.0323404321 -192228.0323404321 -192228.0323404321 -192228.0323404321 -192228.0323404321 -192228.0323404321 -34453.1199491368
-660000.0000000000 -191008.1983397373 -191008.1983397373 -191008.1983397373 -191008.1983397373 -191008.1983397373 -191008.1983397373 -33282.3008899187
-660000.0000000000 -190490.1597219533 -190490.1597219533 -190490.1597219533 -190490.1597219533 -190490.1597219533 -190490.1597219533 -32359.7046679389
-660000.0000000000 -189925.1207886758 -189925.1207886758 -189925.1207886758 -189925.1207886758 -189925.1207886758 -189925.1207886758 -31872.6529628253
-660000.0000000000 -189294.5943568297 -189294.5943568297 -189294.5943568297 -189294.5943568297 -189294.5943568297 -189294.5943568297 -31705.6354943908
-660000.0000000000 -188620.2240979917 -188620.2240979917 -188620.2240979917 -188620.2240979917 -188620.2240979917 -188620.2240979917 -31730.0023511285
-660000.0000000000 -187883.2378231012 -187883.2378231012 -187883.2378231012 -187883.2378231012 -187883.2378231012 -187883.2378231012 -31806.6852483754
-660000.0000000000 -186959.3357010926 -186959.3357010926 -186959.3357010926 -186959.3357010926 -186959.3357010926 -186959.3357010926 -31869.7452703113
