C	1.0 1.0 1000.0 1000.0 1.0 0.001 0.001 1000.0 1000.0
rho	3700.0 3300.0 3300.0 2800.0 3300.0 3300.0 2750.0 3300.0 2750.0
H	0.0 0.0 0.0 0.0 0.0 0.0 0.0 0.0 0.0
A	0.0 0.0 0.0 0.0 0.0 0.0 0.0 0.0 0.0
n	0.0 0.0 0.0 0.0 0.0 0.0 0.0 0.0 0.0
Q	0.0 0.0 0.0 0.0 0.0 0.0 0.0 0.0 0.0
V	0.0 0.0 0.0 0.0 0.0 0.0 0.0 0.0 0.0
-660000.0000000000 -43899.9151650547 -7000.0000000000 0.0000000000 0.0000000000 0.0000000000 0.0000000000 0.0000000000
-660000.0000000000 -44999.4657757695 -7000.0000000000 0.0000000000 0.0000000000 0.0000000000 0.0000000000 0.0000000000
-660000.0000000000 -46050.0340248583 -7000.0000000000 0.0000000000 0.0000000000 0.0000000000 0.0000000000 0.0000000000
-660000.0000000000 -46983.6780404971 -7000.0000000000 0.0000000000 0.0000000000 0.0000000000 0.0000000000 0.0000000000
-660000.0000000000 -47733.2064276068 -7000.0000000000 0.0000000000 0.0000000000 0.0000000000 0.0000000000 0.0000000000
-660000.0000000000 -48341.7952193458 -7000.0000000000 0.0000000000 0.0000000000 0.0000000000 0.0000000000 0.0000000000
-660000.0000000000 -48501.9389844692 -7000.0000000000 0.0000000000 0.0000000000 0.0000000000 0.0000000000 0.0000000000
-660000.0000000000 -48274.5233435061 -7000.0000000000 0.0000000000 0.0000000000 0.0000000000 0.0000000000 0.0000000000
-660000.0000000000 -47758.0665790574 -7000.0000000000 0.0000000000 0.0000000000 0.0000000000 0.0000000000 0.0000000000
-660000.0000000000 -47021.3357579743 -7000.0000000000 0.0000000000 0.0000000000 0.0000000000 0.0000000000 0.0000000000
-660000.0000000000 -46133.0979471084 -7000.0000000000 0.0000000000 0.0000000000 0.0000000000 0.0000000000 0.0000000000
-660000.0000000000 -45162.1202133113 -7000.0000000000 0.0000000000 0.0000000000 0.0000000000 0.0000000000 0.0000000000
-660000.0000000000 -44177.1696234342 -7000.0000000000 0.0000000000 0.0000000000 0.0000000000 0.0000000000 0.0000000000
-660000.0000000000 -43247.0132443285 -7000.0000000000 0.0000000000 0.0000000000 0.0000000000 0.0000000000 0.0000000000
-660000.0000000000 -42415.5320115927 -7000.0000000000 0.0000000000 0.0000000000 0.0000000000 0.0000000000 0.0000000000
-660000.0000000000 -41665.4793375226 -7000.0000000000 0.0000000000 0.0000000000 0.0000000000 0.0000000000 0.0000000000
-660000.0000000000 -41013.6987211800 -7000.0000000000 0.0000000000 0.0000000000 0.0000000000 0.0000000000 0.0000000000
-660000.0000000000 -40592.4146259398 -7000.0000000000 0.0000000000 0.0000000000 0.0000000000 0.0000000000 0.0000000000
-660000.0000000000 -40839.1174236308 -7000.0000000000 0.0000000000 0.0000000000 0.0000000000 0.0000000000 0.0000000000
-660000.0000000000 -41542.4777943997 -7000.0000000000 0.0000000000 0.0000000000 0.0000000000 0.0000000000 0.0000000000
-660000.0000000000 -42552.6797028491 -7000.0000000000 0.0000000000 0.0000000000 0.0000000000 0.0000000000 0.0000000000
-660000.0000000000 -43785.8700550463 -7000.0000000000 0.0000000000 0.0000000000 0.0000000000 0.0000000000 0.0000000000
-660000.0000000000 -45158.2675676737 -7000.0000000000 0.0000000000 0.0000000000 0.0000000000 0.0000000000 0.0000000000
-660000.0000000000 -46596.2225772886 -7000.0000000000 0.0000000000 0.0000000000 0.0000000000 0.0000000000 0.0000000000
-660000.0000000000 -47997.8033868705 -7000.0000000000 0.0000000000 0.0000000000 0.0000000000 0.0000000000 0.0000000000
-660000.0000000000 -49200.2145360677 -7000.0000000000 0.0000000000 0.0000000000 0.0000000000 0.0000000000 0.0000000000
-660000.0000000000 -50039.1003593533 -7000.0000000000 0.0000000000 0.0000000000 0.0000000000 0.0000000000 0.0000000000
-660000.0000000000 -50646.2048448173 -7000.0000000000 0.0000000000 0.0000000000 0.0000000000 0.0000000000 0.0000000000
-660000.0000000000 -51450.5931424037 -7000.0000000000 0.0000000000 0.0000000000 0.0000000000 0.0000000000 0.0000000000
-660000.0000000000 -52279.8861050350 -7000.0000000000 0.0000000000 0.0000000000 0.0000000000 0.0000000000 0.0000000000
-660000.0000000000 -52903.6940934626 -7000.0000000000 0.0000000000 0.0000000000 0.0000000000 0.0000000000 0.0000000000
-660000.0000000000 -53262.3483989674 -7000.0000000000 0.0000000000 0.0000000000 0.0000000000 0.0000000000 0.0000000000
-660000.0000000000 -53379.7757291407 -7000.0000000000 0.0000000000 0.0000000000 0.0000000000 0.0000000000 0.0000000000
-660000.0000000000 -53302.1394367957 -7000.0000000000 0.0000000000 0.0000000000 0.0000000000 0.0000000000 0.0000000000
-660000.0000000000 -53072.4168706798 -7000.0000000000 0.0000000000 0.0000000000 0.0000000000 0.0000000000 0.0000000000
-660000.0000000000 -52739.2409779291 -7000.0000000000 0.0000000000 0.0000000000 0.0000000000 0.0000000000 0.0000000000
-660000.0000000000 -52329.6352423944 -7000.0000000000 0.0000000000 0.0000000000 0.0000000000 0.0000000000 0.0000000000
-660000.0000000000 -51845.7135413299 -7000.0000000000 0.0000000000 0.0000000000 0.0000000000 0.0000000000 0.0000000000
-660000.0000000000 -51204.5390881988 -7000.0000000000 0.0000000000 0.0000000000 0.0000000000 0.0000000000 0.0000000000
-660000.0000000000 -50253.3720708936 -7000.0000000000 0.0000000000 0.0000000000 0.0000000000 0.0000000000 0.0000000000
-660000.0000000000 -49067.2818248356 -7000.0000000000 0.0000000000 0.0000000000 0.0000000000 0.0000000000 0.0000000000
-660000.0000000000 -47781.9227409871 -7000.0000000000 0.0000000000 0.0000000000 0.0000000000 0.0000000000 0.0000000000
-660000.0000000000 -46532.0999471635 -7000.0000000000 0.0000000000 0.0000000000 0.0000000000 0.0000000000 0.0000000000
-660000.0000000000 -45383.0668709775 -7000.0000000000 0.0000000000 0.0000000000 0.0000000000 0.0000000000 0.0000000000
-660000.0000000000 -44351.1561381512 -7000.0000000000 0.0000000000 0.0000000000 0.0000000000 0.0000000000 0.0000000000
-660000.0000000000 -43330.2347100515 -7000.0000000000 0.0000000000 0.0000000000 0.0000000000 0.0000000000 0.0000000000
-660000.0000000000 -42318.7642583562 -7000.0000000000 0.0000000000 0.0000000000 0.0000000000 0.0000000000 0.0000000000
-660000.0000000000 -41352.3342476728 -7000.0000000000 0.0000000000 0.0000000000 0.0000000000 0.0000000000 0.0000000000
-660000.0000000000 -40484.2903870818 -7000.0000000000 0.0000000000 0.0000000000 0.0000000000 0.0000000000 0.0000000000
-660000.0000000000 -39754.4607945598 -7000.0000000000 0.0000000000 0.0000000000 0.0000000000 0.0000000000 0.0000000000
-660000.0000000000 -39181.2741942945 -7000.0000000000 0.0000000000 0.0000000000 0.0000000000 0.0000000000 0.0000000000
-660000.0000000000 -38734.5089377248 -7000.0000000000 0.0000000000 0.0000000000 0.0000000000 0.0000000000 0.0000000000
-660000.0000000000 -38381.6929190391 -7000.0000000000 0.0000000000 0.0000000000 0.0000000000 0.0000000000 0.0000000000
-660000.0000000000 -38090.7180506437 -7000.0000000000 0.0000000000 0.0000000000 0.0000000000 0.0000000000 0.0000000000
-660000.0000000000 -37837.8567220994 -7000.0000000000 0.0000000000 0.0000000000 0.0000000000 0.0000000000 0.0000000000
-660000.0000000000 -37602.5003679032 -7000.0000000000 0.0000000000 0.0000000000 0.0000000000 0.0000000000 0.0000000000
-660000.0000000000 -37364.0404225523 -7000.0000000000 0.0000000000 0.0000000000 0.0000000000 0.0000000000 0.0000000000
-660000.0000000000 -37131.5931910733 -7000.0000000000 0.0000000000 0.0000000000 0.0000000000 0.0000000000 0.0000000000
-660000.0000000000 -36936.2667439020 -7000.0000000000 0.0000000000 0.0000000000 0.0000000000 0.0000000000 0.0000000000
-660000.0000000000 -36767.6140777896 -7000.0000000000 0.0000000000 0.0000000000 0.0000000000 0.0000000000 0.0000000000
-660000.0000000000 -36609.2215879851 -7000.0000000000 0.0000000000 0.0000000000 0.0000000000 0.0000000000 0.0000000000
-660000.0000000000 -36444.9361159407 -7000.0000000000 0.0000000000 0.0000000000 0.0000000000 0.0000000000 0.0000000000
-660000.0000000000 -36280.0479009891 -7000.0000000000 0.0000000000 0.0000000000 0.0000000000 0.0000000000 0.0000000000
-660000.0000000000 -36119.9752532334 -7000.0000000000 0.0000000000 0.0000000000 0.0000000000 0.0000000000 0.0000000000
-660000.0000000000 -35972.1238669987 -7000.0000000000 0.0000000000 0.0000000000 0.0000000000 0.0000000000 0.0000000000
-660000.0000000000 -35846.3058779100 -7000.0000000000 0.0000000000 0.0000000000 0.0000000000 0.0000000000 0.0000000000
-660000.0000000000 -35752.3334215916 -7000.0000000000 0.0000000000 0.0000000000 0.0000000000 0.0000000000 0.0000000000
-660000.0000000000 -35700.9465383009 -7000.0000000000 0.0000000000 0.0000000000 0.0000000000 0.0000000000 0.0000000000
-660000.0000000000 -35709.5496200754 -7000.0000000000 0.0000000000 0.0000000000 0.0000000000 0.0000000000 0.0000000000
-660000.0000000000 -35794.4916454258 -7000.0000000000 0.0000000000 0.0000000000 0.0000000000 0.0000000000 0.0000000000
-660000.0000000000 -35957.8426703241 -7000.0000000000 0.0000000000 0.0000000000 0.0000000000 0.0000000000 0.0000000000
-660000.0000000000 -36309.1216646154 -7000.0000000000 0.0000000000 0.0000000000 0.0000000000 0.0000000000 0.0000000000
-660000.0000000000 -36336.8009268498 -7000.0000000000 0.0000000000 0.0000000000 0.0000000000 0.0000000000 0.0000000000
-660000.0000000000 -36687.3677474858 -7000.0000000000 0.0000000000 0.0000000000 0.0000000000 0.0000000000 0.0000000000
-660000.0000000000 -37117.6610559859 -7000.0000000000 0.0000000000 0.0000000000 0.0000000000 0.0000000000 0.0000000000
-660000.0000000000 -37926.2004473563 -7000.0000000000 0.0000000000 0.0000000000 0.0000000000 0.0000000000 0.0000000000
-660000.0000000000 -38054.8090524632 -7000.0000000000 0.0000000000 0.0000000000 0.0000000000 0.0000000000 0.0000000000
-660000.0000000000 -38540.5100775620 -7000.0000000000 0.0000000000 0.0000000000 0.0000000000 0.0000000000 0.0000000000
-660000.0000000000 -39003.4748855889 -7000.0000000000 0.0000000000 0.0000000000 0.0000000000 0.0000000000 0.0000000000
-660000.0000000000 -39421.0955692691 -7000.0000000000 0.0000000000 0.0000000000 0.0000000000 0.0000000000 0.0000000000
-660000.0000000000 -39770.7642213275 -7000.0000000000 0.0000000000 0.0000000000 0.0000000000 0.0000000000 0.0000000000
-660000.0000000000 -40021.1243597294 -7000.0000000000 0.0000000000 0.0000000000 0.0000000000 0.0000000000 0.0000000000
-660000.0000000000 -40145.2941801680 -7000.0000000000 0.0000000000 0.0000000000 0.0000000000 0.0000000000 0.0000000000
-660000.0000000000 -40174.6034109639 -7000.0000000000 0.0000000000 0.0000000000 0.0000000000 0.0000000000 0.0000000000
-660000.0000000000 -40129.7825818850 -7000.0000000000 0.0000000000 0.0000000000 0.0000000000 0.0000000000 0.0000000000
-660000.0000000000 -40022.8130427746 -7000.0000000000 0.0000000000 0.0000000000 0.0000000000 0.0000000000 0.0000000000
-660000.0000000000 -39865.7016840842 -7000.0000000000 0.0000000000 0.0000000000 0.0000000000 0.0000000000 0.0000000000
-660000.0000000000 -39670.4553962653 -7000.0000000000 0.0000000000 0.0000000000 0.0000000000 0.0000000000 0.0000000000
-660000.0000000000 -39449.0810697696 -7000.0000000000 0.0000000000 0.0000000000 0.0000000000 0.0000000000 0.0000000000
-660000.0000000000 -39213.1616782798 -7000.0000000000 0.0000000000 0.0000000000 0.0000000000 0.0000000000 0.0000000000
-660000.0000000000 -38973.5086569207 -7000.0000000000 0.0000000000 0.0000000000 0.0000000000 0.0000000000 0.0000000000
-660000.0000000000 -38742.0418225410 -7000.0000000000 0.0000000000 0.0000000000 0.0000000000 0.0000000000 0.0000000000
-660000.0000000000 -38530.7515082317 -7000.0000000000 0.0000000000 0.0000000000 0.0000000000 0.0000000000 0.0000000000
-660000.0000000000 -38364.8056889186 -7000.0000000000 0.0000000000 0.0000000000 0.0000000000 0.0000000000 0.0000000000
-660000.0000000000 -38271.6887527826 -7000.0000000000 0.0000000000 0.0000000000 0.0000000000 0.0000000000 0.0000000000
-660000.0000000000 -38734.7398387268 -7000.0000000000 0.0000000000 0.0000000000 0.0000000000 0.0000000000 0.0000000000
-660000.0000000000 -38752.5126138173 -7000.0000000000 0.0000000000 0.0000000000 0.0000000000 0.0000000000 0.0000000000
-660000.0000000000 -39543.2792300972 -7000.0000000000 0.0000000000 0.0000000000 0.0000000000 0.0000000000 0.0000000000
-660000.0000000000 -40351.8186214677 -7000.0000000000 0.0000000000 0.0000000000 0.0000000000 0.0000000000 0.0000000000
-660000.0000000000 -41160.3580128382 -7000.0000000000 0.0000000000 0.0000000000 0.0000000000 0.0000000000 0.0000000000
-660000.0000000000 -41968.8974042086 -7000.0000000000 0.0000000000 0.0000000000 0.0000000000 0.0000000000 0.0000000000
-660000.0000000000 -42777.4367955791 -7000.0000000000 0.0000000000 0.0000000000 0.0000000000 0.0000000000 0.0000000000
-660000.0000000000 -43585.9761869495 -7000.0000000000 0.0000000000 0.0000000000 0.0000000000 0.0000000000 0.0000000000
-660000.0000000000 -44394.5155783200 -7000.0000000000 0.0000000000 0.0000000000 0.0000000000 0.0000000000 0.0000000000
-660000.0000000000 -44492.4980371155 -7000.0000000000 0.0000000000 0.0000000000 0.0000000000 0.0000000000 0.0000000000
-660000.0000000000 -45203.0549696905 -7000.0000000000 0.0000000000 0.0000000000 0.0000000000 0.0000000000 0.0000000000
-660000.0000000000 -46011.5943610609 -7000.0000000000 0.0000000000 0.0000000000 0.0000000000 0.0000000000 0.0000000000
-660000.0000000000 -46440.0997011270 -7000.0000000000 0.0000000000 0.0000000000 0.0000000000 0.0000000000 0.0000000000
-660000.0000000000 -46687.7890966428 -7000.0000000000 0.0000000000 0.0000000000 0.0000000000 0.0000000000 0.0000000000
-660000.0000000000 -46574.8071613564 -7000.0000000000 0.0000000000 0.0000000000 0.0000000000 0.0000000000 0.0000000000
-660000.0000000000 -46218.5556307833 -7000.0000000000 0.0000000000 0.0000000000 0.0000000000 0.0000000000 0.0000000000
-660000.0000000000 -46820.1337524314 -7000.0000000000 0.0000000000 0.0000000000 0.0000000000 0.0000000000 0.0000000000
-660000.0000000000 -47628.6731438018 -7000.0000000000 0.0000000000 0.0000000000 0.0000000000 0.0000000000 0.0000000000
-660000.0000000000 -48437.2125351723 -7000.0000000000 0.0000000000 0.0000000000 0.0000000000 0.0000000000 0.0000000000
-660000.0000000000 -49245.7519265428 -7000.0000000000 0.0000000000 0.0000000000 0.0000000000 0.0000000000 0.0000000000
-660000.0000000000 -50054.2913179132 -7000.0000000000 0.0000000000 0.0000000000 0.0000000000 0.0000000000 0.0000000000
-660000.0000000000 -50862.8307092837 -7000.0000000000 0.0000000000 0.0000000000 0.0000000000 0.0000000000 0.0000000000
-660000.0000000000 -51671.3701006541 -7000.0000000000 0.0000000000 0.0000000000 0.0000000000 0.0000000000 0.0000000000
-660000.0000000000 -52479.9094920246 -7000.0000000000 0.0000000000 0.0000000000 0.0000000000 0.0000000000 0.0000000000
-660000.0000000000 -53288.4488833951 -7000.0000000000 0.0000000000 0.0000000000 0.0000000000 0.0000000000 0.0000000000
-660000.0000000000 -54096.9882747655 -7000.0000000000 0.0000000000 0.0000000000 0.0000000000 0.0000000000 0.0000000000
-660000.0000000000 -54905.5276661360 -7000.0000000000 0.0000000000 0.0000000000 0.0000000000 0.0000000000 0.0000000000
-660000.0000000000 -55714.0670575064 -7000.0000000000 0.0000000000 0.0000000000 0.0000000000 0.0000000000 0.0000000000
-660000.0000000000 -56522.6064488769 -7000.0000000000 0.0000000000 0.0000000000 0.0000000000 0.0000000000 0.0000000000
-660000.0000000000 -57331.1458402473 -7000.0000000000 0.0000000000 0.0000000000 0.0000000000 0.0000000000 0.0000000000
-660000.0000000000 -58139.6852316178 -7000.0000000000 0.0000000000 0.0000000000 0.0000000000 0.0000000000 0.0000000000
-660000.0000000000 -58948.2246229883 -7000.0000000000 0.0000000000 0.0000000000 0.0000000000 0.0000000000 0.0000000000
-660000.0000000000 -59756.7640143587 -7000.0000000000 0.0000000000 0.0000000000 0.0000000000 0.0000000000 0.0000000000
-660000.0000000000 -60565.3034057292 -7000.0000000000 0.0000000000 0.0000000000 0.0000000000 0.0000000000 0.0000000000
-660000.0000000000 -61373.8427970996 -7000.0000000000 0.0000000000 0.0000000000 0.0000000000 0.0000000000 0.0000000000
-660000.0000000000 -62182.3821884701 -7000.0000000000 0.0000000000 0.0000000000 0.0000000000 0.0000000000 0.0000000000
-660000.0000000000 -62990.9215798406 -7000.0000000000 0.0000000000 0.0000000000 0.0000000000 0.0000000000 0.0000000000
-660000.0000000000 -63799.4609712110 -7000.0000000000 0.0000000000 0.0000000000 0.0000000000 0.0000000000 0.0000000000
-660000.0000000000 -64608.0003625815 -7000.0000000000 0.0000000000 0.0000000000 0.0000000000 0.0000000000 0.0000000000
-660000.0000000000 -64852.7330798888 -7000.0000000000 0.0000000000 0.0000000000 0.0000000000 0.0000000000 0.0000000000
-660000.0000000000 -65416.5397539519 -7000.0000000000 0.0000000000 0.0000000000 0.0000000000 0.0000000000 0.0000000000
-660000.0000000000 -65709.6221121508 -7000.0000000000 0.0000000000 0.0000000000 0.0000000000 0.0000000000 0.0000000000
-660000.0000000000 -65722.0284499012 -7000.0000000000 0.0000000000 0.0000000000 0.0000000000 0.0000000000 0.0000000000
-660000.0000000000 -66225.0791453224 -7000.0000000000 0.0000000000 0.0000000000 0.0000000000 0.0000000000 0.0000000000
-660000.0000000000 -67033.6185366929 -7000.0000000000 0.0000000000 0.0000000000 0.0000000000 0.0000000000 0.0000000000
-660000.0000000000 -67842.1579280633 -7000.0000000000 0.0000000000 0.0000000000 0.0000000000 0.0000000000 0.0000000000
-660000.0000000000 -68650.6973194338 -7000.0000000000 0.0000000000 0.0000000000 0.0000000000 0.0000000000 0.0000000000
-660000.0000000000 -69459.2367108042 -7000.0000000000 0.0000000000 0.0000000000 0.0000000000 0.0000000000 0.0000000000
-660000.0000000000 -70267.7761021747 -7000.0000000000 0.0000000000 0.0000000000 0.0000000000 0.0000000000 0.0000000000
-660000.0000000000 -71076.3154935451 -7000.0000000000 0.0000000000 0.0000000000 0.0000000000 0.0000000000 0.0000000000
-660000.0000000000 -71884.8548849156 -7000.0000000000 0.0000000000 0.0000000000 0.0000000000 0.0000000000 0.0000000000
-660000.0000000000 -72693.3942762861 -7000.0000000000 0.0000000000 0.0000000000 0.0000000000 0.0000000000 0.0000000000
-660000.0000000000 -73501.9336676565 -7000.0000000000 0.0000000000 0.0000000000 0.0000000000 0.0000000000 0.0000000000
-660000.0000000000 -74310.4730590270 -7000.0000000000 0.0000000000 0.0000000000 0.0000000000 0.0000000000 0.0000000000
-660000.0000000000 -75119.0124503974 -7000.0000000000 0.0000000000 0.0000000000 0.0000000000 0.0000000000 0.0000000000
-660000.0000000000 -75927.5518417679 -7000.0000000000 0.0000000000 0.0000000000 0.0000000000 0.0000000000 0.0000000000
-660000.0000000000 -76736.0912331384 -7000.0000000000 0.0000000000 0.0000000000 0.0000000000 0.0000000000 0.0000000000
-660000.0000000000 -77544.6306245088 -7000.0000000000 0.0000000000 0.0000000000 0.0000000000 0.0000000000 0.0000000000
-660000.0000000000 -78353.1700158793 -7000.0000000000 0.0000000000 0.0000000000 0.0000000000 0.0000000000 0.0000000000
-660000.0000000000 -79161.7094072497 -7000.0000000000 0.0000000000 0.0000000000 0.0000000000 0.0000000000 0.0000000000
-660000.0000000000 -79970.2487986202 -7000.0000000000 0.0000000000 0.0000000000 0.0000000000 0.0000000000 0.0000000000
-660000.0000000000 -80778.7881899906 -7000.0000000000 0.0000000000 0.0000000000 0.0000000000 0.0000000000 0.0000000000
-660000.0000000000 -81587.3275813611 -7000.0000000000 0.0000000000 0.0000000000 0.0000000000 0.0000000000 0.0000000000
-660000.0000000000 -82395.8669727316 -7000.0000000000 0.0000000000 0.0000000000 0.0000000000 0.0000000000 0.0000000000
-660000.0000000000 -83204.4063641020 -7000.0000000000 0.0000000000 0.0000000000 0.0000000000 0.0000000000 0.0000000000
-660000.0000000000 -84012.9457554725 -7000.0000000000 0.0000000000 0.0000000000 0.0000000000 0.0000000000 0.0000000000
-660000.0000000000 -84821.4851468430 -7000.0000000000 0.0000000000 0.0000000000 0.0000000000 0.0000000000 0.0000000000
-660000.0000000000 -85630.0245382134 -7000.0000000000 0.0000000000 0.0000000000 0.0000000000 0.0000000000 0.0000000000
-660000.0000000000 -86438.5639295839 -7000.0000000000 0.0000000000 0.0000000000 0.0000000000 0.0000000000 0.0000000000
-660000.0000000000 -87247.1033209543 -7000.0000000000 -73.8425862545 -73.8425862545 -73.8425862545 0.0000000000 0.0000000000
-660000.0000000000 -88055.6427162743 -7776.8219555549 -766.0732270300 -766.0732270300 -766.0732270300 0.0000000000 0.0000000000
-660000.0000000000 -88864.1821129900 -8451.9436434177 -1436.2916632481 -1436.2916632481 -1436.2916632481 0.0000000000 0.0000000000
-660000.0000000000 -89672.7215176195 -9121.9588346847 -2106.2044858582 -2106.2044858582 -2106.2044858582 0.0000000000 0.0000000000
-660000.0000000000 -90481.2609332463 -9791.9704586692 -2776.2384651078 -2776.2384651078 -2776.2384651078 0.0000000000 0.0000000000
-660000.0000000000 -91289.8003586246 -10462.0193172990 -3446.2910708060 -3446.2910708060 -3446.2910708060 0.0000000000 0.0000000000
-660000.0000000000 -92098.3397771954 -11132.0732889250 -4116.3454056400 -4116.3454056400 -4116.3454056400 0.0000000000 0.0000000000
-660000.0000000000 -92906.8791815761 -11802.1277014361 -4786.3998448245 -4786.3998448245 -4786.3998448245 0.0000000000 0.0000000000
-660000.0000000000 -93715.4186224120 -12472.1821254111 -5456.4542729195 -5456.4542729195 -5456.4542729195 0.0000000000 0.0000000000
-660000.0000000000 -94523.9584884576 -13142.2365015035 -6126.5086767599 -6126.5086767599 -6126.5086767599 0.0000000000 0.0000000000
-660000.0000000000 -95332.5008968511 -13812.2909050942 -6796.5629590300 -6796.5629590300 -6796.5629590300 0.0000000000 0.0000000000
-660000.0000000000 -96141.0368381164 -14482.3516504980 -7466.6175842500 -7466.6175842500 -7466.6175842500 0.0000000000 0.0000000000
-660000.0000000000 -96949.1317865792 -15152.5283471336 -8136.6948752823 -8136.6948752823 -8136.6948752823 0.0000000000 0.0000000000
-660000.0000000000 -97745.7424791566 -15824.3825546108 -8807.1544729871 -8807.1544729871 -8807.1544729871 0.0000000000 0.0000000000
-660000.0000000000 -98552.1641211008 -16519.2030000402 -9483.0306423973 -9483.0306423973 -9483.0306423973 0.0000000000 0.0000000000
-660000.0000000000 -99433.7943153926 -17276.1142427185 -10232.6154540916 -10232.6154540916 -10232.6154540916 0.0000000000 0.0000000000
-660000.0000000000 -100399.9868940284 -18119.2388183981 -11068.4423447000 -11068.4423447000 -11068.4423447000 0.0000000000 0.0000000000
-660000.0000000000 -101462.4851208198 -19057.6818368552 -11998.6028070030 -11998.6028070030 -11998.6028070030 0.0000000000 0.0000000000
-660000.0000000000 -102632.3361644035 -20099.3900855367 -13030.7236591195 -13030.7236591195 -13030.7236591195 0.0000000000 0.0000000000
-660000.0000000000 -103921.2914317037 -21252.3705601135 -14172.6544972840 -14172.6544972840 -14172.6544972840 0.0000000000 0.0000000000
-660000.0000000000 -105340.1672019823 -22524.3221792862 -15432.3700360790 -15432.3700360790 -15432.3700360790 0.0000000000 0.0000000000
-660000.0000000000 -106900.4210037484 -23922.2402857535 -16816.3719177000 -16816.3719177000 -16816.3719177000 0.0000000000 0.0000000000
-660000.0000000000 -108611.3872755566 -25452.5363357147 -18331.2519456084 -18331.2519456084 -18331.2519456084 0.0000000000 0.0000000000
-660000.0000000000 -110482.2125386336 -27120.4557438219 -19982.5179132149 -19982.5179132149 -19982.5179132149 0.0000000000 0.0000000000
-660000.0000000000 -112520.4211574690 -28929.9907095060 -21773.6468956903 -21773.6468956903 -21773.6468956903 0.0000000000 0.0000000000
-660000.0000000000 -114732.2586803792 -30884.2030722816 -23708.1982270791 -23708.1982270791 -23708.1982270791 0.0000000000 0.0000000000
-660000.0000000000 -117121.4217079224 -32984.8649003418 -25787.9219055000 -25787.9219055000 -25787.9219055000 0.0000000000 0.0000000000
-660000.0000000000 -119688.7323264208 -35232.7261657878 -28013.4557286114 -28013.4557286114 -28013.4557286114 0.0000000000 0.0000000000
-660000.0000000000 -122430.2285408344 -37627.3284046478 -30385.1371769222 -30385.1371769222 -30385.1371769222 0.0000000000 0.0000000000
-660000.0000000000 -125338.5285389029 -40166.8641251561 -32900.7465293930 -32900.7465293930 -32900.7465293930 0.0000000000 0.0000000000
-660000.0000000000 -128397.7911300209 -42848.4282306639 -35558.1935734272 -35558.1935734272 -35558.1935734272 0.0000000000 0.0000000000
-660000.0000000000 -131587.9667878512 -45666.8479023408 -38353.2638550000 -38353.2638550000 -38353.2638550000 0.0000000000 0.0000000000
-660000.0000000000 -134882.6950797112 -48613.8096580327 -41278.3082376336 -41278.3082376336 -41278.3082376336 0.0000000000 0.0000000000
-660000.0000000000 -138252.3326901907 -51677.6574883183 -44322.7802836597 -44322.7802836597 -44322.7802836597 0.0000000000 0.0000000000
-660000.0000000000 -141665.8611362290 -54842.8500432490 -47472.4248925458 -47472.4248925458 -47472.4248925458 0.0000000000 0.0000000000
-660000.0000000000 -145093.8608702690 -58089.7867462347 -50708.6361543221 -50708.6361543221 -50708.6361543221 0.0000000000 0.0000000000
-660000.0000000000 -148509.0840134101 -61395.4374940328 -54009.1552734000 -54009.1552734000 -52000.0000000000 0.0000000000 0.0000000000
-660000.0000000000 -151889.4602725454 -64734.5760734989 -57348.9642641333 -57348.9642641333 -52000.0000000000 0.0000000000 0.0000000000
-660000.0000000000 -155218.1823968341 -68081.4610308890 -60702.0321290023 -60702.0321290023 -52000.0000000000 0.0000000000 0.0000000000
-660000.0000000000 -158484.4290112931 -71411.9119373600 -64043.0764003085 -64043.0764003085 -52000.0000000000 -768.3186259059 -768.3186259059
-660000.0000000000 -161683.3884170919 -74705.2150764910 -67350.1620415821 -67350.1620415821 -52000.0000000000 -4115.1250081733 -4115.1250081733
-660000.0000000000 -164815.8980085643 -77945.7947505741 -70605.7815552000 -70605.7815552000 -52000.0000000000 -7448.4831285908 -7448.4831285908
-660000.0000000000 -167887.9095643300 -81124.3891823965 -73799.1532309147 -73799.1532309147 -52000.0000000000 -10746.3861086837 -10746.3861086837
-660000.0000000000 -170909.8055488504 -84238.5192005011 -76926.0810240586 -76926.0810240586 -52000.0000000000 -13991.4872549735 -13991.4872549735
-660000.0000000000 -173895.7348778796 -87292.1080660248 -79989.6938435317 -79989.6938435317 -52000.0000000000 -17172.6730342436 -17172.6730342436
-660000.0000000000 -176862.1978977425 -90294.5241744436 -82998.4502640675 -82998.4502640675 -52000.0000000000 -20287.1372326968 -20287.1372326968
-660000.0000000000 -179829.0694342221 -93259.5474015237 -85965.8660889000 -85965.8660889000 -52000.0000000000 -23338.6526731291 -23338.6526731291
-660000.0000000000 -182816.6746273390 -96204.0159389661 -88908.6832711407 -88908.6832711407 -52000.0000000000 -26337.9062495654 -26337.9062495654
-660000.0000000000 -185847.9395591147 -99146.6208157410 -91845.5890763585 -91845.5890763585 -52000.0000000000 -29299.9897879506 -29299.9897879506
-660000.0000000000 -188947.3409052211 -102107.1153449497 -94796.2711016690 -94796.2711016690 -52000.0000000000 -32242.8359972596 -32242.8359972596
-660000.0000000000 -192142.9719262124 -105105.8323040309 -97780.9964343017 -97780.9964343017 -52000.0000000000 -35185.8657325080 -35185.8657325080
-660000.0000000000 -195464.3585833298 -108163.7775175531 -100820.2133180000 -100820.2133180000 -52000.0000000000 -38148.7325120665 -38148.7325120665
-660000.0000000000 -198943.5013101411 -111302.6240512208 -103935.5571605530 -103935.5571605530 -52000.0000000000 -41151.0481340090 -41151.0481340090
-660000.0000000000 -202611.8100177218 -114544.6936661432 -107148.5407958701 -107148.5407958701 -52000.0000000000 -44212.1655701592 -44212.1655701592
-660000.0000000000 -206496.0675121398 -117912.8119113541 -110481.9426139993 -110481.9426139993 -52000.0000000000 -47351.1490747359 -47351.1490747359
-660000.0000000000 -210611.9353262654 -121429.2521609614 -113957.9529927434 -113957.9529927434 -52000.0000000000 -50587.4465268151 -50587.4465268151
-660000.0000000000 -214964.6534207699 -125114.5356363090 -117597.3587040002 -117597.3587040002 -53939.5722104301 -53939.5722104301 -52370.4211449407
-660000.0000000000 -219546.0769994805 -128985.4040799456 -121418.2310980003 -121418.2310980003 -57424.5768889321 -57424.5768889321 -52638.0586612658
-660000.0000000000 -224336.8689336159 -133053.3690828737 -125432.7495933783 -123294.9997915501 -61058.8921532718 -61058.8921532718 -52930.3545491384
-660000.0000000000 -229314.4463105815 -137324.1052675567 -129648.3970053794 -122566.5099454808 -64855.4810981688 -64855.4810981688 -53245.1593639976
-660000.0000000000 -234456.4173753043 -141795.9113592490 -134065.9302962179 -121878.3799818338 -68824.8308296531 -68824.8308296531 -53580.4780716210
-660000.0000000000 -239742.3470174947 -146460.3076809108 -138677.8411870000 -121277.7237986583 -72972.7440160366 -72972.7440160366 -53934.3156377863
-660000.0000000000 -245158.0502648430 -151304.2713382193 -143472.5247694151 -120811.6552940027 -77303.4274171886 -77303.4274171886 -54304.6770282708
-660000.0000000000 -250694.4421570112 -156312.0961987345 -148434.6994286250 -120560.2851550646 -81818.1446460418 -81818.1446460418 -54690.3896448217
-660000.0000000000 -256344.8453217814 -161468.0609006018 -153548.2001243344 -120679.3557716396 -86518.0630993595 -86518.0630993595 -55092.0359448890
-660000.0000000000 -262101.2655953925 -166758.1611227629 -158798.7435638123 -121283.3298784652 -91379.3003962828 -91379.3003962828 -55509.0750002026
-660000.0000000000 -267952.1159816985 -172171.2926488931 -164173.9349370002 -122331.3647384722 -96389.7013064442 -96389.7013064442 -55938.2142965494
-660000.0000000000 -273877.6997480625 -177699.5582994191 -169665.4934150958 -123455.1247987223 -101537.6880267472 -101537.6880267472 -56368.9898225015
-660000.0000000000 -279852.2092624237 -183336.6187866379 -175267.2764977340 -124197.0967669884 -106812.1230164686 -106812.1230164686 -56815.7380160982
-660000.0000000000 -285845.1487107826 -189075.5617336172 -180973.3554716720 -124391.0085550276 -112203.6666534482 -112203.6666534482 -57317.8835094386
-660000.0000000000 -291826.6831018411 -194905.9674740184 -186775.7483516605 -124185.5080475571 -117705.8379854458 -117705.8379854458 -57850.1914571103
-660000.0000000000 -297771.9084092614 -200811.8335212808 -192660.6445310000 -123778.0170269136 -123312.9076127668 -123312.9076127668 -58376.9006006107
-660000.0000000000 -303665.7555689186 -206771.1488397223 -198608.4743268231 -123256.8128200704 -123256.8128200704 -123256.8128200704 -58885.1061175273
-660000.0000000000 -309506.4020435790 -212756.8372273302 -204593.4388131329 -122687.8074148306 -122687.8074148306 -122687.8074148306 -59366.5944032387
-660000.0000000000 -315308.0860789284 -218739.9105148429 -210586.1263462281 -122136.9127989975 -122136.9127989975 -122136.9127989975 -59813.1518531232
-660000.0000000000 -321104.0346888951 -224694.2566748130 -216557.7194066613 -121670.0409603744 -121670.0409603744 -121670.0409603744 -60216.5648625591
-660000.0000000000 -326947.9615100297 -230602.0007273552 -222485.7330320000 -121353.1038867642 -121353.1038867642 -121353.1038867642 -60568.6198269248
-660000.0000000000 -332915.6974851401 -236458.3469797386 -228359.2375540891 -121250.6196653870 -121250.6196653870 -121250.6196653870 -60861.5164113103
-660000.0000000000 -339106.0367020515 -242275.3745815278 -234183.3782198960 -121425.9688030922 -121425.9688030922 -121425.9688030922 -61088.2517173074
-660000.0000000000 -345633.2475504366 -248083.4064992408 -239982.3263562308 -121982.4197941394 -121982.4197941394 -121982.4197941394 -61243.8139687006
-660000.0000000000 -352614.0535487018 -253930.0356617386 -245798.2195247222 -123254.2907129792 -123254.2907129792 -123254.2907129792 -61366.7763833633
-660000.0000000000 -360146.8858801605 -259877.2914234278 -251689.1479490002 -124927.3837500667 -124927.3837500667 -124927.3837500667 -61414.2180538771
-660000.0000000000 -368292.9171481566 -265996.9402548430 -257724.3230077709 -127269.6311167005 -127269.6311167005 -127269.6311167005 -61416.6549424172
-660000.0000000000 -377061.0463108117 -272364.8031476112 -263978.4387130642 -130281.5214226674 -130281.5214226674 -130281.5214226674 -61398.4119588039
-660000.0000000000 -386415.3415165305 -279054.9497699848 -270525.6641838394 -133762.5445943060 -133762.5445943060 -133762.5445943060 -61357.0653673946
-660000.0000000000 -396282.1228487063 -286133.3718320846 -277434.5911147765 -137551.7543111512 -137551.7543111512 -137551.7543111512 -61293.3088995128
-660000.0000000000 -406555.7343429264 -293654.5267926452 -284761.5356450000 -141497.0014325233 -141497.0014325233 -141497.0014325233 -61209.2720447686
-660000.0000000000 -417123.8383252429 -301657.5099879167 -292552.2977336769 -145446.1368177426 -145446.1368177426 -145446.1368177426 -61107.0842927717
-660000.0000000000 -427871.3353767175 -310160.5913509537 -300833.3294167663 -149247.0113261300 -149247.0113261300 -149247.0113261300 -60988.8751331321
-660000.0000000000 -438689.8288957818 -319162.6941386694 -309610.4713564342 -152747.4758170056 -152747.4758170056 -152747.4758170056 -60856.7740554598
-660000.0000000000 -449487.4519176434 -328639.1092857463 -318874.3217178817 -155795.3811496911 -155795.3811496911 -155795.3811496911 -60712.9105493645
-660000.0000000000 -460191.2752274062 -338541.7221069966 -328585.2355960004 -158231.7348466939 -158231.7348466939 -158231.7348466939 -60559.5499489793
-660000.0000000000 -470750.1119275716 -348805.4666867162 -338689.2525516127 -159672.8034175360 -159672.8034175360 -159672.8034175360 -60403.3005767099
-660000.0000000000 -481134.3638279088 -359342.5739856184 -349110.7557849078 -159811.6675896567 -159811.6675896567 -159811.6675896567 -60244.8016125090
-660000.0000000000 -491334.5084802431 -370058.6096721257 -359759.4975428326 -159244.1218274730 -159244.1218274730 -159244.1218274730 -60039.4842367245
-660000.0000000000 -501358.0917920312 -380857.5605983667 -370540.4742310402 -158166.4744478634 -158166.4744478634 -158166.4744478634 -59772.3137018716
-660000.0000000000 -493100.4097377919 -391648.4882173140 -381357.6049800000 -155701.3039775905 -155701.3039775905 -155701.3039775905 -59455.7325026176
-660000.0000000000 -484842.7276835529 -402354.0045433477 -392124.6512432458 -152246.7785489472 -152246.7785489472 -152246.7785489472 -59101.2610791252
-660000.0000000000 -476585.0456293136 -412915.9434195797 -402771.8003984204 -148086.6192059304 -148086.6192059304 -148086.6192059304 -58713.9528170442
-660000.0000000000 -468327.3635750747 -423298.8498168291 -413251.1098440848 -143433.4026343250 -143433.4026343250 -143433.4026343250 -58296.0949673357
-660000.0000000000 -460069.6815208354 -433490.2635910501 -423538.6488825367 -138499.7055199161 -138499.7055199161 -138499.7055199161 -57849.9747809603
-660000.0000000000 -451811.9994665964 -443498.4522133995 -433633.9416500000 -133498.1045484868 -133498.1045484868 -133498.1045484868 -57377.8795088789
-660000.0000000000 -443554.3174123571 -443554.3174123571 -443554.3174123571 -128641.1764058220 -128641.1764058220 -128641.1764058220 -56882.0964020523
-660000.0000000000 -124141.4977777064 -124141.4977777064 -124141.4977777064 -124141.4977777064 -124141.4977777064 -124141.4977777064 -56364.9127114412
-660000.0000000000 -120211.6453499242 -120211.6453499242 -120211.6453499242 -120211.6453499242 -120211.6453499242 -120211.6453499242 -55828.6156880065
-660000.0000000000 -117064.1958082601 -117064.1958082601 -117064.1958082601 -117064.1958082601 -117064.1958082601 -117064.1958082601 -55275.4925827091
-660000.0000000000 -114977.9467049974 -114977.9467049974 -114977.9467049974 -114977.9467049974 -114977.9467049974 -114977.9467049974 -54709.4485926442
-660000.0000000000 -114299.5716878674 -114299.5716878674 -114299.5716878674 -114299.5716878674 -114299.5716878674 -114299.5716878674 -54131.8178996773
-660000.0000000000 -114787.5976110295 -114787.5976110295 -114787.5976110295 -114787.5976110295 -114787.5976110295 -114787.5976110295 -53543.1211504626
-660000.0000000000 -117617.0979481896 -117617.0979481896 -117617.0979481896 -117617.0979481896 -117617.0979481896 -117617.0979481896 -52894.0178703166
-660000.0000000000 -122310.2767172724 -122310.2767172724 -122310.2767172724 -122310.2767172724 -122310.2767172724 -122310.2767172724 -52193.5321012838
-660000.0000000000 -128451.7721738890 -128451.7721738890 -128451.7721738890 -128451.7721738890 -128451.7721738890 -128451.7721738890 -51464.4476223906
-660000.0000000000 -135765.3079597813 -135765.3079597813 -135765.3079597813 -135765.3079597813 -135765.3079597813 -135765.3079597813 -50722.1147358276
-660000.0000000000 -143974.6077166906 -143974.6077166906 -143974.6077166906 -143974.6077166906 -143974.6077166906 -143974.6077166906 -49981.8837437851
-660000.0000000000 -152803.3950863575 -152803.3950863575 -152803.3950863575 -152803.3950863575 -152803.3950863575 -152803.3950863575 -49259.1049484538
-660000.0000000000 -161975.3937105262 -161975.3937105262 -161975.3937105262 -161975.3937105262 -161975.3937105262 -161975.3937105262 -48569.1286520237
-660000.0000000000 -171214.3272309371 -171214.3272309371 -171214.3272309371 -171214.3272309371 -171214.3272309371 -171214.3272309371 -47927.3051566856
-660000.0000000000 -180243.9192893312 -180243.9192893312 -180243.9192893312 -180243.9192893312 -180243.9192893312 -180243.9192893312 -47348.9847646297
-660000.0000000000 -188787.8935274509 -188787.8935274509 -188787.8935274509 -188787.8935274509 -188787.8935274509 -188787.8935274509 -46849.5177780466
-660000.0000000000 -196569.9735870385 -196569.9735870385 -196569.9735870385 -196569.9735870385 -196569.9735870385 -196569.9735870385 -46444.2544991267
-660000.0000000000 -203313.8831098349 -203313.8831098349 -203313.8831098349 -203313.8831098349 -203313.8831098349 -203313.8831098349 -46148.5452300604
-660000.0000000000 -208741.6872901722 -208741.6872901722 -208741.6872901722 -208741.6872901722 -208741.6872901722 -208741.6872901722 -45985.2257402813
-660000.0000000000 -212051.7527892003 -212051.7527892003 -212051.7527892003 -212051.7527892003 -212051.7527892003 -212051.7527892003 -45962.6185605711
-660000.0000000000 -213085.3933452211 -213085.3933452211 -213085.3933452211 -213085.3933452211 -213085.3933452211 -213085.3933452211 -46078.0429243879
-660000.0000000000 -212122.9293630782 -212122.9293630782 -212122.9293630782 -212122.9293630782 -212122.9293630782 -212122.9293630782 -46308.6360905189
-660000.0000000000 -209411.1672963176 -209411.1672963176 -209411.1672963176 -209411.1672963176 -209411.1672963176 -209411.1672963176 -46631.8296755710
-660000.0000000000 -205197.9413303907 -205197.9413303907 -205197.9413303907 -205197.9413303907 -205197.9413303907 -205197.9413303907 -47024.9680436593
-660000.0000000000 -199736.0789589401 -199736.0789589401 -199736.0789589401 -199736.0789589401 -199736.0789589401 -199736.0789589401 -47464.9822887689
-660000.0000000000 -193273.6898303448 -193273.6898303448 -193273.6898303448 -193273.6898303448 -193273.6898303448 -193273.6898303448 -47929.2202280427
-660000.0000000000 -186057.9672261197 -186057.9672261197 -186057.9672261197 -186057.9672261197 -186057.9672261197 -186057.9672261197 -48395.1085845058
-660000.0000000000 -178336.1044277779 -178336.1044277779 -178336.1044277779 -178336.1044277779 -178336.1044277779 -178336.1044277779 -48840.0740811837
-660000.0000000000 -170355.2947168334 -170355.2947168334 -170355.2947168334 -170355.2947168334 -170355.2947168334 -170355.2947168334 -49241.5434411015
-660000.0000000000 -162363.2016865406 -162363.2016865406 -162363.2016865406 -162363.2016865406 -162363.2016865406 -162363.2016865406 -49574.0495174282
-660000.0000000000 -154330.0053821152 -154330.0053821152 -154330.0053821152 -154330.0053821152 -154330.0053821152 -154330.0053821152 -49829.9120713985
-660000.0000000000 -147224.5968978977 -147224.5968978977 -147224.5968978977 -147224.5968978977 -147224.5968978977 -147224.5968978977 -50015.1624208672
-660000.0000000000 -140840.3800077754 -140840.3800077754 -140840.3800077754 -140840.3800077754 -140840.3800077754 -140840.3800077754 -50133.4448939993
-660000.0000000000 -135096.7187239659 -135096.7187239659 -135096.7187239659 -135096.7187239659 -135096.7187239659 -135096.7187239659 -50195.3853294000
-660000.0000000000 -129944.4725960574 -129944.4725960574 -129944.4725960574 -129944.4725960574 -129944.4725960574 -129944.4725960574 -50209.9483651241
-660000.0000000000 -125334.5011736379 -125334.5011736379 -125334.5011736379 -125334.5011736379 -125334.5011736379 -125334.5011736379 -50186.0986392262
-660000.0000000000 -121217.6640062949 -121217.6640062949 -121217.6640062949 -121217.6640062949 -121217.6640062949 -121217.6640062949 -50132.8007897612
-660000.0000000000 -117544.8206436158 -117544.8206436158 -117544.8206436158 -117544.8206436158 -117544.8206436158 -117544.8206436158 -50059.0194547838
-660000.0000000000 -114266.8306351888 -114266.8306351888 -114266.8306351888 -114266.8306351888 -114266.8306351888 -114266.8306351888 -49973.7192723488
-660000.0000000000 -111336.5652093979 -111336.5652093979 -111336.5652093979 -111336.5652093979 -111336.5652093979 -111336.5652093979 -49885.8616788081
-660000.0000000000 -108836.0182933085 -108836.0182933085 -108836.0182933085 -108836.0182933085 -108836.0182933085 -108836.0182933085 -49804.6912456823
-660000.0000000000 -107213.1425518866 -107213.1425518866 -107213.1425518866 -107213.1425518866 -107213.1425518866 -107213.1425518866 -49735.5363550111
-660000.0000000000 -106393.8861125156 -106393.8861125156 -106393.8861125156 -106393.8861125156 -106393.8861125156 -106393.8861125156 -49687.5537236416
-660000.0000000000 -105163.6808761181 -105163.6808761181 -105163.6808761181 -105163.6808761181 -105163.6808761181 -105163.6808761181 -49665.3228352026
-660000.0000000000 -103789.8595526476 -103789.8595526476 -103789.8595526476 -103789.8595526476 -103789.8595526476 -103789.8595526476 -49649.3422512133
-660000.0000000000 -102385.4935216374 -102385.4935216374 -102385.4935216374 -102385.4935216374 -102385.4935216374 -102385.4935216374 -49641.8456663085
-660000.0000000000 -101058.1676537365 -101058.1676537365 -101058.1676537365 -101058.1676537365 -101058.1676537365 -101058.1676537365 -49644.8809699139
-660000.0000000000 -100000.0000000000 -100000.0000000000 -100000.0000000000 -100000.0000000000 -100000.0000000000 -100000.0000000000 -49657.4222069214
-660000.0000000000 -100000.0000000000 -100000.0000000000 -100000.0000000000 -100000.0000000000 -100000.0000000000 -100000.0000000000 -49678.3034908489
-660000.0000000000 -100000.0000000000 -100000.0000000000 -100000.0000000000 -100000.0000000000 -100000.0000000000 -100000.0000000000 -49706.2858493375
-660000.0000000000 -100000.0000000000 -100000.0000000000 -100000.0000000000 -100000.0000000000 -100000.0000000000 -100000.0000000000 -49736.7031202186
-660000.0000000000 -100000.0000000000 -100000.0000000000 -100000.0000000000 -100000.0000000000 -100000.0000000000 -100000.0000000000 -49763.9181370918
-660000.0000000000 -100000.0000000000 -100000.0000000000 -100000.0000000000 -100000.0000000000 -100000.0000000000 -100000.0000000000 -49793.8584344407
-660000.0000000000 -100000.0000000000 -100000.0000000000 -100000.0000000000 -100000.0000000000 -100000.0000000000 -100000.0000000000 -49853.1593312838
-660000.0000000000 -100000.0000000000 -100000.0000000000 -100000.0000000000 -100000.0000000000 -100000.0000000000 -100000.0000000000 -49897.7979620595
-660000.0000000000 -100000.0000000000 -100000.0000000000 -100000.0000000000 -100000.0000000000 -100000.0000000000 -100000.0000000000 -49899.0745120490
-660000.0000000000 -100000.0000000000 -100000.0000000000 -100000.0000000000 -100000.0000000000 -100000.0000000000 -100000.0000000000 -49880.4078278655
-660000.0000000000 -100000.0000000000 -100000.0000000000 -100000.0000000000 -100000.0000000000 -100000.0000000000 -100000.0000000000 -49850.1424248019
-660000.0000000000 -100000.0000000000 -100000.0000000000 -100000.0000000000 -100000.0000000000 -100000.0000000000 -100000.0000000000 -49806.5805646735
-660000.0000000000 -100000.0000000000 -100000.0000000000 -100000.0000000000 -100000.0000000000 -100000.0000000000 -100000.0000000000 -49748.0067246685
-660000.0000000000 -100000.0000000000 -100000.0000000000 -100000.0000000000 -100000.0000000000 -100000.0000000000 -100000.0000000000 -49668.8873810650
-660000.0000000000 -100000.0000000000 -100000.0000000000 -100000.0000000000 -100000.0000000000 -100000.0000000000 -100000.0000000000 -49555.7736767377
-660000.0000000000 -100000.0000000000 -100000.0000000000 -100000.0000000000 -100000.0000000000 -100000.0000000000 -100000.0000000000 -49394.3011265901
-660000.0000000000 -100000.0000000000 -100000.0000000000 -100000.0000000000 -100000.0000000000 -100000.0000000000 -100000.0000000000 -49150.7049383312
-660000.0000000000 -100000.0000000000 -100000.0000000000 -100000.0000000000 -100000.0000000000 -100000.0000000000 -100000.0000000000 -48742.3790447979
-660000.0000000000 -100000.0000000000 -100000.0000000000 -100000.0000000000 -100000.0000000000 -100000.0000000000 -100000.0000000000 -48217.1725862990
-660000.0000000000 -100000.0000000000 -100000.0000000000 -100000.0000000000 -100000.0000000000 -100000.0000000000 -100000.0000000000 -47695.5297491668
-660000.0000000000 -100000.0000000000 -100000.0000000000 -100000.0000000000 -100000.0000000000 -100000.0000000000 -100000.0000000000 -47239.3491210489
-660000.0000000000 -100000.0000000000 -100000.0000000000 -100000.0000000000 -100000.0000000000 -100000.0000000000 -100000.0000000000 -46875.4899139584
-660000.0000000000 -100000.0000000000 -100000.0000000000 -100000.0000000000 -100000.0000000000 -100000.0000000000 -100000.0000000000 -46611.6898940423
-660000.0000000000 -100000.0000000000 -100000.0000000000 -100000.0000000000 -100000.0000000000 -100000.0000000000 -100000.0000000000 -46430.1414332541
-660000.0000000000 -100000.0000000000 -100000.0000000000 -100000.0000000000 -100000.0000000000 -100000.0000000000 -100000.0000000000 -46311.3933385971
-660000.0000000000 -100000.0000000000 -100000.0000000000 -100000.0000000000 -100000.0000000000 -100000.0000000000 -100000.0000000000 -46246.6139441350
-660000.0000000000 -100000.0000000000 -100000.0000000000 -100000.0000000000 -100000.0000000000 -100000.0000000000 -100000.0000000000 -46257.9905493720
-660000.0000000000 -100118.3187703187 -100118.3187703187 -100118.3187703187 -100118.3187703187 -100118.3187703187 -100118.3187703187 -46366.1984443486
-660000.0000000000 -100613.9406595900 -100613.9406595900 -100613.9406595900 -100613.9406595900 -100613.9406595900 -100613.9406595900 -46540.0874425064
-660000.0000000000 -100901.4925123431 -100901.4925123431 -100901.4925123431 -100901.4925123431 -100901.4925123431 -100901.4925123431 -46763.8073776270
-660000.0000000000 -101048.7905053937 -101048.7905053937 -101048.7905053937 -101048.7905053937 -101048.7905053937 -101048.7905053937 -47027.0378574824
-660000.0000000000 -101040.6549761776 -101040.6549761776 -101040.6549761776 -101040.6549761776 -101040.6549761776 -101040.6549761776 -47291.6051063963
-660000.0000000000 -100792.7677218253 -100792.7677218253 -100792.7677218253 -100792.7677218253 -100792.7677218253 -100792.7677218253 -47519.1178229693
-660000.0000000000 -100221.8953862033 -100221.8953862033 -100221.8953862033 -100221.8953862033 -100221.8953862033 -100221.8953862033 -47676.2422066433
-660000.0000000000 -100000.0000000000 -100000.0000000000 -100000.0000000000 -100000.0000000000 -100000.0000000000 -100000.0000000000 -47761.9195669487
-660000.0000000000 -100000.0000000000 -100000.0000000000 -100000.0000000000 -100000.0000000000 -100000.0000000000 -100000.0000000000 -47851.4008439119
-660000.0000000000 -100000.0000000000 -100000.0000000000 -100000.0000000000 -100000.0000000000 -100000.0000000000 -100000.0000000000 -47953.1557516519
-660000.0000000000 -100000.0000000000 -100000.0000000000 -100000.0000000000 -100000.0000000000 -100000.0000000000 -100000.0000000000 -48092.7593904610
-660000.0000000000 -100000.0000000000 -100000.0000000000 -100000.0000000000 -100000.0000000000 -100000.0000000000 -100000.0000000000 -48287.3891161561
-660000.0000000000 -100000.0000000000 -100000.0000000000 -100000.0000000000 -100000.0000000000 -100000.0000000000 -100000.0000000000 -48503.6992379227
-660000.0000000000 -100000.0000000000 -100000.0000000000 -100000.0000000000 -100000.0000000000 -100000.0000000000 -100000.0000000000 -48725.8948057793
-660000.0000000000 -100000.0000000000 -100000.0000000000 -100000.0000000000 -100000.0000000000 -100000.0000000000 -100000.0000000000 -48947.3449313984
-660000.0000000000 -100000.0000000000 -100000.0000000000 -100000.0000000000 -100000.0000000000 -100000.0000000000 -100000.0000000000 -49161.9354915741
-660000.0000000000 -100000.0000000000 -100000.0000000000 -100000.0000000000 -100000.0000000000 -100000.0000000000 -100000.0000000000 -49365.7116617849
-660000.0000000000 -100000.0000000000 -100000.0000000000 -100000.0000000000 -100000.0000000000 -100000.0000000000 -100000.0000000000 -49553.4677179848
-660000.0000000000 -100000.0000000000 -100000.0000000000 -100000.0000000000 -100000.0000000000 -100000.0000000000 -100000.0000000000 -49718.9918087508
-660000.0000000000 -100000.0000000000 -100000.0000000000 -100000.0000000000 -100000.0000000000 -100000.0000000000 -100000.0000000000 -49856.1866078899
-660000.0000000000 -100000.0000000000 -100000.0000000000 -100000.0000000000 -100000.0000000000 -100000.0000000000 -100000.0000000000 -49963.6197671350
-660000.0000000000 -100000.0000000000 -100000.0000000000 -100000.0000000000 -100000.0000000000 -100000.0000000000 -100000.0000000000 -50050.8174706688
-660000.0000000000 -100000.0000000000 -100000.0000000000 -100000.0000000000 -100000.0000000000 -100000.0000000000 -100000.0000000000 -50126.9575417890
-660000.0000000000 -100000.0000000000 -100000.0000000000 -100000.0000000000 -100000.0000000000 -100000.0000000000 -100000.0000000000 -50174.1166757287
-660000.0000000000 -100000.0000000000 -100000.0000000000 -100000.0000000000 -100000.0000000000 -100000.0000000000 -100000.0000000000 -50192.5968782521
-660000.0000000000 -100000.0000000000 -100000.0000000000 -100000.0000000000 -100000.0000000000 -100000.0000000000 -100000.0000000000 -50187.2782594808
-660000.0000000000 -100000.0000000000 -100000.0000000000 -100000.0000000000 -100000.0000000000 -100000.0000000000 -100000.0000000000 -50162.4170653546
-660000.0000000000 -100000.0000000000 -100000.0000000000 -100000.0000000000 -100000.0000000000 -100000.0000000000 -100000.0000000000 -50122.2856810130
-660000.0000000000 -100000.0000000000 -100000.0000000000 -100000.0000000000 -100000.0000000000 -100000.0000000000 -100000.0000000000 -50071.1564915955
-660000.0000000000 -100000.0000000000 -100000.0000000000 -100000.0000000000 -100000.0000000000 -100000.0000000000 -100000.0000000000 -50013.3018822418
-660000.0000000000 -100000.0000000000 -100000.0000000000 -100000.0000000000 -100000.0000000000 -100000.0000000000 -100000.0000000000 -49952.9942380911
-660000.0000000000 -100000.0000000000 -100000.0000000000 -100000.0000000000 -100000.0000000000 -100000.0000000000 -100000.0000000000 -49894.5059442832
-660000.0000000000 -100000.0000000000 -100000.0000000000 -100000.0000000000 -100000.0000000000 -100000.0000000000 -100000.0000000000 -49844.7342385315
-660000.0000000000 -100000.0000000000 -100000.0000000000 -100000.0000000000 -100000.0000000000 -100000.0000000000 -100000.0000000000 -49804.9122887359
-660000.0000000000 -100000.0000000000 -100000.0000000000 -100000.0000000000 -100000.0000000000 -100000.0000000000 -100000.0000000000 -49770.2752864936
-660000.0000000000 -100000.0000000000 -100000.0000000000 -100000.0000000000 -100000.0000000000 -100000.0000000000 -100000.0000000000 -49744.4977461650
-660000.0000000000 -100000.0000000000 -100000.0000000000 -100000.0000000000 -100000.0000000000 -100000.0000000000 -100000.0000000000 -49726.1586209932
-660000.0000000000 -100000.0000000000 -100000.0000000000 -100000.0000000000 -100000.0000000000 -100000.0000000000 -100000.0000000000 -49713.3704062469
-660000.0000000000 -100000.0000000000 -100000.0000000000 -100000.0000000000 -100000.0000000000 -100000.0000000000 -100000.0000000000 -49704.1874650313
-660000.0000000000 -100000.0000000000 -100000.0000000000 -100000.0000000000 -100000.0000000000 -100000.0000000000 -100000.0000000000 -49697.1228719101
-660000.0000000000 -100000.0000000000 -100000.0000000000 -100000.0000000000 -100000.0000000000 -100000.0000000000 -100000.0000000000 -49690.6897400351
-660000.0000000000 -100000.0000000000 -100000.0000000000 -100000.0000000000 -100000.0000000000 -100000.0000000000 -100000.0000000000 -49683.4011825581
-660000.0000000000 -100000.0000000000 -100000.0000000000 -100000.0000000000 -100000.0000000000 -100000.0000000000 -100000.0000000000 -49673.7703126306
-660000.0000000000 -100000.0000000000 -100000.0000000000 -100000.0000000000 -100000.0000000000 -100000.0000000000 -100000.0000000000 -49660.3589596539
-660000.0000000000 -100000.0000000000 -100000.0000000000 -100000.0000000000 -100000.0000000000 -100000.0000000000 -100000.0000000000 -49643.4757830315
-660000.0000000000 -100000.0000000000 -100000.0000000000 -100000.0000000000 -100000.0000000000 -100000.0000000000 -100000.0000000000 -49641.4862609046
-660000.0000000000 -100000.0000000000 -100000.0000000000 -100000.0000000000 -100000.0000000000 -100000.0000000000 -100000.0000000000 -49653.6477361829
-660000.0000000000 -111360.3934797563 -111360.3934797563 -111360.3934797563 -111360.3934797563 -111360.3934797563 -111360.3934797563 -49675.4245657540
-660000.0000000000 -126759.9245217970 -126759.9245217970 -126759.9245217970 -126759.9245217970 -126759.9245217970 -126759.9245217970 -49707.6352321909
-660000.0000000000 -143322.1355506424 -143322.1355506424 -143322.1355506424 -143322.1355506424 -143322.1355506424 -143322.1355506424 -49751.0089545238
-660000.0000000000 -160469.9055092369 -160469.9055092369 -160469.9055092369 -160469.9055092369 -160469.9055092369 -160469.9055092369 -49806.1541704919
-660000.0000000000 -177626.2257305369 -177626.2257305369 -177626.2257305369 -177626.2257305369 -177626.2257305369 -177626.2257305369 -49873.6790697749
-660000.0000000000 -194214.0875474931 -194214.0875474931 -194214.0875474931 -194214.0875474931 -194214.0875474931 -194214.0875474931 -49954.1918420527
-660000.0000000000 -209425.6219915027 -209425.6219915027 -209425.6219915027 -209425.6219915027 -209425.6219915027 -209425.6219915027 -50048.6825510480
-660000.0000000000 -221546.0788945532 -221546.0788945532 -221546.0788945532 -221546.0788945532 -221546.0788945532 -221546.0788945532 -50159.6487916113
-660000.0000000000 -229092.4482588403 -229092.4482588403 -229092.4482588403 -229092.4482588403 -229092.4482588403 -229092.4482588403 -50290.4626712581
-660000.0000000000 -233085.4700377667 -233085.4700377667 -233085.4700377667 -233085.4700377667 -233085.4700377667 -233085.4700377667 -50470.3292895366
-660000.0000000000 -235151.3204691344 -235151.3204691344 -235151.3204691344 -235151.3204691344 -235151.3204691344 -235151.3204691344 -50676.2538843539
-660000.0000000000 -236625.0041655577 -236625.0041655577 -236625.0041655577 -236625.0041655577 -236625.0041655577 -236625.0041655577 -50839.7003628504
-660000.0000000000 -237423.2908856681 -237423.2908856681 -237423.2908856681 -237423.2908856681 -237423.2908856681 -237423.2908856681 -50943.2491231875
-660000.0000000000 -236994.5966739177 -236994.5966739177 -236994.5966739177 -236994.5966739177 -236994.5966739177 -236994.5966739177 -50988.1447244206
-660000.0000000000 -235437.3535512056 -235437.3535512056 -235437.3535512056 -235437.3535512056 -235437.3535512056 -235437.3535512056 -50990.6480764003
-660000.0000000000 -232871.9051488776 -232871.9051488776 -232871.9051488776 -232871.9051488776 -232871.9051488776 -232871.9051488776 -50967.2884242762
-660000.0000000000 -229468.9948003193 -229468.9948003193 -229468.9948003193 -229468.9948003193 -229468.9948003193 -229468.9948003193 -50934.5732015876
-660000.0000000000 -225809.1542403896 -225809.1542403896 -225809.1542403896 -225809.1542403896 -225809.1542403896 -225809.1542403896 -50899.6669605503
-660000.0000000000 -222644.8917360468 -222644.8917360468 -222644.8917360468 -222644.8917360468 -222644.8917360468 -222644.8917360468 -50858.9861689946
-660000.0000000000 -220704.5428805389 -220704.5428805389 -220704.5428805389 -220704.5428805389 -220704.5428805389 -220704.5428805389 -50807.6908770827
-660000.0000000000 -219563.7976428028 -219563.7976428028 -219563.7976428028 -219563.7976428028 -219563.7976428028 -219563.7976428028 -50707.9884321975
-660000.0000000000 -218766.3735102825 -218766.3735102825 -218766.3735102825 -218766.3735102825 -218766.3735102825 -218766.3735102825 -50550.8248557930
-660000.0000000000 -218221.3464068148 -218221.3464068148 -218221.3464068148 -218221.3464068148 -218221.3464068148 -218221.3464068148 -50359.9853616996
-660000.0000000000 -217509.6079936261 -217509.6079936261 -217509.6079936261 -217509.6079936261 -217509.6079936261 -217509.6079936261 -50189.7956658202
-660000.0000000000 -216379.1556465912 -216379.1556465912 -216379.1556465912 -216379.1556465912 -216379.1556465912 -216379.1556465912 -50066.1444339734
-660000.0000000000 -214680.7289616528 -214680.7289616528 -214680.7289616528 -214680.7289616528 -214680.7289616528 -214680.7289616528 -50010.3871620598
-660000.0000000000 -212653.9034084411 -212653.9034084411 -212653.9034084411 -212653.9034084411 -212653.9034084411 -212653.9034084411 -50018.2402050830
-660000.0000000000 -210473.0868507109 -210473.0868507109 -210473.0868507109 -210473.0868507109 -210473.0868507109 -210473.0868507109 -50064.8099270550
-660000.0000000000 -208415.2338827769 -208415.2338827769 -208415.2338827769 -208415.2338827769 -208415.2338827769 -208415.2338827769 -50110.8322779063
-660000.0000000000 -207066.5995250792 -207066.5995250792 -207066.5995250792 -207066.5995250792 -207066.5995250792 -207066.5995250792 -50086.5050536152
-660000.0000000000 -206693.2710654118 -206693.2710654118 -206693.2710654118 -206693.2710654118 -206693.2710654118 -206693.2710654118 -49963.3982537595
-660000.0000000000 -207216.6702702618 -207216.6702702618 -207216.6702702618 -207216.6702702618 -207216.6702702618 -207216.6702702618 -49755.5400322579
-660000.0000000000 -208300.8879983767 -208300.8879983767 -208300.8879983767 -208300.8879983767 -208300.8879983767 -208300.8879983767 -49497.2261358557
-660000.0000000000 -209644.9205297875 -209644.9205297875 -209644.9205297875 -209644.9205297875 -209644.9205297875 -209644.9205297875 -49215.0995732428
-660000.0000000000 -210958.9100962456 -210958.9100962456 -210958.9100962456 -210958.9100962456 -210958.9100962456 -210958.9100962456 -48934.0443466426
-660000.0000000000 -212115.0541908553 -212115.0541908553 -212115.0541908553 -212115.0541908553 -212115.0541908553 -212115.0541908553 -48659.7137846758
-660000.0000000000 -213100.4343680744 -213100.4343680744 -213100.4343680744 -213100.4343680744 -213100.4343680744 -213100.4343680744 -48385.9973678172
-660000.0000000000 -213904.2477687544 -213904.2477687544 -213904.2477687544 -213904.2477687544 -213904.2477687544 -213904.2477687544 -48106.6200855627
-660000.0000000000 -214506.8353547701 -214506.8353547701 -214506.8353547701 -214506.8353547701 -214506.8353547701 -214506.8353547701 -47816.7954285073
-660000.0000000000 -214867.3298426624 -214867.3298426624 -214867.3298426624 -214867.3298426624 -214867.3298426624 -214867.3298426624 -47524.5709516003
-660000.0000000000 -214920.6241534075 -214920.6241534075 -214920.6241534075 -214920.6241534075 -214920.6241534075 -214920.6241534075 -47268.3166685166
-660000.0000000000 -214337.4808104799 -214337.4808104799 -214337.4808104799 -214337.4808104799 -214337.4808104799 -214337.4808104799 -47136.9066117478
-660000.0000000000 -212680.4207943219 -212680.4207943219 -212680.4207943219 -212680.4207943219 -212680.4207943219 -212680.4207943219 -47088.6422391102
-660000.0000000000 -210143.6998659002 -210143.6998659002 -210143.6998659002 -210143.6998659002 -210143.6998659002 -210143.6998659002 -47086.2790904940
-660000.0000000000 -207141.8853950904 -207141.8853950904 -207141.8853950904 -207141.8853950904 -207141.8853950904 -207141.8853950904 -47115.2712458304
-660000.0000000000 -203975.9383354964 -203975.9383354964 -203975.9383354964 -203975.9383354964 -203975.9383354964 -203975.9383354964 -47165.4792406910
-660000.0000000000 -200832.1427751146 -200832.1427751146 -200832.1427751146 -200832.1427751146 -200832.1427751146 -200832.1427751146 -47230.6208144546
-660000.0000000000 -197896.3398768200 -197896.3398768200 -197896.3398768200 -197896.3398768200 -197896.3398768200 -197896.3398768200 -47304.4276682914
-660000.0000000000 -195354.3708034876 -195354.3708034876 -195354.3708034876 -195354.3708034876 -195354.3708034876 -195354.3708034876 -47380.6315033716
-660000.0000000000 -193392.2405634256 -193392.2405634256 -193392.2405634256 -193392.2405634256 -193392.2405634256 -193392.2405634256 -47452.9554014984
-660000.0000000000 -192275.0797027916 -192275.0797027916 -192275.0797027916 -192275.0797027916 -192275.0797027916 -192275.0797027916 -47510.9866746285
-660000.0000000000 -192306.0044258349 -192306.0044258349 -192306.0044258349 -192306.0044258349 -192306.0044258349 -192306.0044258349 -47551.7146752897
-660000.0000000000 -193289.4514158440 -193289.4514158440 -193289.4514158440 -193289.4514158440 -193289.4514158440 -193289.4514158440 -47595.0104479390
-660000.0000000000 -194766.0850572878 -194766.0850572878 -194766.0850572878 -194766.0850572878 -194766.0850572878 -194766.0850572878 -47615.4844526751
-660000.0000000000 -196827.8743815914 -196827.8743815914 -196827.8743815914 -196827.8743815914 -196827.8743815914 -196827.8743815914 -47631.0190523237
-660000.0000000000 -199380.0402011221 -199380.0402011221 -199380.0402011221 -199380.0402011221 -199380.0402011221 -199380.0402011221 -47639.6651193670
-660000.0000000000 -202307.4231629888 -202307.4231629888 -202307.4231629888 -202307.4231629888 -202307.4231629888 -202307.4231629888 -47638.8896282342
-660000.0000000000 -205494.8692310421 -205494.8692310421 -205494.8692310421 -205494.8692310421 -205494.8692310421 -205494.8692310421 -47626.0011274099
-660000.0000000000 -208826.7340679957 -208826.7340679957 -208826.7340679957 -208826.7340679957 -208826.7340679957 -208826.7340679957 -47595.6773343214
-660000.0000000000 -212185.9561686525 -212185.9561686525 -212185.9561686525 -212185.9561686525 -212185.9561686525 -212185.9561686525 -47544.4478109709
-660000.0000000000 -215455.2564721753 -215455.2564721753 -215455.2564721753 -215455.2564721753 -215455.2564721753 -215455.2564721753 -47469.8902355898
-660000.0000000000 -218517.3559177257 -218517.3559177257 -218517.3559177257 -218517.3559177257 -218517.3559177257 -218517.3559177257 -47369.5822864096
-660000.0000000000 -221213.5547453094 -221213.5547453094 -221213.5547453094 -221213.5547453094 -221213.5547453094 -221213.5547453094 -47243.1853367165
-660000.0000000000 -222953.2803024068 -222953.2803024068 -222953.2803024068 -222953.2803024068 -222953.2803024068 -222953.2803024068 -47103.5964492426
-660000.0000000000 -224497.5179897423 -224497.5179897423 -224497.5179897423 -224497.5179897423 -224497.5179897423 -224497.5179897423 -46903.9390654002
-660000.0000000000 -226084.1045125184 -226084.1045125184 -226084.1045125184 -226084.1045125184 -226084.1045125184 -226084.1045125184 -46754.7842464856
-660000.0000000000 -227527.4688918629 -227527.4688918629 -227527.4688918629 -227527.4688918629 -227527.4688918629 -227527.4688918629 -46678.4608362212
-660000.0000000000 -228754.1961626565 -228754.1961626565 -228754.1961626565 -228754.1961626565 -228754.1961626565 -228754.1961626565 -46642.1429325535
-660000.0000000000 -229732.2991276190 -229732.2991276190 -229732.2991276190 -229732.2991276190 -229732.2991276190 -229732.2991276190 -46633.2494771072
-660000.0000000000 -230441.9677124622 -230441.9677124622 -230441.9677124622 -230441.9677124622 -230441.9677124622 -230441.9677124622 -46645.3592322455
-660000.0000000000 -230863.3918428977 -230863.3918428977 -230863.3918428977 -230863.3918428977 -230863.3918428977 -230863.3918428977 -46672.0509603316
-660000.0000000000 -230976.7401667280 -230976.7401667280 -230976.7401667280 -230976.7401667280 -230976.7401667280 -230976.7401667280 -46707.2087274792
-660000.0000000000 -230754.3502235841 -230754.3502235841 -230754.3502235841 -230754.3502235841 -230754.3502235841 -230754.3502235841 -46769.5863915454
-660000.0000000000 -230149.3158478792 -230149.3158478792 -230149.3158478792 -230149.3158478792 -230149.3158478792 -230149.3158478792 -46886.5005510911
-660000.0000000000 -229248.6943142020 -229248.6943142020 -229248.6943142020 -229248.6943142020 -229248.6943142020 -229248.6943142020 -47031.1246392670
-660000.0000000000 -228515.5865415575 -228515.5865415575 -228515.5865415575 -228515.5865415575 -228515.5865415575 -228515.5865415575 -47061.7715798913
-660000.0000000000 -227741.4537503762 -227741.4537503762 -227741.4537503762 -227741.4537503762 -227741.4537503762 -227741.4537503762 -46978.5322061573
-660000.0000000000 -226655.1152316443 -226655.1152316443 -226655.1152316443 -226655.1152316443 -226655.1152316443 -226655.1152316443 -46764.1195432118
-660000.0000000000 -225325.7318471662 -225325.7318471662 -225325.7318471662 -225325.7318471662 -225325.7318471662 -225325.7318471662 -46479.1834427118
-660000.0000000000 -223889.2738122476 -223889.2738122476 -223889.2738122476 -223889.2738122476 -223889.2738122476 -223889.2738122476 -46185.2951310489
-660000.0000000000 -222376.7311660405 -222376.7311660405 -222376.7311660405 -222376.7311660405 -222376.7311660405 -222376.7311660405 -45888.6040900731
-660000.0000000000 -220821.9410888419 -220821.9410888419 -220821.9410888419 -220821.9410888419 -220821.9410888419 -220821.9410888419 -45596.3343817662
-660000.0000000000 -219321.9143007216 -219321.9143007216 -219321.9143007216 -219321.9143007216 -219321.9143007216 -219321.9143007216 -45346.1154741407
-660000.0000000000 -217990.4600954984 -217990.4600954984 -217990.4600954984 -217990.4600954984 -217990.4600954984 -217990.4600954984 -45196.8106153334
-660000.0000000000 -216862.7887953168 -216862.7887953168 -216862.7887953168 -216862.7887953168 -216862.7887953168 -216862.7887953168 -45192.3600078261
-660000.0000000000 -215236.2583554691 -215236.2583554691 -215236.2583554691 -215236.2583554691 -215236.2583554691 -215236.2583554691 -45211.0021511721
-660000.0000000000 -213127.3242919928 -213127.3242919928 -213127.3242919928 -213127.3242919928 -213127.3242919928 -213127.3242919928 -45216.2846070241
-660000.0000000000 -210851.7703045799 -210851.7703045799 -210851.7703045799 -210851.7703045799 -210851.7703045799 -210851.7703045799 -45216.5657272392
-660000.0000000000 -208773.9341701449 -208773.9341701449 -208773.9341701449 -208773.9341701449 -208773.9341701449 -208773.9341701449 -45208.1195747362
-660000.0000000000 -207050.8500029035 -207050.8500029035 -207050.8500029035 -207050.8500029035 -207050.8500029035 -207050.8500029035 -45182.7578467233
-660000.0000000000 -205814.5358146754 -205814.5358146754 -205814.5358146754 -205814.5358146754 -205814.5358146754 -205814.5358146754 -45132.5832217471
-660000.0000000000 -204980.7496625634 -204980.7496625634 -204980.7496625634 -204980.7496625634 -204980.7496625634 -204980.7496625634 -45079.3808247496
-660000.0000000000 -204356.4118385730 -204356.4118385730 -204356.4118385730 -204356.4118385730 -204356.4118385730 -204356.4118385730 -45052.0539724729
-660000.0000000000 -203999.4086235607 -203999.4086235607 -203999.4086235607 -203999.4086235607 -203999.4086235607 -203999.4086235607 -45050.8454652708
-660000.0000000000 -204096.2076389123 -204096.2076389123 -204096.2076389123 -204096.2076389123 -204096.2076389123 -204096.2076389123 -45087.3547319468
-660000.0000000000 -205750.7554898640 -205750.7554898640 -205750.7554898640 -205750.7554898640 -205750.7554898640 -205750.7554898640 -45144.7523859300
-660000.0000000000 -209234.9139828563 -209234.9139828563 -209234.9139828563 -209234.9139828563 -209234.9139828563 -209234.9139828563 -45201.4030934515
-660000.0000000000 -213777.2033141099 -213777.2033141099 -213777.2033141099 -213777.2033141099 -213777.2033141099 -213777.2033141099 -45253.1709155622
-660000.0000000000 -218670.2334620880 -218670.2334620880 -218670.2334620880 -218670.2334620880 -218670.2334620880 -218670.2334620880 -45296.9387216682
-660000.0000000000 -223639.2820036222 -223639.2820036222 -223639.2820036222 -223639.2820036222 -223639.2820036222 -223639.2820036222 -45330.4272484046
-660000.0000000000 -228449.0754545177 -228449.0754545177 -228449.0754545177 -228449.0754545177 -228449.0754545177 -228449.0754545177 -45351.3819635740
-660000.0000000000 -232864.3403305798 -232864.3403305798 -232864.3403305798 -232864.3403305798 -232864.3403305798 -232864.3403305798 -45357.5483349790
-660000.0000000000 -236646.0992503885 -236646.0992503885 -236646.0992503885 -236646.0992503885 -236646.0992503885 -236646.0992503885 -45346.1408810388
-660000.0000000000 -239536.1300267628 -239536.1300267628 -239536.1300267628 -239536.1300267628 -239536.1300267628 -239536.1300267628 -45312.3987746430
-660000.0000000000 -241145.7222732719 -241145.7222732719 -241145.7222732719 -241145.7222732719 -241145.7222732719 -241145.7222732719 -45262.7797888424
-660000.0000000000 -241896.3557386836 -241896.3557386836 -241896.3557386836 -241896.3557386836 -241896.3557386836 -241896.3557386836 -45216.5893451555
-660000.0000000000 -241815.5710024135 -241815.5710024135 -241815.5710024135 -241815.5710024135 -241815.5710024135 -241815.5710024135 -45180.8703292998
-660000.0000000000 -240786.8977998929 -240786.8977998929 -240786.8977998929 -240786.8977998929 -240786.8977998929 -240786.8977998929 -45152.9494747143
-660000.0000000000 -238979.2385813024 -238979.2385813024 -238979.2385813024 -238979.2385813024 -238979.2385813024 -238979.2385813024 -45131.1365958486
-660000.0000000000 -236626.2701743022 -236626.2701743022 -236626.2701743022 -236626.2701743022 -236626.2701743022 -236626.2701743022 -45110.8201457911
-660000.0000000000 -233931.8496288772 -233931.8496288772 -233931.8496288772 -233931.8496288772 -233931.8496288772 -233931.8496288772 -45089.5394263479
-660000.0000000000 -231075.4411597888 -231075.4411597888 -231075.4411597888 -231075.4411597888 -231075.4411597888 -231075.4411597888 -45066.1350247148
-660000.0000000000 -228236.5089817978 -228236.5089817978 -228236.5089817978 -228236.5089817978 -228236.5089817978 -228236.5089817978 -45039.4475280873
-660000.0000000000 -225594.5173096660 -225594.5173096660 -225594.5173096660 -225594.5173096660 -225594.5173096660 -225594.5173096660 -45008.3175236610
-660000.0000000000 -223554.6813520669 -223554.6813520669 -223554.6813520669 -223554.6813520669 -223554.6813520669 -223554.6813520669 -44983.7127005192
-660000.0000000000 -222513.9429799157 -222513.9429799157 -222513.9429799157 -222513.9429799157 -222513.9429799157 -222513.9429799157 -44993.7825735492
-660000.0000000000 -220977.0581435640 -220977.0581435640 -220977.0581435640 -220977.0581435640 -220977.0581435640 -220977.0581435640 -45012.0465256311
-660000.0000000000 -219393.3821051797 -219393.3821051797 -219393.3821051797 -219393.3821051797 -219393.3821051797 -219393.3821051797 -44992.5007210194
-660000.0000000000 -218009.7389607503 -218009.7389607503 -218009.7389607503 -218009.7389607503 -218009.7389607503 -218009.7389607503 -44967.7336921910
-660000.0000000000 -216789.8384990605 -216789.8384990605 -216789.8384990605 -216789.8384990605 -216789.8384990605 -216789.8384990605 -44943.1366371817
-660000.0000000000 -215675.0860963443 -215675.0860963443 -215675.0860963443 -215675.0860963443 -215675.0860963443 -215675.0860963443 -44920.5347130002
-660000.0000000000 -214605.0799104028 -214605.0799104028 -214605.0799104028 -214605.0799104028 -214605.0799104028 -214605.0799104028 -44901.6620434548
-660000.0000000000 -213550.8766086763 -213550.8766086763 -213550.8766086763 -213550.8766086763 -213550.8766086763 -213550.8766086763 -44889.5995159461
-660000.0000000000 -212574.2275104391 -212574.2275104391 -212574.2275104391 -212574.2275104391 -212574.2275104391 -212574.2275104391 -44893.6071226726
-660000.0000000000 -211771.2682511587 -211771.2682511587 -211771.2682511587 -211771.2682511587 -211771.2682511587 -211771.2682511587 -44925.8139194175
-660000.0000000000 -211187.3711014481 -211187.3711014481 -211187.3711014481 -211187.3711014481 -211187.3711014481 -211187.3711014481 -44994.9302487009
-660000.0000000000 -210455.0097485511 -210455.0097485511 -210455.0097485511 -210455.0097485511 -210455.0097485511 -210455.0097485511 -45076.4895789138
-660000.0000000000 -209566.5755620055 -209566.5755620055 -209566.5755620055 -209566.5755620055 -209566.5755620055 -209566.5755620055 -45160.4204979291
-660000.0000000000 -208658.9777435997 -208658.9777435997 -208658.9777435997 -208658.9777435997 -208658.9777435997 -208658.9777435997 -45235.9796597300
-660000.0000000000 -207777.7254507105 -207777.7254507105 -207777.7254507105 -207777.7254507105 -207777.7254507105 -207777.7254507105 -45296.3149047315
-660000.0000000000 -206929.5690276957 -206929.5690276957 -206929.5690276957 -206929.5690276957 -206929.5690276957 -206929.5690276957 -45342.5758824597
-660000.0000000000 -206080.7778548170 -206080.7778548170 -206080.7778548170 -206080.7778548170 -206080.7778548170 -206080.7778548170 -45412.4039123839
-660000.0000000000 -205240.2728102069 -205240.2728102069 -205240.2728102069 -205240.2728102069 -205240.2728102069 -205240.2728102069 -45502.6338120059
-660000.0000000000 -204430.0768598814 -204430.0768598814 -204430.0768598814 -204430.0768598814 -204430.0768598814 -204430.0768598814 -45597.8782110376
-660000.0000000000 -203700.7840468038 -203700.7840468038 -203700.7840468038 -203700.7840468038 -203700.7840468038 -203700.7840468038 -45674.5296749990
-660000.0000000000 -203138.7266605562 -203138.7266605562 -203138.7266605562 -203138.7266605562 -203138.7266605562 -203138.7266605562 -45710.7057782773
-660000.0000000000 -202813.0850561093 -202813.0850561093 -202813.0850561093 -202813.0850561093 -202813.0850561093 -202813.0850561093 -45696.3499327009
-660000.0000000000 -202859.4174007563 -202859.4174007563 -202859.4174007563 -202859.4174007563 -202859.4174007563 -202859.4174007563 -45620.1405284886
-660000.0000000000 -203881.0621743029 -203881.0621743029 -203881.0621743029 -203881.0621743029 -203881.0621743029 -203881.0621743029 -45463.8853758744
-660000.0000000000 -205765.2705247026 -205765.2705247026 -205765.2705247026 -205765.2705247026 -205765.2705247026 -205765.2705247026 -45227.5009489201
-660000.0000000000 -208198.9064610705 -208198.9064610705 -208198.9064610705 -208198.9064610705 -208198.9064610705 -208198.9064610705 -44914.9911351157
-660000.0000000000 -210504.8265746212 -210504.8265746212 -210504.8265746212 -210504.8265746212 -210504.8265746212 -210504.8265746212 -44526.1426369206
-660000.0000000000 -212276.5600590477 -212276.5600590477 -212276.5600590477 -212276.5600590477 -212276.5600590477 -212276.5600590477 -44051.1279774076
-660000.0000000000 -213324.1578089168 -213324.1578089168 -213324.1578089168 -213324.1578089168 -213324.1578089168 -213324.1578089168 -43479.4262173186
-660000.0000000000 -213651.6387994505 -213651.6387994505 -213651.6387994505 -213651.6387994505 -213651.6387994505 -213651.6387994505 -42886.0197125474
-660000.0000000000 -213423.4466988653 -213423.4466988653 -213423.4466988653 -213423.4466988653 -213423.4466988653 -213423.4466988653 -42320.8922756586
-660000.0000000000 -212750.5855989835 -212750.5855989835 -212750.5855989835 -212750.5855989835 -212750.5855989835 -212750.5855989835 -41773.6603212364
-660000.0000000000 -211736.2324455337 -211736.2324455337 -211736.2324455337 -211736.2324455337 -211736.2324455337 -211736.2324455337 -41234.2746830047
-660000.0000000000 -210345.8408712155 -210345.8408712155 -210345.8408712155 -210345.8408712155 -210345.8408712155 -210345.8408712155 -40701.9940410154
-660000.0000000000 -208451.6181695580 -208451.6181695580 -208451.6181695580 -208451.6181695580 -208451.6181695580 -208451.6181695580 -40186.2431139284
-660000.0000000000 -205927.3287315321 -205927.3287315321 -205927.3287315321 -205927.3287315321 -205927.3287315321 -205927.3287315321 -39696.9487692005
-660000.0000000000 -202835.9673187019 -202835.9673187019 -202835.9673187019 -202835.9673187019 -202835.9673187019 -202835.9673187019 -39148.4794911580
-660000.0000000000 -199797.5640613525 -199797.5640613525 -199797.5640613525 -199797.5640613525 -199797.5640613525 -199797.5640613525 -38250.5766608620
-660000.0000000000 -196908.4862387874 -196908.4862387874 -196908.4862387874 -196908.4862387874 -196908.4862387874 -196908.4862387874 -37067.8078424265
-660000.0000000000 -194272.9547605226 -194272.9547605226 -194272.9547605226 -194272.9547605226 -194272.9547605226 -194272.9547605226 -35734.4895552255
-660000.0000000000 -192228.0323404321 -192228.0323404321 -192228.0323404321 -192228.0323404321 -192228.0323404321 -192228.0323404321 -34453.1199491368
-660000.0000000000 -191008.1983397373 -191008.1983397373 -191008.1983397373 -191008.1983397373 -191008.1983397373 -191008.1983397373 -33282.3008899187
-660000.0000000000 -190490.1597219533 -190490.1597219533 -190490.1597219533 -190490.1597219533 -190490.1597219533 -190490.1597219533 -32359.7046679389
-660000.0000000000 -189925.1207886758 -189925.1207886758 -189925.1207886758 -189925.1207886758 -189925.1207886758 -189925.1207886758 -31872.6529628253
-660000.0000000000 -189294.5943568297 -189294.5943568297 -189294.5943568297 -189294.5943568297 -189294.5943568297 -189294.5943568297 -31705.6354943908
-660000.0000000000 -188620.2240979917 -188620.2240979917 -188620.2240979917 -188620.2240979917 -188620.2240979917 -188620.2240979917 -31730.0023511285
-660000.0000000000 -187883.2378231012 -187883.2378231012 -187883.2378231012 -187883.2378231012 -187883.2378231012 -187883.2378231012 -31806.6852483754
-660000.0000000000 -186959.3357010926 -186959.3357010926 -186959.3357010926 -186959.3357010926 -186959.3357010926 -186959.3357010926 -31869.7452703113
