-58.57458873 -16.31553052
-59.18689212 -16.29112725
-59.18189445 -16.24215839
-59.17421111 -16.21120284
-59.13807222 -16.15745284
-59.09837500 -16.13910006
-59.06862500 -16.13461672
-59.04268334 -16.12726672
-59.04268056 -16.09146950
-59.00608889 -16.03181672
-58.97752441 -15.99974382
-58.97946509 -16.00001037
-58.97832236 -15.99868992
-58.92253477 -15.93820301
-58.91884186 -15.93582327
-58.82311848 -15.91247222
-58.76217967 -15.87651471
-58.72574784 -15.80526247
-58.77445708 -15.78125675
-58.79877623 -15.71005509
-58.76227114 -15.65032917
-58.68929628 -15.65009054
-58.61637752 -15.68572436
-58.54261417 -15.75770090
-58.50734417 -15.81542876
-58.43307778 -15.86453617
-58.35983611 -15.93600006
-58.28655834 -16.01940006
-58.23781111 -15.99547506
-58.20132222 -15.93578339
-58.15267222 -15.86415561
-58.09180000 -15.81636117
-58.09190834 -15.75675283
-58.05780000 -15.75943339
-58.00803056 -15.73652783
-57.97455000 -15.70536950
-57.97362778 -15.65773061
-57.95567500 -15.57863061
-57.92999167 -15.52348894
-57.83985556 -15.53301672
-57.82417500 -15.57300561
-57.83356389 -15.63639172
-57.81876667 -15.72402783
-57.81158889 -15.77976117
-57.78871389 -15.87548339
-57.71691389 -15.99589172
-57.72573056 -16.02751672
-57.68473611 -16.03616672
-57.65808334 -16.01548895
-57.59362222 -16.10150839
-57.53263611 -16.10134172
-57.49575556 -16.19670561
-57.45919445 -16.18466395
-57.43479445 -16.18459172
-57.39804445 -16.23222228
-57.34916389 -16.25594450
-57.28819722 -16.24381117
-57.20300556 -16.18384450
-57.19106667 -16.11220284
-57.19132500 -16.04061395
-57.14276667 -15.98080006
-57.06927500 -16.06403895
-57.06904445 -16.12369728
-57.00786389 -16.17120284
-56.93476945 -16.14705006
-56.92191111 -16.13436672
-56.90478611 -16.14378895
-56.89264722 -16.16004172
-56.87737222 -16.22962506
-56.86706111 -16.25325006
-56.84771945 -16.27129450
-56.81725834 -16.27884450
-56.77528611 -16.27427784
-56.68208056 -16.24143895
-56.64903056 -16.22042506
-56.63063334 -16.19608339
-56.61623056 -16.13760006
-56.60416945 -16.11293339
-56.58373056 -16.09722228
-56.53102778 -16.07756950
-56.51016111 -16.06080839
-56.49749722 -16.03674172
-56.49114722 -15.97858339
-56.47980834 -15.97440839
-56.42680834 -15.97182506
-56.43567778 -15.94202506
-56.35032500 -15.94159728
-56.34648611 -15.95987506
-56.29958611 -15.93145006
-56.25805834 -15.88959172
-56.16965278 -15.76768339
-56.11842222 -15.71870006
-56.06152222 -15.64555561
-56.03890556 -15.63204172
-56.01386111 -15.63390283
-55.98839445 -15.65008895
-55.96408056 -15.67735283
-55.91962778 -15.75090006
-55.84723889 -15.93922784
-55.77608334 -16.11731395
-55.69101667 -16.06905284
-55.59401667 -15.98492228
-55.55465000 -16.02761117
-55.49912778 -16.05043617
-55.41629722 -16.08016117
-55.47882222 -16.12676117
-55.48489167 -16.21554728
-55.43676945 -16.28903339
-55.41566389 -16.36233061
-55.41619445 -16.43548061
-55.34612500 -16.47774450
-55.26489722 -16.47302506
-55.12923889 -16.41631673
-55.04835000 -16.46899450
-55.07017500 -16.48810561
-55.03711111 -16.49879450
-55.02788056 -16.57172506
-55.03337222 -16.60444450
-55.01211667 -16.68293617
-54.95826667 -16.75113062
-54.96942778 -16.81378895
-55.04545834 -16.83431950
-55.12135000 -16.82869173
-55.14338611 -16.88605284
-55.07331111 -16.96481673
-55.08986389 -17.01175839
-55.13347778 -17.04287228
-55.13363611 -17.06899728
-55.09577778 -17.09533339
-54.99802778 -17.09583895
-54.94374722 -17.10132506
-54.94374167 -17.21614451
-54.95287500 -17.23809728
-54.98446945 -17.25994451
-54.97036111 -17.29850840
-54.95047778 -17.32885006
-54.95353889 -17.36733340
-54.98820000 -17.42215840
-55.03417500 -17.44667228
-55.10025278 -17.47656673
-55.12034445 -17.48195284
-55.11189722 -17.50674728
-55.08911945 -17.53161951
-55.06340000 -17.54550840
-55.06641111 -17.57023617
-55.08091111 -17.59765562
-55.06104722 -17.63350840
-55.00205278 -17.64295840
-54.98381945 -17.71024173
-54.98452222 -17.83867506
-54.97724722 -17.87081951
-55.05292222 -17.90774173
-55.06500000 -17.95137229
-55.05904445 -17.99963895
-55.03143056 -18.05714451
-55.00980000 -18.09165562
-54.99828056 -18.10206951
-54.94930278 -18.10368062
-54.92530834 -18.13006395
-54.92181389 -18.17364173
-54.93272500 -18.20230840
-54.94372500 -18.26194173
-54.94142500 -18.30093062
-54.93550834 -18.33877784
-54.93922778 -18.37661951
-54.99940000 -18.36772507
-55.03291667 -18.31449173
-55.05217222 -18.29032229
-55.07866389 -18.27417507
-55.09308611 -18.24886395
-55.10147500 -18.21897229
-55.12555834 -18.21201673
-55.14841389 -18.19357229
-55.17368611 -18.18201395
-55.19837500 -18.18136673
-55.19740278 -18.21591673
-55.21608889 -18.25451395
-55.21371667 -18.30680284
-55.13538611 -18.32342784
-55.10045834 -18.34190007
-55.06794167 -18.36725562
-55.05229722 -18.39026951
-55.02098334 -18.42365840
-55.02105278 -18.48684451
-55.04766945 -18.54192784
-55.09346667 -18.58607784
-55.11656945 -18.60379173
-55.13111667 -18.63706673
-55.13845834 -18.68874173
-55.14463056 -18.75650007
-55.14354445 -18.81968618
-55.09836111 -18.83461951
-55.07103611 -18.83477784
-55.07128611 -18.87382507
-55.08861945 -18.91276951
-55.05446667 -18.91622229
-55.02043334 -18.93918896
-55.13729722 -19.03612507
-55.14118334 -19.10443062
-55.15165000 -19.13365007
-55.15176389 -19.14991951
-55.13489722 -19.18581396
-55.15221667 -19.21498896
-55.16965556 -19.26043340
-55.16317500 -19.31253340
-55.14979167 -19.35816951
-55.15696667 -19.40367507
-55.16738611 -19.42313062
-55.19876111 -19.49450840
-55.23687778 -19.54630840
-55.27135834 -19.56884451
-55.29875278 -19.56214174
-55.30519445 -19.51003896
-55.33603334 -19.50656118
-55.37762778 -19.55830285
-55.37779445 -19.57782229
-55.33708056 -19.63343618
-55.34767500 -19.66914729
-55.35143056 -19.70751951
-55.39305556 -19.75600007
-55.44516389 -19.82065285
-55.55469708 -19.88961954
-55.50717997 -19.87609540
-55.49390000 -19.89913618
-55.50871133 -19.94384891
-55.55651389 -20.01020007
-55.56875000 -20.05216118
-55.56767500 -20.06219174
-55.59983056 -20.09297229
-55.64448056 -20.08487785
-55.67541945 -20.12129174
-55.67803334 -20.11812507
-55.71238056 -20.13592785
-55.73488334 -20.16996952
-55.75876389 -20.21201118
-55.78585000 -20.22991674
-55.82299445 -20.26484729
-55.83855556 -20.31504452
-55.80266111 -20.34660840
-55.74792222 -20.34751118
-55.72047778 -20.37662785
-55.73341389 -20.41770285
-55.76796667 -20.44236674
-55.82889167 -20.44478896
-55.87512222 -20.44285841
-55.90866667 -20.45246952
-55.93126111 -20.42161118
-55.94821389 -20.38554452
-55.96974722 -20.36553063
-55.99559722 -20.37998063
-56.02696945 -20.36680841
-56.05092222 -20.34802785
-56.06983611 -20.32131396
-56.07062222 -20.30065840
-56.05419722 -20.27114452
-56.05341667 -20.23331674
-56.07608334 -20.21226674
-56.08509167 -20.17770285
-56.07958889 -20.14684452
-56.08261667 -20.11697785
-56.11545834 -20.11866952
-56.14963611 -20.12606674
-56.17932500 -20.15073896
-56.21480278 -20.16153618
-56.24378611 -20.15296118
-56.26492500 -20.11930563
-56.24851111 -20.09095563
-56.24897778 -20.05654729
-56.26234167 -20.01456396
-56.25159092 -19.98312258
-56.23079924 -19.97298608
-56.20761713 -19.96746191
-56.16607530 -19.95061972
-56.15012198 -19.93583662
-56.16817655 -19.91271121
-56.20576567 -19.89744344
-56.25907928 -19.87283360
-56.28214004 -19.86687324
-56.30514383 -19.85516927
-56.40678426 -19.87836167
-56.41467828 -19.89463431
-56.41444143 -19.91735111
-56.40033248 -19.95932608
-56.37866681 -19.97282231
-56.36001111 -20.01412507
-56.35147500 -20.07749452
-56.34885834 -20.12340563
-56.35547222 -20.14735285
-56.38646667 -20.17425563
-56.40650834 -20.20022507
-56.41688611 -20.22867785
-56.43071111 -20.24047785
-56.46105278 -20.29771674
-56.47550000 -20.34327785
-56.47749445 -20.37648341
-56.49195834 -20.42204174
-56.51811111 -20.44671952
-56.55058889 -20.42999174
-56.54977500 -20.34517785
-56.56650000 -20.33221674
-56.57918889 -20.30329174
-56.56755834 -20.27487785
-56.60032778 -20.27189174
-56.64338056 -20.29161118
-56.67134722 -20.29100840
-56.70196945 -20.29951396
-56.74406667 -20.29966396
-56.74033334 -20.27689729
-56.71889445 -20.24641674
-56.69031389 -20.22181952
-56.57078056 -20.18649174
-56.64332222 -20.18958896
-56.67231667 -20.18208896
-56.67780000 -20.15789729
-56.66865000 -20.13173063
-56.68706945 -20.09006674
-56.71203334 -20.06774729
-56.74718611 -20.06468896
-56.77005278 -20.05616396
-56.75943334 -20.01630285
-56.76036270 -19.98311212
-56.78569562 -19.95083974
-56.81905026 -19.89418311
-56.85778892 -19.87876857
-56.93374986 -19.82728101
-56.97118386 -19.80727214
-57.01358334 -19.79522229
-57.06585278 -19.79335285
-57.13364167 -19.77173896
-57.17259722 -19.77461951
-57.20434445 -19.78333340
-57.23309167 -19.78741951
-57.25048611 -19.85722785
-57.27305000 -19.89933618
-57.30034722 -19.93219174
-57.31784445 -19.96060285
-57.34632500 -19.98998896
-57.36498056 -20.01378618
-57.37928056 -20.07837507
-57.38660278 -20.12136118
-57.38724445 -20.14348340
-57.38193611 -20.16996952
-57.36083334 -20.19686118
-57.37223334 -20.21261118
-57.38508611 -20.23634452
-57.36981945 -20.25506674
-57.37213056 -20.28806396
-57.36385834 -20.30105007
-57.31887500 -20.30219174
-57.29413056 -20.28791952
-57.27514445 -20.26204174
-57.24098056 -20.25830840
-57.21155278 -20.24986952
-57.17400000 -20.25537507
-57.17082778 -20.31618618
-57.17399722 -20.38601118
-57.18882500 -20.43721118
-57.20551945 -20.46773896
-57.24972778 -20.48038896
-57.26933611 -20.48448063
-57.28854722 -20.47483063
-57.32242778 -20.46709729
-57.35135834 -20.49844174
-57.37959445 -20.50573618
-57.40566945 -20.52224729
-57.42631111 -20.56066396
-57.49928611 -20.66507507
-57.51280000 -20.73338063
-57.52245834 -20.74626674
-57.53115000 -20.74895285
-57.53471111 -20.75405563
-57.53721945 -20.76191952
-57.53591111 -20.78348063
-57.51869167 -20.79193618
-57.49834445 -20.80508063
-57.43581667 -20.83652507
-57.39909445 -20.87415007
-57.38748056 -20.87689452
-57.38838334 -20.87881674
-57.32953334 -20.86964452
-57.29211945 -20.87036674
-57.29273334 -20.89847507
-57.31565000 -20.91912230
-57.34645000 -20.95718618
-57.34785834 -21.02042507
-57.36388889 -21.04463618
-57.42388334 -21.06811952
-57.46319722 -21.05347230
-57.47025834 -21.08421674
-57.48476111 -21.11819730
-57.50955000 -21.16793341
-57.53849722 -21.19349730
-57.54598056 -21.23682507
-57.53849722 -21.27139452
-57.52950000 -21.29684174
-57.55358611 -21.32253341
-57.58206389 -21.33205841
-57.56961945 -21.36447507
-57.52925278 -21.36672785
-57.49511667 -21.37223896
-57.50822222 -21.39937785
-57.53307500 -21.41015563
-57.54939445 -21.42230841
-57.59734445 -21.42671396
-57.64748611 -21.42302230
-57.68831389 -21.43447230
-57.67562500 -21.45888619
-57.70879445 -21.49803341
-57.67305556 -21.56777230
-57.67590000 -21.61694452
-57.69180834 -21.68979452
-57.71088889 -21.74651952
-57.71862500 -21.83105285
-57.69330834 -21.99327785
-57.67965834 -22.06353619
-57.70427988 -22.09011376
-57.70705000 -22.09026952
-57.70346389 -22.09859730
-57.70791945 -22.10208341
-57.71311111 -22.10206119
-57.71505834 -22.10374730
-57.71554167 -22.11233897
-57.72072500 -22.11084730
-57.72935556 -22.09842785
-57.73316945 -22.09863619
-57.73787778 -22.10200563
-57.74163611 -22.11465285
-57.73890000 -22.11783063
-57.73328056 -22.12011952
-57.73725278 -22.12569730
-57.73810834 -22.13389174
-57.74299167 -22.13477508
-57.74763889 -22.13797508
-57.75349722 -22.13416119
-57.76238334 -22.13457230
-57.76853889 -22.12764452
-57.77790556 -22.12466119
-57.78161389 -22.12797785
-57.78881945 -22.12992230
-57.79111945 -22.13839174
-57.79571111 -22.14283619
-57.79699722 -22.14921674
-57.79950556 -22.15033619
-57.80394445 -22.14935285
-57.80951945 -22.13971397
-57.81820000 -22.13724174
-57.82196389 -22.12795008
-57.82118056 -22.12230008
-57.82523056 -22.11996119
-57.83480000 -22.11946119
-57.84428889 -22.12704452
-57.85273334 -22.12700008
-57.86194722 -22.12978063
-57.86460556 -22.13502230
-57.86720278 -22.13014730
-57.87037778 -22.12786952
-57.88490278 -22.12965563
-57.88555556 -22.12405563
-57.88935834 -22.12177508
-57.90476111 -22.12457230
-57.91174167 -22.12057785
-57.92849445 -22.11884174
-57.92627778 -22.11472785
-57.92043334 -22.11035285
-57.91998056 -22.10786674
-57.92115556 -22.10599452
-57.92803334 -22.10561674
-57.93282778 -22.10248063
-57.93572222 -22.09550841
-57.93486111 -22.08839174
-57.93665000 -22.08448063
-57.94075834 -22.08191397
-57.94732500 -22.08165008
-57.95229722 -22.08665008
-57.95631945 -22.08018341
-57.95999167 -22.07767508
-57.96388334 -22.08008341
-57.96436111 -22.08584452
-57.96870000 -22.08949452
-57.98601945 -22.08899452
-57.98721945 -22.08320563
-57.98194445 -22.07772508
-57.98049722 -22.07158619
-57.98077500 -22.05844452
-57.98891389 -22.03326674
-57.98633611 -22.02328619
-57.97277778 -22.01743063
-57.96348889 -22.00688619
-57.96022222 -21.99757785
-57.96012222 -21.99425563
-57.96160278 -21.99396397
-57.96213334 -21.99134730
-57.96144167 -21.98152785
-57.94921389 -21.96343897
-57.93336389 -21.92826674
-57.93250278 -21.91561952
-57.93566945 -21.91065563
-57.93971945 -21.90886674
-57.94082500 -21.91098063
-57.94495278 -21.90940285
-57.94688056 -21.90571674
-57.94600000 -21.90240008
-57.93358334 -21.88989174
-57.91774722 -21.89139452
-57.91328056 -21.88866119
-57.91066389 -21.88260008
-57.91063889 -21.87835841
-57.91333611 -21.87311397
-57.94982222 -21.85467508
-57.96306945 -21.85021119
-57.96104167 -21.84464730
-57.93947222 -21.83530285
-57.92848056 -21.82511674
-57.92280556 -21.81631396
-57.91899167 -21.80538341
-57.91016667 -21.79143896
-57.90988056 -21.78310285
-57.90536945 -21.77309174
-57.90764722 -21.76641952
-57.92076389 -21.76544452
-57.93771111 -21.75651674
-57.94251389 -21.75189452
-57.94395278 -21.74538619
-57.93302778 -21.73201952
-57.89473334 -21.70544730
-57.88067778 -21.68914174
-57.88228889 -21.68268063
-57.88834167 -21.67731952
-57.89301111 -21.67625841
-57.91995278 -21.66213063
-57.93271389 -21.64707508
-57.93384445 -21.64200841
-57.92829722 -21.63910841
-57.92500278 -21.63281674
-57.92822778 -21.61026952
-57.92473056 -21.60464730
-57.91292778 -21.59863619
-57.91049445 -21.59568063
-57.90988056 -21.58480008
-57.92042500 -21.57682785
-57.93377778 -21.57052230
-57.94970834 -21.55422230
-57.96179445 -21.54469730
-57.96443334 -21.53980008
-57.96496111 -21.52516674
-57.96257778 -21.51797230
-57.95778334 -21.51100285
-57.93551667 -21.49403896
-57.92609722 -21.47429174
-57.92398611 -21.47281952
-57.92203889 -21.46025007
-57.91344722 -21.44305285
-57.91250834 -21.42948896
-57.91092778 -21.42582230
-57.90662500 -21.42224174
-57.90314722 -21.41328619
-57.90595000 -21.41341119
-57.90645556 -21.40733063
-57.90471945 -21.40324174
-57.89283334 -21.39320007
-57.87314167 -21.36524452
-57.85985000 -21.35358063
-57.85576667 -21.34681674
-57.85086389 -21.33299174
-57.84931945 -21.32126674
-57.85223611 -21.31453896
-57.86060834 -21.31004174
-57.88624167 -21.30601952
-57.89754445 -21.30182230
-57.91247778 -21.29029452
-57.91941111 -21.28021952
-57.90464445 -21.26807507
-57.89238334 -21.26383619
-57.88342778 -21.25880007
-57.86342778 -21.23782785
-57.85275556 -21.23314730
-57.84922500 -21.22765285
-57.84434722 -21.18965563
-57.85536945 -21.16097507
-57.85492778 -21.15178896
-57.85700000 -21.14711396
-57.85674445 -21.14351119
-57.85869722 -21.14526952
-57.86037778 -21.14059452
-57.85351667 -21.13035841
-57.85130000 -21.11505563
-57.84548056 -21.10201119
-57.84205556 -21.08640841
-57.84375556 -21.08533896
-57.84331111 -21.08894730
-57.84566389 -21.09289174
-57.86113056 -21.06885563
-57.86603056 -21.05709730
-57.86686389 -21.04357507
-57.84798334 -21.02555841
-57.84415000 -21.02057785
-57.83621667 -21.00330007
-57.82098334 -20.98464452
-57.81296111 -20.97874730
-57.80998334 -20.97338896
-57.81797500 -20.97363341
-57.82288889 -20.96392785
-57.82191389 -20.95629730
-57.81651945 -20.94848063
-57.81840000 -20.93772785
-57.82163611 -20.93340007
-57.82876389 -20.93230563
-57.84979167 -20.93425285
-57.84878611 -20.93468063
-57.85082222 -20.93820563
-57.85370278 -20.93995841
-57.84662778 -20.93695285
-57.84142778 -20.93634174
-57.84042778 -20.93755007
-57.83568889 -20.93615841
-57.84550556 -20.94438063
-57.85288611 -20.94639174
-57.86235000 -20.94648618
-57.86576389 -20.94400285
-57.86791667 -20.93706952
-57.87434445 -20.92826118
-57.87968056 -20.91247230
-57.88893334 -20.90359174
-57.90216111 -20.89864452
-57.91001111 -20.90171396
-57.91948056 -20.90300563
-57.92396945 -20.90185007
-57.92666389 -20.89858341
-57.92483889 -20.89202230
-57.91479167 -20.88444174
-57.90188889 -20.87871396
-57.87260000 -20.85483618
-57.85824722 -20.85257785
-57.85371389 -20.84581396
-57.85219445 -20.83783618
-57.86497500 -20.80873341
-57.87091389 -20.80665563
-57.89275000 -20.78843618
-57.90870000 -20.78644452
-57.92781389 -20.79538896
-57.94123889 -20.79878063
-57.95688056 -20.79699730
-57.95950278 -20.79500285
-57.96010000 -20.79153618
-57.94546945 -20.76900007
-57.93815000 -20.76260841
-57.91387500 -20.75793341
-57.89809722 -20.74925285
-57.88957500 -20.74908618
-57.87711945 -20.75148341
-57.86781389 -20.74990285
-57.86244445 -20.74547785
-57.86202778 -20.74054452
-57.86488056 -20.73783341
-57.86874722 -20.72325285
-57.87964445 -20.70616396
-57.88803889 -20.69785285
-57.90130278 -20.68859452
-57.90949722 -20.67370841
-57.91533611 -20.66618618
-57.92004167 -20.66312229
-57.93071389 -20.66143896
-57.93592500 -20.66529729
-57.94524167 -20.68199729
-57.95099167 -20.69772785
-57.95636667 -20.70285841
-57.97408334 -20.70028341
-57.97076945 -20.70305841
-57.97681945 -20.70458063
-57.98269445 -20.70278063
-57.98638334 -20.69858896
-57.98728056 -20.69377785
-57.98583334 -20.68558618
-57.97384722 -20.66332229
-57.96822222 -20.64320841
-57.97219722 -20.63849174
-57.98842500 -20.63237507
-57.99680278 -20.62734174
-58.00998056 -20.61436118
-58.01088611 -20.60731118
-58.00584167 -20.59127229
-57.99507500 -20.57510563
-57.99410556 -20.55912229
-57.99961111 -20.55291396
-58.01169167 -20.53226396
-58.01646389 -20.52020285
-58.01736945 -20.51323063
-58.01383056 -20.48887229
-58.01029722 -20.47820563
-57.99523334 -20.45216952
-57.99378334 -20.44204452
-57.99513611 -20.43705007
-57.99966945 -20.42847507
-58.01642222 -20.40882507
-58.02146667 -20.39913896
-58.04507222 -20.39575285
-58.04895278 -20.39343341
-58.06493889 -20.38953618
-58.07199167 -20.38323896
-58.08399445 -20.36709729
-58.08996389 -20.35455285
-58.09376667 -20.34170563
-58.09347778 -20.33751118
-58.10046111 -20.32187229
-58.09886111 -20.31546952
-58.09345000 -20.30893340
-58.08781111 -20.28181674
-58.08778611 -20.26574729
-58.09204167 -20.25590563
-58.10158889 -20.24864174
-58.11757222 -20.24695840
-58.12459722 -20.24976396
-58.13086111 -20.25478896
-58.13513889 -20.26038063
-58.13709167 -20.26725563
-58.14117222 -20.26976118
-58.14860000 -20.26836674
-58.15821945 -20.25928063
-58.16274167 -20.23969729
-58.15760278 -20.22287229
-58.15184722 -20.21610007
-58.14611667 -20.21257785
-58.13035278 -20.20848340
-58.12410000 -20.20456674
-58.11938611 -20.19796118
-58.11902500 -20.19301396
-58.12253611 -20.18507785
-58.12973611 -20.17988618
-58.14355278 -20.17811396
-58.15556111 -20.18050840
-58.16353056 -20.17689452
-58.16640000 -20.17044452
-58.15756667 -20.15941952
-58.15148334 -20.15451118
-58.14304167 -20.15258896
-58.13343056 -20.15304729
-58.11296945 -20.14635007
-58.10136667 -20.12455285
-58.08095000 -20.10825285
-58.07078334 -20.10623896
-58.05363889 -20.10980563
-58.04356389 -20.10511396
-58.03897500 -20.09722507
-58.03649167 -20.08091118
-58.02436667 -20.07583618
-58.00439445 -20.05922785
-57.99639445 -20.05739452
-57.97906667 -20.06063340
-57.97507778 -20.05878896
-57.97001945 -20.05229729
-57.96417500 -20.03204174
-57.95938889 -20.02603063
-57.95408056 -20.02259729
-57.94607778 -20.02016674
-57.93228611 -20.02439452
-57.92120278 -20.03019174
-57.90843056 -20.04272785
-57.90466111 -20.04442785
-57.90077778 -20.04474452
-57.89471111 -20.04101674
-57.87582778 -20.01664174
-57.87476389 -20.00628340
-57.87061945 -19.99868340
-57.85997500 -19.98626674
-57.85975000 -19.98428896
-57.86168611 -19.98328896
-57.85720278 -19.97212785
-58.13193611 -19.75897229
-58.11034445 -19.71139451
-57.78345834 -19.03213618
-57.70918611 -19.03098618
-57.70341945 -19.01897507
-57.69857222 -19.01284173
-57.69320278 -19.00983618
-57.69845278 -19.00552785
-57.69689722 -18.99964451
-57.69797222 -18.99599729
-57.70190556 -18.99431951
-57.70832500 -18.98422507
-57.71983611 -18.97811951
-57.72045000 -18.90363896
-57.76846667 -18.90231396
-57.56085000 -18.23907784
-57.45543056 -18.23145562
-57.45835556 -18.22808062
-57.46434445 -18.22670562
-57.46857500 -18.22277506
-57.47445278 -18.22032506
-57.47502222 -18.21517784
-57.47883056 -18.21231673
-57.48196389 -18.20492229
-57.49553611 -18.20213062
-57.49857500 -18.19915006
-57.50544167 -18.19902784
-57.57478889 -18.13105284
-57.60294445 -18.04292784
-57.72065000 -17.82747229
-57.68676945 -17.82845840
-57.68379167 -17.81151117
-57.68471945 -17.80868617
-57.72113611 -17.77256117
-57.71234167 -17.72681673
-57.72074722 -17.72235562
-57.72943056 -17.72235562
-57.73217778 -17.72033340
-57.74234722 -17.69592784
-57.75027778 -17.69707229
-57.75355278 -17.69493062
-57.75810000 -17.67388617
-57.76330834 -17.66230562
-57.77684167 -17.65906395
-57.77894722 -17.64928062
-57.78422222 -17.64648895
-57.78446667 -17.63110006
-57.77841389 -17.62695840
-57.77518334 -17.61496673
-57.77665000 -17.61360284
-57.78066667 -17.61675284
-57.78513889 -17.61639173
-57.78803056 -17.60505284
-57.79149167 -17.60203340
-57.78330556 -17.60139451
-57.78249167 -17.60321117
-57.78614722 -17.60500562
-57.78627500 -17.60726951
-57.77866111 -17.60220840
-57.77953056 -17.59931673
-57.79017222 -17.59648895
-57.78833611 -17.59423340
-57.78516389 -17.59526951
-57.78089445 -17.58815284
-57.78654445 -17.58846673
-57.79102778 -17.59070840
-57.79408334 -17.58922229
-57.79193889 -17.58390840
-57.78462500 -17.58009451
-57.78438334 -17.57862229
-57.79038056 -17.57712229
-57.78883611 -17.57373062
-57.79565556 -17.57250840
-57.79940278 -17.56835562
-57.79698334 -17.56655562
-57.79796389 -17.56230284
-57.79465834 -17.55994173
-57.78924167 -17.55940006
-57.77807222 -17.56143617
-57.77141667 -17.56005284
-57.76407778 -17.56433617
-57.75401667 -17.56685562
-57.88278889 -17.44876117
-57.92653056 -17.47493895
-57.94698334 -17.49160840
-57.96815834 -17.50571117
-57.98882500 -17.51603617
-57.99226945 -17.51643340
-57.99873056 -17.51427506
-58.00065556 -17.50517228
-58.00719445 -17.50456951
-58.01079445 -17.49708617
-58.01822778 -17.49726395
-58.02334722 -17.49248340
-58.02950834 -17.49432228
-58.03618056 -17.49099173
-58.04385556 -17.49133340
-58.04413611 -17.47913617
-58.04687222 -17.47308617
-58.04888334 -17.46205284
-58.05817500 -17.45284451
-58.07105556 -17.45066951
-58.07794445 -17.45380006
-58.08243334 -17.45793062
-58.08899167 -17.45868617
-58.09945556 -17.45660284
-58.11180000 -17.45051951
-58.11851111 -17.44968340
-58.12083889 -17.44420284
-58.13252222 -17.43722228
-58.13128889 -17.42289451
-58.13014722 -17.42155006
-58.12858334 -17.42333062
-58.12785834 -17.42220840
-58.13085556 -17.41791117
-58.13631111 -17.41612784
-58.14020278 -17.41981117
-58.14469167 -17.42042228
-58.14837778 -17.41503617
-58.15595834 -17.41344728
-58.15893056 -17.41130562
-58.16140556 -17.40389451
-58.16196667 -17.39492784
-58.16590278 -17.39044451
-58.16233889 -17.38873895
-58.16277222 -17.38646395
-58.17233889 -17.39102506
-58.19935278 -17.39203062
-58.20467222 -17.38934173
-58.20695000 -17.38431395
-58.20699445 -17.37989173
-58.20310000 -17.37603895
-58.20292778 -17.36917784
-58.19952500 -17.36650840
-58.20716111 -17.35777228
-58.22674167 -17.35612784
-58.22884722 -17.35766395
-58.23087500 -17.35542228
-58.23116111 -17.35133340
-58.23449445 -17.34986395
-58.24376111 -17.35062784
-58.24688889 -17.35443617
-58.25588056 -17.35281951
-58.25948056 -17.34607228
-58.26585556 -17.34325006
-58.26507500 -17.33175006
-58.26635556 -17.32730840
-58.27568611 -17.32500562
-58.27955834 -17.32052228
-58.27947778 -17.29684728
-58.28320278 -17.29540006
-58.29256389 -17.29848340
-58.29894167 -17.29588895
-58.29796111 -17.29017784
-58.29421667 -17.28825006
-58.29239167 -17.28487784
-58.29513889 -17.27979728
-58.30000278 -17.27846117
-58.30261111 -17.27598340
-58.30392222 -17.26649173
-58.30767500 -17.26541117
-58.31676667 -17.26657228
-58.32185834 -17.26467506
-58.32161945 -17.25401951
-58.32953889 -17.24527228
-58.33758334 -17.24038062
-58.34103611 -17.23215840
-58.34707778 -17.23075840
-58.35946111 -17.21791395
-58.36444167 -17.21987506
-58.37231945 -17.21560840
-58.37205000 -17.21028062
-58.37612500 -17.20755006
-58.37623056 -17.20335284
-58.38017222 -17.19302506
-58.38516945 -17.19248895
-58.39186945 -17.19510284
-58.39522778 -17.19193062
-58.39700834 -17.18594728
-58.40298611 -17.18431673
-58.39950834 -17.17388339
-58.40065278 -17.17210839
-58.40599445 -17.17116951
-58.40789445 -17.16870006
-58.40661389 -17.16605562
-58.40369445 -17.16757784
-58.40587778 -17.15433062
-58.40830000 -17.14835284
-58.41304722 -17.14678339
-58.41630834 -17.14145562
-58.41687500 -17.12670284
-58.42510278 -17.12260006
-58.42821945 -17.11903339
-58.43339445 -17.10539451
-58.43238889 -17.09491951
-58.43800000 -17.08938339
-58.43963334 -17.08187228
-58.43946945 -17.07586395
-58.43561667 -17.07105006
-58.43538334 -17.06770839
-58.43003334 -17.06802228
-58.43645278 -17.06502506
-58.43615834 -17.05493617
-58.43209445 -17.05131673
-58.42901667 -17.05363617
-58.42652778 -17.04925284
-58.43642778 -17.04682228
-58.43713611 -17.04011951
-58.43991111 -17.03406395
-58.44745000 -17.02775839
-58.44829167 -17.02541951
-58.44748889 -17.02327784
-58.44329404 -17.02426582
-58.44857500 -17.00664173
-58.46563056 -16.98230562
-58.48163889 -16.76619728
-58.44609167 -16.74105006
-58.43853056 -16.69938895
-58.46095278 -16.66125284
-58.45578889 -16.63124450
-58.43629167 -16.59523062
-58.42360556 -16.58746395
-58.37223611 -16.51268339
-58.37345000 -16.43861673
-58.36528334 -16.41716117
-58.32342500 -16.38729450
-58.29830000 -16.34313061
-58.30355834 -16.31091117
-58.32643334 -16.28118061
-58.34001945 -16.27377784
-58.37489167 -16.27203895
-58.41076667 -16.28874450
-58.44013056 -16.31417784
-58.45887711 -16.32016774
-58.57458873 -16.31553052
