1.0 100.0 100.0 1.0 0.1 100.0 100.0 100.0 100.0
3300.0 3300.0 3000.0 3300.0 3000.0 3300.0 3300.0 2775.0 2750.0
0.0 0.0 0.0 0.0 0.0 0.0 0.0 0.0 0.0
-52624.3810680962 -10000.0000000000 0.0000000000 0.0000000000 0.0000000000 0.0000000000 0.0000000000 0.0000000000
-52667.3676327049 -10000.0000000000 0.0000000000 0.0000000000 0.0000000000 0.0000000000 0.0000000000 0.0000000000
-55691.4420471802 -10000.0000000000 0.0000000000 0.0000000000 0.0000000000 0.0000000000 0.0000000000 0.0000000000
-58001.8615468727 -10000.0000000000 0.0000000000 0.0000000000 0.0000000000 0.0000000000 0.0000000000 0.0000000000
-59271.7701707497 -10000.0000000000 0.0000000000 0.0000000000 0.0000000000 0.0000000000 0.0000000000 0.0000000000
-59506.0369295474 -10000.0000000000 0.0000000000 0.0000000000 0.0000000000 0.0000000000 0.0000000000 0.0000000000
-58974.0256564333 -10000.0000000000 0.0000000000 0.0000000000 0.0000000000 0.0000000000 0.0000000000 0.0000000000
-57952.2144379785 -10000.0000000000 0.0000000000 0.0000000000 0.0000000000 0.0000000000 0.0000000000 0.0000000000
-56717.0813607540 -10000.0000000000 0.0000000000 0.0000000000 0.0000000000 0.0000000000 0.0000000000 0.0000000000
-55545.1045113312 -10000.0000000000 0.0000000000 0.0000000000 0.0000000000 0.0000000000 0.0000000000 0.0000000000
-54712.7619762809 -10000.0000000000 0.0000000000 0.0000000000 0.0000000000 0.0000000000 0.0000000000 0.0000000000
-55221.7361466137 -10000.0000000000 0.0000000000 0.0000000000 0.0000000000 0.0000000000 0.0000000000 0.0000000000
-55244.1289511762 -10000.0000000000 0.0000000000 0.0000000000 0.0000000000 0.0000000000 0.0000000000 0.0000000000
-57819.0912251312 -10000.0000000000 0.0000000000 0.0000000000 0.0000000000 0.0000000000 0.0000000000 0.0000000000
-60416.4463036487 -10000.0000000000 0.0000000000 0.0000000000 0.0000000000 0.0000000000 0.0000000000 0.0000000000
-63150.4600971885 -10000.0000000000 0.0000000000 0.0000000000 0.0000000000 0.0000000000 0.0000000000 0.0000000000
-66701.1431721108 -10000.0000000000 0.0000000000 0.0000000000 0.0000000000 0.0000000000 0.0000000000 0.0000000000
-70170.2095798452 -10000.0000000000 0.0000000000 0.0000000000 0.0000000000 0.0000000000 0.0000000000 0.0000000000
-73239.3000197727 -10000.0000000000 0.0000000000 0.0000000000 0.0000000000 0.0000000000 0.0000000000 0.0000000000
-75592.4278224165 -10000.0000000000 0.0000000000 0.0000000000 0.0000000000 0.0000000000 0.0000000000 0.0000000000
-76985.8353028706 -10000.0000000000 0.0000000000 0.0000000000 0.0000000000 0.0000000000 0.0000000000 0.0000000000
-76887.7431483721 -10000.0000000000 0.0000000000 0.0000000000 0.0000000000 0.0000000000 0.0000000000 0.0000000000
-75707.0411856258 -10000.0000000000 0.0000000000 0.0000000000 0.0000000000 0.0000000000 0.0000000000 0.0000000000
-73759.4710030541 -10000.0000000000 0.0000000000 0.0000000000 0.0000000000 0.0000000000 0.0000000000 0.0000000000
-71335.3183708518 -10000.0000000000 0.0000000000 0.0000000000 0.0000000000 0.0000000000 0.0000000000 0.0000000000
-68725.3919839067 -10000.0000000000 0.0000000000 0.0000000000 0.0000000000 0.0000000000 0.0000000000 0.0000000000
-66220.5005371073 -10000.0000000000 0.0000000000 0.0000000000 0.0000000000 0.0000000000 0.0000000000 0.0000000000
-64118.7261359905 -10000.0000000000 0.0000000000 0.0000000000 0.0000000000 0.0000000000 0.0000000000 0.0000000000
-63028.8053819171 -10000.0000000000 0.0000000000 0.0000000000 0.0000000000 0.0000000000 0.0000000000 0.0000000000
-62154.8673353836 -10000.0000000000 0.0000000000 0.0000000000 0.0000000000 0.0000000000 0.0000000000 0.0000000000
-62130.4814053603 -10000.0000000000 0.0000000000 0.0000000000 0.0000000000 0.0000000000 0.0000000000 0.0000000000
-62718.5561455429 -10000.0000000000 0.0000000000 0.0000000000 0.0000000000 0.0000000000 0.0000000000 0.0000000000
-63650.0624563014 -10000.0000000000 0.0000000000 0.0000000000 0.0000000000 0.0000000000 0.0000000000 0.0000000000
-64777.5646009502 -10000.0000000000 0.0000000000 0.0000000000 0.0000000000 0.0000000000 0.0000000000 0.0000000000
-65953.6268428028 -10000.0000000000 0.0000000000 0.0000000000 0.0000000000 0.0000000000 0.0000000000 0.0000000000
-67031.4601521215 -10000.0000000000 0.0000000000 0.0000000000 0.0000000000 0.0000000000 0.0000000000 0.0000000000
-68009.9530111221 -10000.0000000000 0.0000000000 0.0000000000 0.0000000000 0.0000000000 0.0000000000 0.0000000000
-68988.0571604622 -10000.0000000000 0.0000000000 0.0000000000 0.0000000000 0.0000000000 0.0000000000 0.0000000000
-69015.1617447926 -10000.0000000000 0.0000000000 0.0000000000 0.0000000000 0.0000000000 0.0000000000 0.0000000000
-68058.2884389962 -10000.0000000000 0.0000000000 0.0000000000 0.0000000000 0.0000000000 0.0000000000 0.0000000000
-66692.3192820413 -10000.0000000000 0.0000000000 0.0000000000 0.0000000000 0.0000000000 0.0000000000 0.0000000000
-65209.6942332629 -10000.0000000000 0.0000000000 0.0000000000 0.0000000000 0.0000000000 0.0000000000 0.0000000000
-63889.5839673510 -10000.0000000000 0.0000000000 0.0000000000 0.0000000000 0.0000000000 0.0000000000 0.0000000000
-63011.1591589950 -10000.0000000000 0.0000000000 0.0000000000 0.0000000000 0.0000000000 0.0000000000 0.0000000000
-63013.8013821662 -10000.0000000000 0.0000000000 0.0000000000 0.0000000000 0.0000000000 0.0000000000 0.0000000000
-65611.1564606837 -10000.0000000000 0.0000000000 0.0000000000 0.0000000000 0.0000000000 0.0000000000 0.0000000000
-68208.5115392013 -10000.0000000000 0.0000000000 0.0000000000 0.0000000000 0.0000000000 0.0000000000 0.0000000000
-70805.8666177188 -10000.0000000000 0.0000000000 0.0000000000 0.0000000000 0.0000000000 0.0000000000 0.0000000000
-73403.2216962363 -10000.0000000000 0.0000000000 0.0000000000 0.0000000000 0.0000000000 0.0000000000 0.0000000000
-76000.5767747538 -10000.0000000000 0.0000000000 0.0000000000 0.0000000000 0.0000000000 0.0000000000 0.0000000000
-78597.9318532713 -10000.0000000000 0.0000000000 0.0000000000 0.0000000000 0.0000000000 0.0000000000 0.0000000000
-81195.2869317888 -10000.0000000000 0.0000000000 0.0000000000 0.0000000000 0.0000000000 0.0000000000 0.0000000000
-83792.6420103063 -10000.0000000000 0.0000000000 0.0000000000 0.0000000000 0.0000000000 0.0000000000 0.0000000000
-86389.9970888238 -10000.0000000000 -1317.5191871000 -1317.5191871000 0.0000000000 0.0000000000 0.0000000000 0.0000000000
-88987.3521673413 -10611.7414892965 -3549.1456979000 -3549.1456979000 0.0000000000 0.0000000000 0.0000000000 0.0000000000
-91584.7072458588 -12843.3680000965 -5780.7722087000 -5780.7722087000 0.0000000000 0.0000000000 0.0000000000 0.0000000000
-94182.0623243763 -15074.9945108965 -8012.3987195000 -8012.3987195000 0.0000000000 0.0000000000 0.0000000000 0.0000000000
-96657.3754074457 -17320.7651551593 -10244.0252303000 -10244.0252303000 0.0000000000 0.0000000000 0.0000000000 0.0000000000
-99257.4368304613 -19708.9022745900 -12526.5436172000 -12526.5436172000 0.0000000000 0.0000000000 0.0000000000 0.0000000000
-102435.5430937016 -22461.7914024837 -15228.6863327000 -15228.6863327000 0.0000000000 0.0000000000 0.0000000000 0.0000000000
-106227.9342494194 -25709.0215919059 -18429.6951294000 -18429.6951294000 0.0000000000 0.0000000000 0.0000000000 0.0000000000
-110652.8829173672 -29483.9690358770 -22152.4066925000 -22152.4066925000 0.0000000000 0.0000000000 0.0000000000 0.0000000000
-115697.2551564455 -33799.1736509400 -26411.5772247000 -26411.5772247000 0.0000000000 0.0000000000 0.0000000000 0.0000000000
-121293.3640825147 -38650.0734367683 -31207.6263427999 -31207.6263427999 0.0000000000 0.0000000000 0.0000000000 0.0000000000
-127312.0379715787 -44004.1583234175 -36515.7661438000 -36515.7661438000 0.0000000000 0.0000000000 0.0000000000 0.0000000000
-133576.5009860818 -49790.2169612131 -42273.9944458000 -42273.9944458000 0.0000000000 0.0000000000 0.0000000000 0.0000000000
-139895.6432804564 -55893.4804920017 -48375.5569458000 -48375.5569458000 0.0000000000 0.0000000000 0.0000000000 0.0000000000
-146097.8891602847 -62161.8156332914 -54671.6384888000 -54671.6384888000 0.0000000000 0.0000000000 0.0000000000 0.0000000000
-152056.8728567486 -68424.7918891630 -60987.5144957999 -60987.5144957999 0.0000000000 0.0000000000 0.0000000000 0.0000000000
-157703.7305371596 -74522.9784182848 -67151.1001587000 -67151.1001587000 -3114.7984714079 -3114.7984714079 -3114.7984714079 0.0000000000
-163039.8086786396 -80341.2403943702 -73028.7322998000 -73028.7322998000 -9299.8448947962 -9299.8448947962 -9299.8448947962 0.0000000000
-168141.3143726763 -85838.2457876506 -78559.9441528000 -78559.9441528000 -15225.6315936315 -15225.6315936315 -15225.6315936315 0.0000000000
-173172.5020782791 -91064.8032825396 -83781.7687988000 -83781.7687988000 -20810.6940059212 -20810.6940059212 -20810.6940059212 0.0000000000
-178392.7342419450 -96165.1388267343 -88833.7326049999 -88833.7326049999 -26086.1973974136 -26086.1973974136 -26086.1973974136 0.0000000000
-184138.3030655242 -101357.3293055457 -93938.0187988000 -93938.0187988000 -31196.4296683383 -31196.4296683383 -31196.4296683383 0.0000000000
-190726.8450159435 -106892.8073623734 -99356.0256958000 -99356.0256958000 -36355.8687213086 -36355.8687213086 -36355.8687213086 0.0000000000
-198294.0191677762 -113001.7803188495 -105331.0394290000 -105331.0394290000 -41784.4513103591 -41784.4513103591 -41784.4513103591 0.0000000000
-206732.7631524862 -119840.1326343927 -112033.8668820000 -109863.0222613188 -47662.1550392219 -47662.1550392219 -47662.1550392219 0.0000000000
-215804.9686548506 -127457.0019225512 -119529.0603639999 -111223.3791209790 -54118.4983608934 -54061.3537762427 -54061.3537762427 0.0000000000
-225258.3776960470 -135794.4840357518 -127771.6674800000 -116965.5604686814 -61232.5968572623 -54086.2007150250 -54086.2007150250 0.0000000000
-234876.6714513377 -144715.1932470269 -136631.8511960000 -123350.2411128460 -69101.2774620310 -54364.6688784943 -54364.6688784943 0.0000000000
-244485.8823185681 -154041.2948001555 -145933.3801270000 -130661.1696913009 -77585.2186926525 -54916.7027045430 -54916.7027045430 0.0000000000
-253951.9889649308 -163588.0985730078 -155489.2425540000 -138741.4007812126 -86563.8112173173 -55636.6421420673 -55636.6421420673 0.0000000000
-263183.8823244204 -173184.5982203749 -165123.8098139999 -147082.9168683512 -95903.0056608135 -56431.4602241973 -56431.4602241973 0.0000000000
-272145.0333074119 -182684.8309865133 -174683.2885740000 -155177.7004384838 -105449.2126246495 -57208.1299840629 -57208.1299840629 0.0000000000
-280870.5366676434 -191979.7208352658 -184044.9523929999 -162517.7339773806 -115045.6990753374 -57873.6244547942 -57873.6244547942 0.0000000000
-289487.0461363474 -201016.0316907829 -193135.1165770000 -168401.8276530415 -124546.4584204436 -58322.4845235744 -58322.4845235744 0.0000000000
-298229.3627327040 -209819.5878453897 -201956.1920170000 -171533.4178655524 -133834.8156481662 -58343.7977876001 -58343.7977876001 0.0000000000
-307433.8370682797 -218510.9425862200 -210609.9090579999 -175718.9330152660 -142851.7830791131 -58236.1665170694 -58236.1665170694 0.0000000000
-317465.3431774565 -227299.5797593906 -219298.2788090000 -179801.7675747764 -151630.0226029540 -58056.8717990970 -58056.8717990970 0.0000000000
-328551.4293351584 -236449.1787810555 -228290.6341549999 -183240.2660996541 -160311.7758136855 -57765.6003448992 -57765.6003448992 0.0000000000
-340683.9315503709 -246218.9654593219 -237862.7624510000 -185793.9733814139 -169123.7665725971 -57388.4168953157 -57388.4168953157 0.0000000000
-353674.7815039103 -256800.2017646547 -248229.2480470000 -187222.4342115709 -178312.0100280272 -56951.3861911863 -56951.3861911863 0.0000000000
-367290.7521197178 -268273.4108786834 -259495.7885739999 -187285.1933816408 -187285.1933816408 -187285.1933816408 -56480.5729733508 -56480.5729733508
-381332.3636551278 -280603.0160912427 -271647.5219730000 -185741.7956831388 -185741.7956831388 -185741.7956831388 -56002.0419826489 -56002.0419826489
-395669.1615799197 -293667.1160094069 -284573.2727049998 -182487.6022931857 -182487.6022931857 -182487.6022931857 -55593.4576210160 -55593.4576210160
-410244.5250227370 -307305.3288037249 -298111.4501950000 -177275.6814305698 -177275.6814305698 -177275.6814305698 -55164.8779671610 -55164.8779671610
-425060.8456026830 -321365.3989595422 -312098.9379880000 -169787.8522940383 -169787.8522940383 -169787.8522940383 -54656.2433474713 -54656.2433474713
-440154.0895875365 -335735.3698404747 -326408.7219239998 -160827.3904263291 -160827.3904263291 -160827.3904263291 -54087.5646751325 -54087.5646751325
-455567.1434930286 -350356.0009490225 -340968.1091310000 -150725.4140186223 -150725.4140186223 -150725.4140186223 -53485.1854465900 -53485.1854465900
-471330.9406872718 -365215.0469428555 -355756.9274899999 -139813.0412620941 -139813.0412620941 -139813.0412620941 -52875.4491582887 -52875.4491582887
-487457.1665399097 -380329.8370146975 -370791.0156250000 -128421.3903479240 -128421.3903479240 -128421.3903479240 -52284.6993066740 -52284.6993066740
-503935.4722992905 -395727.2580115891 -386100.0366210000 -116881.5794672912 -116881.5794672912 -116881.5794672912 -51739.2793881910 -51739.2793881910
-520724.4176533627 -411429.3140482717 -401709.8999019998 -105524.7268113719 -105524.7268113719 -105524.7268113719 -51265.5328992847 -51265.5328992847
-537734.2155889339 -427447.0518237667 -417635.0402830000 -100000.0000000000 -100000.0000000000 -100000.0000000000 -50867.3361524565 -50867.3361524565
-554815.4374387295 -443778.3360157639 -433877.9296879998 -100000.0000000000 -100000.0000000000 -100000.0000000000 -50503.4926965261 -50503.4926965261
-571765.1211076339 -460401.1360581546 -450426.2390140000 -100000.0000000000 -100000.0000000000 -100000.0000000000 -50181.7695238973 -50181.7695238973
-588365.8749816314 -477257.9219263949 -467239.7155760000 -100000.0000000000 -100000.0000000000 -100000.0000000000 -49904.4137337344 -49904.4137337344
-604434.4955007302 -494236.8871616244 -484228.4545899998 -100000.0000000000 -100000.0000000000 -100000.0000000000 -49674.8955319078 -49674.8955319078
-619863.3222731323 -511164.6535989829 -501236.5112300000 -100000.0000000000 -100000.0000000000 -100000.0000000000 -49496.6851242880 -49496.6851242880
-634639.2167485183 -527824.6691877018 -518048.7670899997 -100000.0000000000 -100000.0000000000 -100000.0000000000 -49374.5997016759 -49374.5997016759
-648836.3119040362 -544003.5920816099 -534430.4809569999 -100000.0000000000 -100000.0000000000 -100000.0000000000 -49354.8009750242 -49354.8009750242
-662585.4348859405 -559549.6230451326 -550190.8569339998 -100000.0000000000 -100000.0000000000 -100000.0000000000 -49397.6727850258 -49397.6727850258
-639546.9875149601 -574415.7841164706 -565241.8212889999 -104576.9085539120 -104576.9085539120 -104576.9085539120 -49488.0566059366 -49488.0566059366
-616508.5401439798 -588665.3802903772 -579622.3144530000 -113433.8743601746 -113433.8743601746 -113433.8743601746 -49593.7728202734 -49593.7728202734
-593470.0927729999 -593470.0927729999 -593470.0927729999 -119992.0256973396 -119992.0256973396 -119992.0256973396 -49682.9090099707 -49682.9090099707
-123191.5447261511 -123191.5447261511 -123191.5447261511 -123191.5447261511 -123191.5447261511 -123191.5447261511 -49723.5527569625 -49723.5527569625
-120156.9728231018 -120156.9728231018 -120156.9728231018 -120156.9728231018 -120156.9728231018 -120156.9728231018 -49672.5784138970 -49672.5784138970
-109983.1672775310 -109983.1672775310 -109983.1672775310 -109983.1672775310 -109983.1672775310 -109983.1672775310 -49505.6158651523 -49505.6158651523
-101480.1016308974 -101480.1016308974 -101480.1016308974 -101480.1016308974 -101480.1016308974 -101480.1016308974 -49185.3648400520 -49185.3648400520
-100000.0000000000 -100000.0000000000 -100000.0000000000 -100000.0000000000 -100000.0000000000 -100000.0000000000 -48677.3903666555 -48677.3903666555
-100000.0000000000 -100000.0000000000 -100000.0000000000 -100000.0000000000 -100000.0000000000 -100000.0000000000 -48123.6336005132 -48123.6336005132
-100000.0000000000 -100000.0000000000 -100000.0000000000 -100000.0000000000 -100000.0000000000 -100000.0000000000 -47606.1448284581 -47606.1448284581
-100000.0000000000 -100000.0000000000 -100000.0000000000 -100000.0000000000 -100000.0000000000 -100000.0000000000 -47205.8396687649 -47205.8396687649
-100000.0000000000 -100000.0000000000 -100000.0000000000 -100000.0000000000 -100000.0000000000 -100000.0000000000 -47025.8463153752 -47025.8463153752
-100000.0000000000 -100000.0000000000 -100000.0000000000 -100000.0000000000 -100000.0000000000 -100000.0000000000 -47107.9351419644 -47107.9351419644
-100000.0000000000 -100000.0000000000 -100000.0000000000 -100000.0000000000 -100000.0000000000 -100000.0000000000 -47375.6958170920 -47375.6958170920
-100000.0000000000 -100000.0000000000 -100000.0000000000 -100000.0000000000 -100000.0000000000 -100000.0000000000 -47851.8909327300 -47851.8909327300
-100000.0000000000 -100000.0000000000 -100000.0000000000 -100000.0000000000 -100000.0000000000 -100000.0000000000 -48442.4240236801 -48442.4240236801
-100000.0000000000 -100000.0000000000 -100000.0000000000 -100000.0000000000 -100000.0000000000 -100000.0000000000 -49038.3354902455 -49038.3354902455
-100000.0000000000 -100000.0000000000 -100000.0000000000 -100000.0000000000 -100000.0000000000 -100000.0000000000 -49459.2090825372 -49459.2090825372
-100000.0000000000 -100000.0000000000 -100000.0000000000 -100000.0000000000 -100000.0000000000 -100000.0000000000 -49527.3783079411 -49527.3783079411
-100000.0000000000 -100000.0000000000 -100000.0000000000 -100000.0000000000 -100000.0000000000 -100000.0000000000 -49424.7157753077 -49424.7157753077
-100000.0000000000 -100000.0000000000 -100000.0000000000 -100000.0000000000 -100000.0000000000 -100000.0000000000 -49277.2491231272 -49277.2491231272
-100000.0000000000 -100000.0000000000 -100000.0000000000 -100000.0000000000 -100000.0000000000 -100000.0000000000 -49002.4306132126 -49002.4306132126
-100000.0000000000 -100000.0000000000 -100000.0000000000 -100000.0000000000 -100000.0000000000 -100000.0000000000 -48557.3129845727 -48557.3129845727
-100000.0000000000 -100000.0000000000 -100000.0000000000 -100000.0000000000 -100000.0000000000 -100000.0000000000 -48024.5374270149 -48024.5374270149
-100000.0000000000 -100000.0000000000 -100000.0000000000 -100000.0000000000 -100000.0000000000 -100000.0000000000 -47516.0194481452 -47516.0194481452
-100000.0000000000 -100000.0000000000 -100000.0000000000 -100000.0000000000 -100000.0000000000 -100000.0000000000 -47175.9481309129 -47175.9481309129
-100000.0000000000 -100000.0000000000 -100000.0000000000 -100000.0000000000 -100000.0000000000 -100000.0000000000 -47086.4801356866 -47086.4801356866
-100000.0000000000 -100000.0000000000 -100000.0000000000 -100000.0000000000 -100000.0000000000 -100000.0000000000 -47117.9204323861 -47117.9204323861
-100000.0000000000 -100000.0000000000 -100000.0000000000 -100000.0000000000 -100000.0000000000 -100000.0000000000 -47209.1795844052 -47209.1795844052
-100000.0000000000 -100000.0000000000 -100000.0000000000 -100000.0000000000 -100000.0000000000 -100000.0000000000 -47383.7469716175 -47383.7469716175
-100000.0000000000 -100000.0000000000 -100000.0000000000 -100000.0000000000 -100000.0000000000 -100000.0000000000 -47616.8985346248 -47616.8985346248
-100000.0000000000 -100000.0000000000 -100000.0000000000 -100000.0000000000 -100000.0000000000 -100000.0000000000 -47765.3557138886 -47765.3557138886
-100000.0000000000 -100000.0000000000 -100000.0000000000 -100000.0000000000 -100000.0000000000 -100000.0000000000 -47771.0384023358 -47771.0384023358
-100000.0000000000 -100000.0000000000 -100000.0000000000 -100000.0000000000 -100000.0000000000 -100000.0000000000 -47686.6200142450 -47686.6200142450
-100000.0000000000 -100000.0000000000 -100000.0000000000 -100000.0000000000 -100000.0000000000 -100000.0000000000 -47556.4015957550 -47556.4015957550
-100000.0000000000 -100000.0000000000 -100000.0000000000 -100000.0000000000 -100000.0000000000 -100000.0000000000 -47417.3223648054 -47417.3223648054
-100000.0000000000 -100000.0000000000 -100000.0000000000 -100000.0000000000 -100000.0000000000 -100000.0000000000 -47272.9162662080 -47272.9162662080
-100000.0000000000 -100000.0000000000 -100000.0000000000 -100000.0000000000 -100000.0000000000 -100000.0000000000 -47043.8379776461 -47043.8379776461
-100000.0000000000 -100000.0000000000 -100000.0000000000 -100000.0000000000 -100000.0000000000 -100000.0000000000 -46897.7404720629 -46897.7404720629
-100000.0000000000 -100000.0000000000 -100000.0000000000 -100000.0000000000 -100000.0000000000 -100000.0000000000 -46787.5679300255 -46787.5679300255
-100000.0000000000 -100000.0000000000 -100000.0000000000 -100000.0000000000 -100000.0000000000 -100000.0000000000 -46697.3408724546 -46697.3408724546
-100000.0000000000 -100000.0000000000 -100000.0000000000 -100000.0000000000 -100000.0000000000 -100000.0000000000 -46646.5056314941 -46646.5056314941
-100000.0000000000 -100000.0000000000 -100000.0000000000 -100000.0000000000 -100000.0000000000 -100000.0000000000 -46657.3482096046 -46657.3482096046
-100000.0000000000 -100000.0000000000 -100000.0000000000 -100000.0000000000 -100000.0000000000 -100000.0000000000 -46769.5895693271 -46769.5895693271
-100000.0000000000 -100000.0000000000 -100000.0000000000 -100000.0000000000 -100000.0000000000 -100000.0000000000 -47023.1038782381 -47023.1038782381
-100000.0000000000 -100000.0000000000 -100000.0000000000 -100000.0000000000 -100000.0000000000 -100000.0000000000 -47324.9520446609 -47324.9520446609
-100000.0000000000 -100000.0000000000 -100000.0000000000 -100000.0000000000 -100000.0000000000 -100000.0000000000 -47735.3039403904 -47735.3039403904
-100000.0000000000 -100000.0000000000 -100000.0000000000 -100000.0000000000 -100000.0000000000 -100000.0000000000 -48204.6153289053 -48204.6153289053
-100000.0000000000 -100000.0000000000 -100000.0000000000 -100000.0000000000 -100000.0000000000 -100000.0000000000 -48687.6301480571 -48687.6301480571
-100000.0000000000 -100000.0000000000 -100000.0000000000 -100000.0000000000 -100000.0000000000 -100000.0000000000 -49139.3724170750 -49139.3724170750
-100000.0000000000 -100000.0000000000 -100000.0000000000 -100000.0000000000 -100000.0000000000 -100000.0000000000 -49514.8661551878 -49514.8661551878
-100000.0000000000 -100000.0000000000 -100000.0000000000 -100000.0000000000 -100000.0000000000 -100000.0000000000 -49769.0567738747 -49769.0567738747
-100000.0000000000 -100000.0000000000 -100000.0000000000 -100000.0000000000 -100000.0000000000 -100000.0000000000 -49859.8899851248 -49859.8899851248
-100000.0000000000 -100000.0000000000 -100000.0000000000 -100000.0000000000 -100000.0000000000 -100000.0000000000 -49804.9309104139 -49804.9309104139
-100000.0000000000 -100000.0000000000 -100000.0000000000 -100000.0000000000 -100000.0000000000 -100000.0000000000 -49666.2294106989 -49666.2294106989
-100000.0000000000 -100000.0000000000 -100000.0000000000 -100000.0000000000 -100000.0000000000 -100000.0000000000 -49506.2969123198 -49506.2969123198
-100000.0000000000 -100000.0000000000 -100000.0000000000 -100000.0000000000 -100000.0000000000 -100000.0000000000 -49387.6448416165 -49387.6448416165
-100000.0000000000 -100000.0000000000 -100000.0000000000 -100000.0000000000 -100000.0000000000 -100000.0000000000 -49372.8571065788 -49372.8571065788
-101621.4387302451 -101621.4387302451 -101621.4387302451 -101621.4387302451 -101621.4387302451 -101621.4387302451 -49557.6999279722 -49557.6999279722
-109341.4381900852 -109341.4381900852 -109341.4381900852 -109341.4381900852 -109341.4381900852 -109341.4381900852 -49957.1150862515 -49957.1150862515
-119806.7403362428 -119806.7403362428 -119806.7403362428 -119806.7403362428 -119806.7403362428 -119806.7403362428 -50458.1495964531 -50458.1495964531
-131656.7600813044 -131656.7600813044 -131656.7600813044 -131656.7600813044 -131656.7600813044 -131656.7600813044 -51057.8386727581 -51057.8386727581
-144127.1502675380 -144127.1502675380 -144127.1502675380 -144127.1502675380 -144127.1502675380 -144127.1502675380 -51713.5442550231 -51713.5442550231
-156338.7023394303 -156338.7023394303 -156338.7023394303 -156338.7023394303 -156338.7023394303 -156338.7023394303 -52375.7996913470 -52375.7996913470
-166172.3038429026 -166172.3038429026 -166172.3038429026 -166172.3038429026 -166172.3038429026 -166172.3038429026 -52932.1036985710 -52932.1036985710
-171047.6224477135 -171047.6224477135 -171047.6224477135 -171047.6224477135 -171047.6224477135 -171047.6224477135 -53242.0697050376 -53242.0697050376
-174798.8846178338 -174798.8846178338 -174798.8846178338 -174798.8846178338 -174798.8846178338 -174798.8846178338 -53445.8598719121 -53445.8598719121
-179045.7995811335 -179045.7995811335 -179045.7995811335 -179045.7995811335 -179045.7995811335 -179045.7995811335 -53562.0134741826 -53562.0134741826
-182939.6642849933 -182939.6642849933 -182939.6642849933 -182939.6642849933 -182939.6642849933 -182939.6642849933 -53535.0656278145 -53535.0656278145
-185449.2426910974 -185449.2426910974 -185449.2426910974 -185449.2426910974 -185449.2426910974 -185449.2426910974 -53314.1457465531 -53314.1457465531
-187595.8343838695 -187595.8343838695 -187595.8343838695 -187595.8343838695 -187595.8343838695 -187595.8343838695 -52915.8981077143 -52915.8981077143
-190241.4756112514 -190241.4756112514 -190241.4756112514 -190241.4756112514 -190241.4756112514 -190241.4756112514 -52349.4418722025 -52349.4418722025
-194017.0568315127 -194017.0568315127 -194017.0568315127 -194017.0568315127 -194017.0568315127 -194017.0568315127 -51582.1573061940 -51582.1573061940
-199258.2234931094 -199258.2234931094 -199258.2234931094 -199258.2234931094 -199258.2234931094 -199258.2234931094 -50615.8038108188 -50615.8038108188
-204884.4501572801 -204884.4501572801 -204884.4501572801 -204884.4501572801 -204884.4501572801 -204884.4501572801 -49662.1103143175 -49662.1103143175
-210641.2176480121 -210641.2176480121 -210641.2176480121 -210641.2176480121 -210641.2176480121 -210641.2176480121 -48875.1624602002 -48875.1624602002
-216493.3385957432 -216493.3385957432 -216493.3385957432 -216493.3385957432 -216493.3385957432 -216493.3385957432 -48262.7452628581 -48262.7452628581
-222055.0303286942 -222055.0303286942 -222055.0303286942 -222055.0303286942 -222055.0303286942 -222055.0303286942 -47773.8698912188 -47773.8698912188
-225725.1878346284 -225725.1878346284 -225725.1878346284 -225725.1878346284 -225725.1878346284 -225725.1878346284 -47509.2460143663 -47509.2460143663
-227114.5780542178 -227114.5780542178 -227114.5780542178 -227114.5780542178 -227114.5780542178 -227114.5780542178 -47529.9124483877 -47529.9124483877
-227518.9283482313 -227518.9283482313 -227518.9283482313 -227518.9283482313 -227518.9283482313 -227518.9283482313 -47719.4466088898 -47719.4466088898
-227817.1129310563 -227817.1129310563 -227817.1129310563 -227817.1129310563 -227817.1129310563 -227817.1129310563 -47943.9021533102 -47943.9021533102
-228630.6582713448 -228630.6582713448 -228630.6582713448 -228630.6582713448 -228630.6582713448 -228630.6582713448 -48108.1008351190 -48108.1008351190
-230569.2040551531 -230569.2040551531 -230569.2040551531 -230569.2040551531 -230569.2040551531 -230569.2040551531 -48119.8136721017 -48119.8136721017
-233727.3953436214 -233727.3953436214 -233727.3953436214 -233727.3953436214 -233727.3953436214 -233727.3953436214 -48010.8610735340 -48010.8610735340
-237281.2954553963 -237281.2954553963 -237281.2954553963 -237281.2954553963 -237281.2954553963 -237281.2954553963 -47795.7812355154 -47795.7812355154
-241554.0892462680 -241554.0892462680 -241554.0892462680 -241554.0892462680 -241554.0892462680 -241554.0892462680 -47288.8946215469 -47288.8946215469
-246133.4056671358 -246133.4056671358 -246133.4056671358 -246133.4056671358 -246133.4056671358 -246133.4056671358 -46642.5903453475 -46642.5903453475
-52624.3810680964 -10000.0000000000 0.0000000000 0.0000000000 0.0000000000 0.0000000000 0.0000000000 0.0000000000
-52667.3676327049 -10000.0000000000 0.0000000000 0.0000000000 0.0000000000 0.0000000000 0.0000000000 0.0000000000
-55691.4420471802 -10000.0000000000 0.0000000000 0.0000000000 0.0000000000 0.0000000000 0.0000000000 0.0000000000
-58001.8615468727 -10000.0000000000 0.0000000000 0.0000000000 0.0000000000 0.0000000000 0.0000000000 0.0000000000
-59271.7701707497 -10000.0000000000 0.0000000000 0.0000000000 0.0000000000 0.0000000000 0.0000000000 0.0000000000
-59506.0369295474 -10000.0000000000 0.0000000000 0.0000000000 0.0000000000 0.0000000000 0.0000000000 0.0000000000
-58974.0256564333 -10000.0000000000 0.0000000000 0.0000000000 0.0000000000 0.0000000000 0.0000000000 0.0000000000
-57952.2144379785 -10000.0000000000 0.0000000000 0.0000000000 0.0000000000 0.0000000000 0.0000000000 0.0000000000
-56717.0813607540 -10000.0000000000 0.0000000000 0.0000000000 0.0000000000 0.0000000000 0.0000000000 0.0000000000
-55545.1045113312 -10000.0000000000 0.0000000000 0.0000000000 0.0000000000 0.0000000000 0.0000000000 0.0000000000
-54712.7619762809 -10000.0000000000 0.0000000000 0.0000000000 0.0000000000 0.0000000000 0.0000000000 0.0000000000
-55221.7361466139 -10000.0000000000 0.0000000000 0.0000000000 0.0000000000 0.0000000000 0.0000000000 0.0000000000
-55244.1289511762 -10000.0000000000 0.0000000000 0.0000000000 0.0000000000 0.0000000000 0.0000000000 0.0000000000
-57819.0912251314 -10000.0000000000 0.0000000000 0.0000000000 0.0000000000 0.0000000000 0.0000000000 0.0000000000
-60416.4463036489 -10000.0000000000 0.0000000000 0.0000000000 0.0000000000 0.0000000000 0.0000000000 0.0000000000
-63150.4600971885 -10000.0000000000 0.0000000000 0.0000000000 0.0000000000 0.0000000000 0.0000000000 0.0000000000
-66701.1431721108 -10000.0000000000 0.0000000000 0.0000000000 0.0000000000 0.0000000000 0.0000000000 0.0000000000
-70170.2095798452 -10000.0000000000 0.0000000000 0.0000000000 0.0000000000 0.0000000000 0.0000000000 0.0000000000
-73239.3000197727 -10000.0000000000 0.0000000000 0.0000000000 0.0000000000 0.0000000000 0.0000000000 0.0000000000
-75592.4278224165 -10000.0000000000 0.0000000000 0.0000000000 0.0000000000 0.0000000000 0.0000000000 0.0000000000
-76985.8353028706 -10000.0000000000 0.0000000000 0.0000000000 0.0000000000 0.0000000000 0.0000000000 0.0000000000
-76887.7431483721 -10000.0000000000 0.0000000000 0.0000000000 0.0000000000 0.0000000000 0.0000000000 0.0000000000
-75707.0411856258 -10000.0000000000 0.0000000000 0.0000000000 0.0000000000 0.0000000000 0.0000000000 0.0000000000
-73759.4710030541 -10000.0000000000 0.0000000000 0.0000000000 0.0000000000 0.0000000000 0.0000000000 0.0000000000
-71335.3183708518 -10000.0000000000 0.0000000000 0.0000000000 0.0000000000 0.0000000000 0.0000000000 0.0000000000
-68725.3919839067 -10000.0000000000 0.0000000000 0.0000000000 0.0000000000 0.0000000000 0.0000000000 0.0000000000
-66220.5005371073 -10000.0000000000 0.0000000000 0.0000000000 0.0000000000 0.0000000000 0.0000000000 0.0000000000
-64118.7261359905 -10000.0000000000 0.0000000000 0.0000000000 0.0000000000 0.0000000000 0.0000000000 0.0000000000
-63028.8053819171 -10000.0000000000 0.0000000000 0.0000000000 0.0000000000 0.0000000000 0.0000000000 0.0000000000
-62154.8673353836 -10000.0000000000 0.0000000000 0.0000000000 0.0000000000 0.0000000000 0.0000000000 0.0000000000
-62130.4814053603 -10000.0000000000 0.0000000000 0.0000000000 0.0000000000 0.0000000000 0.0000000000 0.0000000000
-62718.5561455429 -10000.0000000000 0.0000000000 0.0000000000 0.0000000000 0.0000000000 0.0000000000 0.0000000000
-63650.0624563014 -10000.0000000000 0.0000000000 0.0000000000 0.0000000000 0.0000000000 0.0000000000 0.0000000000
-64777.5646009502 -10000.0000000000 0.0000000000 0.0000000000 0.0000000000 0.0000000000 0.0000000000 0.0000000000
-65953.6268428028 -10000.0000000000 0.0000000000 0.0000000000 0.0000000000 0.0000000000 0.0000000000 0.0000000000
-67031.4601521215 -10000.0000000000 0.0000000000 0.0000000000 0.0000000000 0.0000000000 0.0000000000 0.0000000000
-68009.9530111221 -10000.0000000000 0.0000000000 0.0000000000 0.0000000000 0.0000000000 0.0000000000 0.0000000000
-68988.0571604622 -10000.0000000000 0.0000000000 0.0000000000 0.0000000000 0.0000000000 0.0000000000 0.0000000000
-69015.1617447926 -10000.0000000000 0.0000000000 0.0000000000 0.0000000000 0.0000000000 0.0000000000 0.0000000000
-68058.2884389962 -10000.0000000000 0.0000000000 0.0000000000 0.0000000000 0.0000000000 0.0000000000 0.0000000000
-66692.3192820413 -10000.0000000000 0.0000000000 0.0000000000 0.0000000000 0.0000000000 0.0000000000 0.0000000000
-65209.6942332629 -10000.0000000000 0.0000000000 0.0000000000 0.0000000000 0.0000000000 0.0000000000 0.0000000000
-63889.5839673510 -10000.0000000000 0.0000000000 0.0000000000 0.0000000000 0.0000000000 0.0000000000 0.0000000000
-63011.1591589950 -10000.0000000000 0.0000000000 0.0000000000 0.0000000000 0.0000000000 0.0000000000 0.0000000000
-63013.8013821663 -10000.0000000000 0.0000000000 0.0000000000 0.0000000000 0.0000000000 0.0000000000 0.0000000000
-65611.1564606839 -10000.0000000000 0.0000000000 0.0000000000 0.0000000000 0.0000000000 0.0000000000 0.0000000000
-68208.5115392013 -10000.0000000000 0.0000000000 0.0000000000 0.0000000000 0.0000000000 0.0000000000 0.0000000000
-70805.8666177188 -10000.0000000000 0.0000000000 0.0000000000 0.0000000000 0.0000000000 0.0000000000 0.0000000000
-73403.2216962363 -10000.0000000000 0.0000000000 0.0000000000 0.0000000000 0.0000000000 0.0000000000 0.0000000000
-76000.5767747538 -10000.0000000000 0.0000000000 0.0000000000 0.0000000000 0.0000000000 0.0000000000 0.0000000000
-78597.9318532713 -10000.0000000000 0.0000000000 0.0000000000 0.0000000000 0.0000000000 0.0000000000 0.0000000000
-81195.2869317888 -10000.0000000000 0.0000000000 0.0000000000 0.0000000000 0.0000000000 0.0000000000 0.0000000000
-83792.6420103063 -10000.0000000000 0.0000000000 0.0000000000 0.0000000000 0.0000000000 0.0000000000 0.0000000000
-86389.9970888238 -10000.0000000000 -1317.5191871000 -1317.5191871000 0.0000000000 0.0000000000 0.0000000000 0.0000000000
-88987.3521673413 -10611.7414892965 -3549.1456979000 -3549.1456979000 0.0000000000 0.0000000000 0.0000000000 0.0000000000
-91584.7072458588 -12843.3680000965 -5780.7722087000 -5780.7722087000 0.0000000000 0.0000000000 0.0000000000 0.0000000000
-94182.0623243763 -15074.9945108965 -8012.3987195000 -8012.3987195000 0.0000000000 0.0000000000 0.0000000000 0.0000000000
-96657.3754074456 -17320.7651551593 -10244.0252303000 -10244.0252303000 0.0000000000 0.0000000000 0.0000000000 0.0000000000
-99257.4368304613 -19708.9022745900 -12526.5436172000 -12526.5436172000 0.0000000000 0.0000000000 0.0000000000 0.0000000000
-102435.5430937016 -22461.7914024837 -15228.6863327000 -15228.6863327000 0.0000000000 0.0000000000 0.0000000000 0.0000000000
-106227.9342494195 -25709.0215919059 -18429.6951294000 -18429.6951294000 0.0000000000 0.0000000000 0.0000000000 0.0000000000
-110652.8829173672 -29483.9690358770 -22152.4066925000 -22152.4066925000 0.0000000000 0.0000000000 0.0000000000 0.0000000000
-115697.2551564455 -33799.1736509400 -26411.5772247000 -26411.5772247000 0.0000000000 0.0000000000 0.0000000000 0.0000000000
-121293.3640825147 -38650.0734367683 -31207.6263427999 -31207.6263427999 0.0000000000 0.0000000000 0.0000000000 0.0000000000
-127312.0379715787 -44004.1583234175 -36515.7661438000 -36515.7661438000 0.0000000000 0.0000000000 0.0000000000 0.0000000000
-133576.5009860818 -49790.2169612131 -42273.9944458000 -42273.9944458000 0.0000000000 0.0000000000 0.0000000000 0.0000000000
-139895.6432804564 -55893.4804920017 -48375.5569458000 -48375.5569458000 0.0000000000 0.0000000000 0.0000000000 0.0000000000
-146097.8891602847 -62161.8156332914 -54671.6384888000 -54671.6384888000 0.0000000000 0.0000000000 0.0000000000 0.0000000000
-152056.8728567486 -68424.7918891630 -60987.5144957999 -60987.5144957999 0.0000000000 0.0000000000 0.0000000000 0.0000000000
-157703.7305371596 -74522.9784182848 -67151.1001587000 -67151.1001587000 -3114.7984714079 -3114.7984714079 -3114.7984714079 0.0000000000
-163039.8086786396 -80341.2403943702 -73028.7322998000 -73028.7322998000 -9299.8448947962 -9299.8448947962 -9299.8448947962 0.0000000000
-168141.3143726763 -85838.2457876506 -78559.9441528000 -78559.9441528000 -15225.6315936315 -15225.6315936315 -15225.6315936315 0.0000000000
-173172.5020782791 -91064.8032825396 -83781.7687988000 -83781.7687988000 -20810.6940059212 -20810.6940059212 -20810.6940059212 0.0000000000
-178392.7342419449 -96165.1388267343 -88833.7326049999 -88833.7326049999 -26086.1973974136 -26086.1973974136 -26086.1973974136 0.0000000000
-184138.3030655242 -101357.3293055457 -93938.0187988000 -93938.0187988000 -31196.4296683383 -31196.4296683383 -31196.4296683383 0.0000000000
-190726.8450159434 -106892.8073623734 -99356.0256958000 -99356.0256958000 -36355.8687213086 -36355.8687213086 -36355.8687213086 0.0000000000
-198294.0191677762 -113001.7803188495 -105331.0394290000 -105331.0394290000 -41784.4513103591 -41784.4513103591 -41784.4513103591 0.0000000000
-206732.7631524862 -119840.1326343927 -112033.8668820000 -109863.0222613188 -47662.1550392219 -47662.1550392219 -47662.1550392219 0.0000000000
-215804.9686548506 -127457.0019225512 -119529.0603639999 -111223.3791209790 -54118.4983608934 -54061.3537762427 -54061.3537762427 0.0000000000
-225258.3776960470 -135794.4840357518 -127771.6674800000 -116965.5604686814 -61232.5968572623 -54086.2007150250 -54086.2007150250 0.0000000000
-234876.6714513377 -144715.1932470269 -136631.8511960000 -123350.2411128460 -69101.2774620310 -54364.6688784943 -54364.6688784943 0.0000000000
-244485.8823185681 -154041.2948001555 -145933.3801270000 -130661.1696913009 -77585.2186926525 -54916.7027045430 -54916.7027045430 0.0000000000
-253951.9889649308 -163588.0985730078 -155489.2425540000 -138741.4007812126 -86563.8112173173 -55636.6421420673 -55636.6421420673 0.0000000000
-263183.8823244204 -173184.5982203749 -165123.8098139999 -147082.9168683512 -95903.0056608135 -56431.4602241973 -56431.4602241973 0.0000000000
-272145.0333074119 -182684.8309865133 -174683.2885740000 -155177.7004384838 -105449.2126246495 -57208.1299840629 -57208.1299840629 0.0000000000
-280870.5366676434 -191979.7208352658 -184044.9523929998 -162517.7339773806 -115045.6990753374 -57873.6244547942 -57873.6244547942 0.0000000000
-289487.0461363474 -201016.0316907829 -193135.1165770000 -168401.8276530415 -124546.4584204436 -58322.4845235744 -58322.4845235744 0.0000000000
-298229.3627327040 -209819.5878453897 -201956.1920170000 -171533.4178655524 -133834.8156481662 -58343.7977876001 -58343.7977876001 0.0000000000
-307433.8370682797 -218510.9425862200 -210609.9090579999 -175718.9330152660 -142851.7830791131 -58236.1665170694 -58236.1665170694 0.0000000000
-317465.3431774565 -227299.5797593906 -219298.2788090000 -179801.7675747764 -151630.0226029540 -58056.8717990970 -58056.8717990970 0.0000000000
-328551.4293351584 -236449.1787810555 -228290.6341549999 -183240.2660996541 -160311.7758136855 -57765.6003448992 -57765.6003448992 0.0000000000
-340683.9315503709 -246218.9654593219 -237862.7624510000 -185793.9733814139 -169123.7665725971 -57388.4168953157 -57388.4168953157 0.0000000000
-353674.7815039103 -256800.2017646547 -248229.2480470000 -187222.4342115709 -178312.0100280272 -56951.3861911863 -56951.3861911863 0.0000000000
-367290.7521197178 -268273.4108786834 -259495.7885739999 -187285.1933816408 -187285.1933816408 -187285.1933816408 -56480.5729733508 -56480.5729733508
-381332.3636551278 -280603.0160912427 -271647.5219730000 -185741.7956831388 -185741.7956831388 -185741.7956831388 -56002.0419826489 -56002.0419826489
-395669.1615799197 -293667.1160094069 -284573.2727049998 -182487.6022931857 -182487.6022931857 -182487.6022931857 -55593.4576210160 -55593.4576210160
-410244.5250227370 -307305.3288037248 -298111.4501949999 -177275.6814305698 -177275.6814305698 -177275.6814305698 -55164.8779671610 -55164.8779671610
-425060.8456026830 -321365.3989595422 -312098.9379879999 -169787.8522940383 -169787.8522940383 -169787.8522940383 -54656.2433474713 -54656.2433474713
-440154.0895875365 -335735.3698404747 -326408.7219239998 -160827.3904263291 -160827.3904263291 -160827.3904263291 -54087.5646751325 -54087.5646751325
-455567.1434930286 -350356.0009490225 -340968.1091310000 -150725.4140186223 -150725.4140186223 -150725.4140186223 -53485.1854465900 -53485.1854465900
-471330.9406872718 -365215.0469428555 -355756.9274899999 -139813.0412620941 -139813.0412620941 -139813.0412620941 -52875.4491582887 -52875.4491582887
-487457.1665399097 -380329.8370146975 -370791.0156250000 -128421.3903479240 -128421.3903479240 -128421.3903479240 -52284.6993066740 -52284.6993066740
-503935.4722992905 -395727.2580115891 -386100.0366210000 -116881.5794672912 -116881.5794672912 -116881.5794672912 -51739.2793881910 -51739.2793881910
-520724.4176533627 -411429.3140482717 -401709.8999019997 -105524.7268113719 -105524.7268113719 -105524.7268113719 -51265.5328992847 -51265.5328992847
-537734.2155889339 -427447.0518237667 -417635.0402830000 -100000.0000000000 -100000.0000000000 -100000.0000000000 -50867.3361524565 -50867.3361524565
-554815.4374387295 -443778.3360157639 -433877.9296879998 -100000.0000000000 -100000.0000000000 -100000.0000000000 -50503.4926965261 -50503.4926965261
-571765.1211076338 -460401.1360581546 -450426.2390140000 -100000.0000000000 -100000.0000000000 -100000.0000000000 -50181.7695238973 -50181.7695238973
-588365.8749816314 -477257.9219263947 -467239.7155760000 -100000.0000000000 -100000.0000000000 -100000.0000000000 -49904.4137337344 -49904.4137337344
-604434.4955007300 -494236.8871616243 -484228.4545899997 -100000.0000000000 -100000.0000000000 -100000.0000000000 -49674.8955319078 -49674.8955319078
-619863.3222731323 -511164.6535989830 -501236.5112299999 -100000.0000000000 -100000.0000000000 -100000.0000000000 -49496.6851242880 -49496.6851242880
-634639.2167485183 -527824.6691877018 -518048.7670899997 -100000.0000000000 -100000.0000000000 -100000.0000000000 -49374.5997016759 -49374.5997016759
-648836.3119040362 -544003.5920816099 -534430.4809569999 -100000.0000000000 -100000.0000000000 -100000.0000000000 -49354.8009750242 -49354.8009750242
-662585.4348859405 -559549.6230451326 -550190.8569339997 -100000.0000000000 -100000.0000000000 -100000.0000000000 -49397.6727850258 -49397.6727850258
-639546.9875149601 -574415.7841164706 -565241.8212889999 -104576.9085539120 -104576.9085539120 -104576.9085539120 -49488.0566059366 -49488.0566059366
-616508.5401439798 -588665.3802903772 -579622.3144530000 -113433.8743601746 -113433.8743601746 -113433.8743601746 -49593.7728202734 -49593.7728202734
-593470.0927729998 -593470.0927729998 -593470.0927729998 -119992.0256973396 -119992.0256973396 -119992.0256973396 -49682.9090099707 -49682.9090099707
-123191.5447261511 -123191.5447261511 -123191.5447261511 -123191.5447261511 -123191.5447261511 -123191.5447261511 -49723.5527569625 -49723.5527569625
-120156.9728231018 -120156.9728231018 -120156.9728231018 -120156.9728231018 -120156.9728231018 -120156.9728231018 -49672.5784138970 -49672.5784138970
-109983.1672775310 -109983.1672775310 -109983.1672775310 -109983.1672775310 -109983.1672775310 -109983.1672775310 -49505.6158651523 -49505.6158651523
-101480.1016308974 -101480.1016308974 -101480.1016308974 -101480.1016308974 -101480.1016308974 -101480.1016308974 -49185.3648400520 -49185.3648400520
-100000.0000000000 -100000.0000000000 -100000.0000000000 -100000.0000000000 -100000.0000000000 -100000.0000000000 -48677.3903666555 -48677.3903666555
-100000.0000000000 -100000.0000000000 -100000.0000000000 -100000.0000000000 -100000.0000000000 -100000.0000000000 -48123.6336005132 -48123.6336005132
-100000.0000000000 -100000.0000000000 -100000.0000000000 -100000.0000000000 -100000.0000000000 -100000.0000000000 -47606.1448284581 -47606.1448284581
-100000.0000000000 -100000.0000000000 -100000.0000000000 -100000.0000000000 -100000.0000000000 -100000.0000000000 -47205.8396687649 -47205.8396687649
-100000.0000000000 -100000.0000000000 -100000.0000000000 -100000.0000000000 -100000.0000000000 -100000.0000000000 -47025.8463153752 -47025.8463153752
-100000.0000000000 -100000.0000000000 -100000.0000000000 -100000.0000000000 -100000.0000000000 -100000.0000000000 -47107.9351419644 -47107.9351419644
-100000.0000000000 -100000.0000000000 -100000.0000000000 -100000.0000000000 -100000.0000000000 -100000.0000000000 -47375.6958170920 -47375.6958170920
-100000.0000000000 -100000.0000000000 -100000.0000000000 -100000.0000000000 -100000.0000000000 -100000.0000000000 -47851.8909327300 -47851.8909327300
-100000.0000000000 -100000.0000000000 -100000.0000000000 -100000.0000000000 -100000.0000000000 -100000.0000000000 -48442.4240236801 -48442.4240236801
-100000.0000000000 -100000.0000000000 -100000.0000000000 -100000.0000000000 -100000.0000000000 -100000.0000000000 -49038.3354902455 -49038.3354902455
-100000.0000000000 -100000.0000000000 -100000.0000000000 -100000.0000000000 -100000.0000000000 -100000.0000000000 -49459.2090825372 -49459.2090825372
-100000.0000000000 -100000.0000000000 -100000.0000000000 -100000.0000000000 -100000.0000000000 -100000.0000000000 -49527.3783079411 -49527.3783079411
-100000.0000000000 -100000.0000000000 -100000.0000000000 -100000.0000000000 -100000.0000000000 -100000.0000000000 -49424.7157753077 -49424.7157753077
-100000.0000000000 -100000.0000000000 -100000.0000000000 -100000.0000000000 -100000.0000000000 -100000.0000000000 -49277.2491231272 -49277.2491231272
-100000.0000000000 -100000.0000000000 -100000.0000000000 -100000.0000000000 -100000.0000000000 -100000.0000000000 -49002.4306132126 -49002.4306132126
-100000.0000000000 -100000.0000000000 -100000.0000000000 -100000.0000000000 -100000.0000000000 -100000.0000000000 -48557.3129845727 -48557.3129845727
-100000.0000000000 -100000.0000000000 -100000.0000000000 -100000.0000000000 -100000.0000000000 -100000.0000000000 -48024.5374270149 -48024.5374270149
-100000.0000000000 -100000.0000000000 -100000.0000000000 -100000.0000000000 -100000.0000000000 -100000.0000000000 -47516.0194481452 -47516.0194481452
-100000.0000000000 -100000.0000000000 -100000.0000000000 -100000.0000000000 -100000.0000000000 -100000.0000000000 -47175.9481309129 -47175.9481309129
-100000.0000000000 -100000.0000000000 -100000.0000000000 -100000.0000000000 -100000.0000000000 -100000.0000000000 -47086.4801356866 -47086.4801356866
-100000.0000000000 -100000.0000000000 -100000.0000000000 -100000.0000000000 -100000.0000000000 -100000.0000000000 -47117.9204323861 -47117.9204323861
-100000.0000000000 -100000.0000000000 -100000.0000000000 -100000.0000000000 -100000.0000000000 -100000.0000000000 -47209.1795844052 -47209.1795844052
-100000.0000000000 -100000.0000000000 -100000.0000000000 -100000.0000000000 -100000.0000000000 -100000.0000000000 -47383.7469716175 -47383.7469716175
-100000.0000000000 -100000.0000000000 -100000.0000000000 -100000.0000000000 -100000.0000000000 -100000.0000000000 -47616.8985346248 -47616.8985346248
-100000.0000000000 -100000.0000000000 -100000.0000000000 -100000.0000000000 -100000.0000000000 -100000.0000000000 -47765.3557138886 -47765.3557138886
-100000.0000000000 -100000.0000000000 -100000.0000000000 -100000.0000000000 -100000.0000000000 -100000.0000000000 -47771.0384023358 -47771.0384023358
-100000.0000000000 -100000.0000000000 -100000.0000000000 -100000.0000000000 -100000.0000000000 -100000.0000000000 -47686.6200142450 -47686.6200142450
-100000.0000000000 -100000.0000000000 -100000.0000000000 -100000.0000000000 -100000.0000000000 -100000.0000000000 -47556.4015957550 -47556.4015957550
-100000.0000000000 -100000.0000000000 -100000.0000000000 -100000.0000000000 -100000.0000000000 -100000.0000000000 -47417.3223648054 -47417.3223648054
-100000.0000000000 -100000.0000000000 -100000.0000000000 -100000.0000000000 -100000.0000000000 -100000.0000000000 -47272.9162662080 -47272.9162662080
-100000.0000000000 -100000.0000000000 -100000.0000000000 -100000.0000000000 -100000.0000000000 -100000.0000000000 -47043.8379776461 -47043.8379776461
-100000.0000000000 -100000.0000000000 -100000.0000000000 -100000.0000000000 -100000.0000000000 -100000.0000000000 -46897.7404720629 -46897.7404720629
-100000.0000000000 -100000.0000000000 -100000.0000000000 -100000.0000000000 -100000.0000000000 -100000.0000000000 -46787.5679300255 -46787.5679300255
-100000.0000000000 -100000.0000000000 -100000.0000000000 -100000.0000000000 -100000.0000000000 -100000.0000000000 -46697.3408724546 -46697.3408724546
-100000.0000000000 -100000.0000000000 -100000.0000000000 -100000.0000000000 -100000.0000000000 -100000.0000000000 -46646.5056314941 -46646.5056314941
-100000.0000000000 -100000.0000000000 -100000.0000000000 -100000.0000000000 -100000.0000000000 -100000.0000000000 -46657.3482096046 -46657.3482096046
-100000.0000000000 -100000.0000000000 -100000.0000000000 -100000.0000000000 -100000.0000000000 -100000.0000000000 -46769.5895693271 -46769.5895693271
-100000.0000000000 -100000.0000000000 -100000.0000000000 -100000.0000000000 -100000.0000000000 -100000.0000000000 -47023.1038782381 -47023.1038782381
-100000.0000000000 -100000.0000000000 -100000.0000000000 -100000.0000000000 -100000.0000000000 -100000.0000000000 -47324.9520446609 -47324.9520446609
-100000.0000000000 -100000.0000000000 -100000.0000000000 -100000.0000000000 -100000.0000000000 -100000.0000000000 -47735.3039403904 -47735.3039403904
-100000.0000000000 -100000.0000000000 -100000.0000000000 -100000.0000000000 -100000.0000000000 -100000.0000000000 -48204.6153289053 -48204.6153289053
-100000.0000000000 -100000.0000000000 -100000.0000000000 -100000.0000000000 -100000.0000000000 -100000.0000000000 -48687.6301480571 -48687.6301480571
-100000.0000000000 -100000.0000000000 -100000.0000000000 -100000.0000000000 -100000.0000000000 -100000.0000000000 -49139.3724170750 -49139.3724170750
-100000.0000000000 -100000.0000000000 -100000.0000000000 -100000.0000000000 -100000.0000000000 -100000.0000000000 -49514.8661551878 -49514.8661551878
-100000.0000000000 -100000.0000000000 -100000.0000000000 -100000.0000000000 -100000.0000000000 -100000.0000000000 -49769.0567738747 -49769.0567738747
-100000.0000000000 -100000.0000000000 -100000.0000000000 -100000.0000000000 -100000.0000000000 -100000.0000000000 -49859.8899851248 -49859.8899851248
-100000.0000000000 -100000.0000000000 -100000.0000000000 -100000.0000000000 -100000.0000000000 -100000.0000000000 -49804.9309104139 -49804.9309104139
-100000.0000000000 -100000.0000000000 -100000.0000000000 -100000.0000000000 -100000.0000000000 -100000.0000000000 -49666.2294106989 -49666.2294106989
-100000.0000000000 -100000.0000000000 -100000.0000000000 -100000.0000000000 -100000.0000000000 -100000.0000000000 -49506.2969123198 -49506.2969123198
-100000.0000000000 -100000.0000000000 -100000.0000000000 -100000.0000000000 -100000.0000000000 -100000.0000000000 -49387.6448416165 -49387.6448416165
-100000.0000000000 -100000.0000000000 -100000.0000000000 -100000.0000000000 -100000.0000000000 -100000.0000000000 -49372.8571065788 -49372.8571065788
-101621.4387302451 -101621.4387302451 -101621.4387302451 -101621.4387302451 -101621.4387302451 -101621.4387302451 -49557.6999279722 -49557.6999279722
-109341.4381900852 -109341.4381900852 -109341.4381900852 -109341.4381900852 -109341.4381900852 -109341.4381900852 -49957.1150862515 -49957.1150862515
-119806.7403362428 -119806.7403362428 -119806.7403362428 -119806.7403362428 -119806.7403362428 -119806.7403362428 -50458.1495964531 -50458.1495964531
-131656.7600813044 -131656.7600813044 -131656.7600813044 -131656.7600813044 -131656.7600813044 -131656.7600813044 -51057.8386727581 -51057.8386727581
-144127.1502675380 -144127.1502675380 -144127.1502675380 -144127.1502675380 -144127.1502675380 -144127.1502675380 -51713.5442550231 -51713.5442550231
-156338.7023394303 -156338.7023394303 -156338.7023394303 -156338.7023394303 -156338.7023394303 -156338.7023394303 -52375.7996913470 -52375.7996913470
-166172.3038429026 -166172.3038429026 -166172.3038429026 -166172.3038429026 -166172.3038429026 -166172.3038429026 -52932.1036985710 -52932.1036985710
-171047.6224477135 -171047.6224477135 -171047.6224477135 -171047.6224477135 -171047.6224477135 -171047.6224477135 -53242.0697050376 -53242.0697050376
-174798.8846178338 -174798.8846178338 -174798.8846178338 -174798.8846178338 -174798.8846178338 -174798.8846178338 -53445.8598719121 -53445.8598719121
-179045.7995811335 -179045.7995811335 -179045.7995811335 -179045.7995811335 -179045.7995811335 -179045.7995811335 -53562.0134741826 -53562.0134741826
-182939.6642849933 -182939.6642849933 -182939.6642849933 -182939.6642849933 -182939.6642849933 -182939.6642849933 -53535.0656278145 -53535.0656278145
-185449.2426910974 -185449.2426910974 -185449.2426910974 -185449.2426910974 -185449.2426910974 -185449.2426910974 -53314.1457465531 -53314.1457465531
-187595.8343838695 -187595.8343838695 -187595.8343838695 -187595.8343838695 -187595.8343838695 -187595.8343838695 -52915.8981077143 -52915.8981077143
-190241.4756112514 -190241.4756112514 -190241.4756112514 -190241.4756112514 -190241.4756112514 -190241.4756112514 -52349.4418722025 -52349.4418722025
-194017.0568315127 -194017.0568315127 -194017.0568315127 -194017.0568315127 -194017.0568315127 -194017.0568315127 -51582.1573061940 -51582.1573061940
-199258.2234931094 -199258.2234931094 -199258.2234931094 -199258.2234931094 -199258.2234931094 -199258.2234931094 -50615.8038108188 -50615.8038108188
-204884.4501572801 -204884.4501572801 -204884.4501572801 -204884.4501572801 -204884.4501572801 -204884.4501572801 -49662.1103143175 -49662.1103143175
-210641.2176480121 -210641.2176480121 -210641.2176480121 -210641.2176480121 -210641.2176480121 -210641.2176480121 -48875.1624602002 -48875.1624602002
-216493.3385957432 -216493.3385957432 -216493.3385957432 -216493.3385957432 -216493.3385957432 -216493.3385957432 -48262.7452628581 -48262.7452628581
-222055.0303286942 -222055.0303286942 -222055.0303286942 -222055.0303286942 -222055.0303286942 -222055.0303286942 -47773.8698912188 -47773.8698912188
-225725.1878346284 -225725.1878346284 -225725.1878346284 -225725.1878346284 -225725.1878346284 -225725.1878346284 -47509.2460143663 -47509.2460143663
-227114.5780542178 -227114.5780542178 -227114.5780542178 -227114.5780542178 -227114.5780542178 -227114.5780542178 -47529.9124483877 -47529.9124483877
-227518.9283482313 -227518.9283482313 -227518.9283482313 -227518.9283482313 -227518.9283482313 -227518.9283482313 -47719.4466088898 -47719.4466088898
-227817.1129310563 -227817.1129310563 -227817.1129310563 -227817.1129310563 -227817.1129310563 -227817.1129310563 -47943.9021533102 -47943.9021533102
-228630.6582713448 -228630.6582713448 -228630.6582713448 -228630.6582713448 -228630.6582713448 -228630.6582713448 -48108.1008351190 -48108.1008351190
-230569.2040551531 -230569.2040551531 -230569.2040551531 -230569.2040551531 -230569.2040551531 -230569.2040551531 -48119.8136721017 -48119.8136721017
-233727.3953436214 -233727.3953436214 -233727.3953436214 -233727.3953436214 -233727.3953436214 -233727.3953436214 -48010.8610735340 -48010.8610735340
-237281.2954553963 -237281.2954553963 -237281.2954553963 -237281.2954553963 -237281.2954553963 -237281.2954553963 -47795.7812355154 -47795.7812355154
-241554.0892462680 -241554.0892462680 -241554.0892462680 -241554.0892462680 -241554.0892462680 -241554.0892462680 -47288.8946215469 -47288.8946215469
-246133.4056671358 -246133.4056671358 -246133.4056671358 -246133.4056671358 -246133.4056671358 -246133.4056671358 -46642.5903453475 -46642.5903453475
