1.0 1000.0 1000.0 1.0 1.0 1000.0 1000.0 1000.0 1000.0
3300.0 3300.0 2800.0 3300.0 3000.0 3300.0 3300.0 2775.0 2750.0
0.0 0.0 0.0 0.0 0.0 0.0 0.0 0.0 0.0
-80000.0 -7000.0 0.0 0.0 0.0 0.0 0.0 0.0
-80000.0 -7000.0 0.0 0.0 0.0 0.0 0.0 0.0
-80000.0 -7000.0 0.0 0.0 0.0 0.0 0.0 0.0
-80000.0 -7000.0 0.0 0.0 0.0 0.0 0.0 0.0
-80000.0 -7000.0 0.0 0.0 0.0 0.0 0.0 0.0
-80000.0 -7000.0 0.0 0.0 0.0 0.0 0.0 0.0
-80000.0 -7000.0 0.0 0.0 0.0 0.0 0.0 0.0
-80000.0 -7000.0 0.0 0.0 0.0 0.0 0.0 0.0
-80000.0 -7000.0 0.0 0.0 0.0 0.0 0.0 0.0
-80000.0 -7000.0 0.0 0.0 0.0 0.0 0.0 0.0
-80000.0 -7000.0 0.0 0.0 0.0 0.0 0.0 0.0
-80000.0 -7000.0 0.0 0.0 0.0 0.0 0.0 0.0
-80000.0 -7000.0 0.0 0.0 0.0 0.0 0.0 0.0
-80000.0 -7000.0 0.0 0.0 0.0 0.0 0.0 0.0
-80000.0 -7000.0 0.0 0.0 0.0 0.0 0.0 0.0
-80000.0 -7000.0 0.0 0.0 0.0 0.0 0.0 0.0
-80000.0 -7000.0 0.0 0.0 0.0 0.0 0.0 0.0
-80000.0 -7000.0 0.0 0.0 0.0 0.0 0.0 0.0
-80000.0 -7000.0 0.0 0.0 0.0 0.0 0.0 0.0
-80000.0 -7000.0 0.0 0.0 0.0 0.0 0.0 0.0
-80000.0 -7000.0 0.0 0.0 0.0 0.0 0.0 0.0
-80000.0 -7000.0 0.0 0.0 0.0 0.0 0.0 0.0
-80000.0 -7000.0 0.0 0.0 0.0 0.0 0.0 0.0
-80000.0 -7000.0 0.0 0.0 0.0 0.0 0.0 0.0
-80000.0 -7000.0 0.0 0.0 0.0 0.0 0.0 0.0
-80000.0 -7000.0 0.0 0.0 0.0 0.0 0.0 0.0
-80000.0 -7000.0 0.0 0.0 0.0 0.0 0.0 0.0
-80000.0 -7000.0 0.0 0.0 0.0 0.0 0.0 0.0
-80000.0 -7000.0 0.0 0.0 0.0 0.0 0.0 0.0
-80000.0 -7000.0 0.0 0.0 0.0 0.0 0.0 0.0
-80000.0 -7000.0 0.0 0.0 0.0 0.0 0.0 0.0
-80000.0 -7000.0 0.0 0.0 0.0 0.0 0.0 0.0
-80000.0 -7000.0 0.0 0.0 0.0 0.0 0.0 0.0
-80000.0 -7000.0 0.0 0.0 0.0 0.0 0.0 0.0
-80000.0 -7000.0 0.0 0.0 0.0 0.0 0.0 0.0
-80000.0 -7000.0 0.0 0.0 0.0 0.0 0.0 0.0
-80000.0 -7000.0 0.0 0.0 0.0 0.0 0.0 0.0
-80000.0 -7000.0 0.0 0.0 0.0 0.0 0.0 0.0
-80000.0 -7000.0 0.0 0.0 0.0 0.0 0.0 0.0
-80000.0 -7000.0 0.0 0.0 0.0 0.0 0.0 0.0
-80000.0 -7000.0 0.0 0.0 0.0 0.0 0.0 0.0
-80000.0 -7000.0 0.0 0.0 0.0 0.0 0.0 0.0
-80000.0 -7000.0 0.0 0.0 0.0 0.0 0.0 0.0
-80000.0 -7000.0 0.0 0.0 0.0 0.0 0.0 0.0
-80000.0 -7000.0 0.0 0.0 0.0 0.0 0.0 0.0
-80000.0 -7000.0 0.0 0.0 0.0 0.0 0.0 0.0
-80000.0 -7000.0 0.0 0.0 0.0 0.0 0.0 0.0
-79830.7478020746 -6784.494713902291 220.4148234763892 220.4148234763892 0.0 0.0 0.0 0.0
-79471.55539800866 -6467.5864581606165 534.2361862228593 534.2361862228593 0.0 0.0 0.0 0.0
-79477.030165201 -6471.467702833884 529.2378758827905 529.2378758827905 0.0 0.0 0.0 0.0
-79824.92255510093 -6783.781615722695 220.63172715920487 220.63172715920487 0.0 0.0 0.0 0.0
-80499.66462323218 -7390.447412528616 -379.95431468428364 -379.95431468428364 0.0 0.0 0.0 0.0
-81481.5071075951 -8278.312134522728 -1260.309121029934 -1260.309121029934 0.0 0.0 0.0 0.0
-82755.73934312415 -9435.871226325702 -2407.5024827034213 -2407.5024827034213 0.0 0.0 0.0 0.0
-84306.86596202827 -10852.234140715467 -3811.8849459727357 -3811.8849459727357 0.0 0.0 0.0 0.0
-86120.51475146321 -12514.536006845887 -5461.1798191223215 -5461.1798191223215 0.0 0.0 0.0 0.0
-88183.59536994892 -14414.663149102296 -7346.4534134120495 -7346.4534134120495 0.0 0.0 0.0 0.0
-90483.9157458097 -16540.53338238566 -9456.785395715557 -9456.785395715557 0.0 0.0 0.0 0.0
-93010.15507612149 -18884.43228113303 -11784.208559024024 -11784.208559024024 0.0 0.0 0.0 0.0
-95751.8372717133 -21436.343118835794 -14318.802635817008 -14318.802635817008 0.0 0.0 0.0 0.0
-98699.3052552749 -24188.768176853897 -17053.66360138598 -17053.66360138598 0.0 0.0 0.0 0.0
-101843.69642074461 -27133.52727265024 -19979.880503695513 -19979.880503695513 0.0 0.0 0.0 0.0
-105176.91947931978 -30263.530135305842 -23091.605165451256 -23091.605165451256 -2612.645846121637 -2612.645846121637 -2612.645846121637 0.0
-108691.63284942669 -33572.25408873882 -26380.941369995697 -26380.941369995697 -5848.950338221784 -5848.950338221784 -5848.950338221784 0.0
-112381.22469311855 -37053.16191068132 -29843.093282549005 -29843.093282549005 -9256.052786298425 -9256.052786298425 -9256.052786298425 0.0
-116239.7946578659 -40701.25223460326 -33471.181011737914 -33471.181011737914 -12829.845854303414 -12829.845854303414 -12829.845854303414 0.0
-120262.35397640085 -44510.64833608598 -37261.46139038406 -37261.46139038406 -16564.022725552888 -16564.022725552888 -16564.022725552888 0.0
-124444.46521979396 -48477.77045575674 -41208.06861231961 -41208.06861231961 -20454.604891176787 -20454.604891176787 -20454.604891176787 0.0
-128781.98286874368 -52597.477715970796 -45308.31633303791 -45308.31633303791 -24497.862993316518 -24497.862993316518 -24497.862993316518 0.0
-133271.703918619 -56867.543253132964 -49557.34676151389 -49557.34676151389 -28689.283028529077 -28689.283028529077 -28689.283028529077 0.0
-137911.0725244265 -61283.61035287614 -53953.53836096745 -53953.53836096745 -33027.276113417596 -33027.276113417596 -33027.276113417596 0.0
-142698.1715569559 -65844.76272984619 -58493.03145546815 -58493.03145546815 -37507.91651635285 -35000.0 -35000.0 0.0
-147632.17029140145 -70547.53187044486 -63175.28113100508 -63175.28113100508 -42129.94957167802 -35000.0 -35000.0 0.0
-152712.13436230473 -75392.05647404629 -67997.41209670686 -67997.41209670686 -46891.49811141101 -35000.0 -35000.0 0.0
-157937.86326934883 -80376.0468159391 -72959.97170636048 -72959.97170636048 -51791.1656411996 -35000.0 -35000.0 0.0
-163309.9437692456 -85500.4711762362 -78061.05149413252 -78061.05149413252 -56829.170443367446 -35000.0 -35000.0 0.0
-168829.5805917449 -90764.35329927204 -83302.31055661716 -83302.31055661716 -62004.320312251366 -35000.0 -35000.0 0.0
-174499.11958926424 -96169.46157631179 -88682.7858630204 -88682.7858630204 -67318.15485615181 -35000.0 -35000.0 0.0
-180320.6372594368 -101716.11144992465 -94205.27155773755 -94205.27155773755 -72770.67099950454 -35000.0 -35000.0 0.0
-186297.05509357597 -107406.884263579 -99869.76947918907 -99869.76947918907 -78363.63877711244 -35000.0 -35000.0 0.0
-192432.05716192484 -113243.38173151824 -105680.10199205679 -105680.10199205679 -84099.05714918893 -35000.0 -35000.0 0.0
-198729.9514264637 -119228.9957885979 -111637.34436531218 -111637.34436531218 -89978.53229337784 -35000.0 -35000.0 0.0
-205196.1281875423 -125366.62512673713 -117746.32254828737 -117746.32254828737 -96006.28682338982 -35000.0 -35000.0 0.0
-211835.9386900421 -131660.4544740768 -124009.16887078654 -124009.16887078654 -102184.2619621786 -35000.0 -35000.0 0.0
-218655.36775613826 -138114.70665641065 -130431.72732151925 -130431.72732151925 -108517.38152935912 -35000.0 -35000.0 0.0
-225661.25854729017 -144734.3252250144 -137017.17475138378 -137017.17475138378 -115009.36513800173 -35000.0 -35000.0 0.0
-232861.0981804842 -151524.90147894502 -143772.38381321536 -143772.38381321536 -121665.04860488453 -35000.0 -35000.0 0.0
-240263.02211486406 -158492.08653428883 -150701.56716925453 -150000.0 -128490.47972933891 -35000.0 -35000.0 0.0
-247876.08030148648 -165642.9027043851 -157812.63293121697 -150000.0 -135490.14818696695 -35000.0 -35000.0 0.0
-255709.81028746895 -172983.63876283861 -165110.8246929198 -150000.0 -142672.07480358565 -35000.0 -35000.0 0.0
-263773.96482690336 -180522.82993723996 -172605.08898973843 -150000.0 -150000.0 -150000.0 -35000.0 -35000.0
-272079.3058281436 -188267.31265394177 -180301.69929728447 -150000.0 -150000.0 -150000.0 -35000.0 -35000.0
-280637.2571798304 -196227.2374476994 -188210.63970937495 -150000.0 -150000.0 -150000.0 -35000.0 -35000.0
-289459.90475866594 -204409.87693571538 -196339.21636362278 -150000.0 -150000.0 -150000.0 -35000.0 -35000.0
-298559.9950949476 -212827.12078245392 -204698.4462170931 -150000.0 -150000.0 -150000.0 -35000.0 -35000.0
-307950.9325583652 -221486.68735184197 -213296.67467958518 -150000.0 -150000.0 -150000.0 -35000.0 -35000.0
-317646.7749529345 -230401.92059003867 -222145.94304623402 -150000.0 -150000.0 -150000.0 -35000.0 -35000.0
-327662.22744236415 -239581.50191096196 -231255.64643920405 -150000.0 -150000.0 -150000.0 -35000.0 -35000.0
-338012.6347651967 -249039.5224809806 -240638.838136524 -150000.0 -150000.0 -150000.0 -35000.0 -35000.0
-348713.9717420871 -258786.26370378435 -250305.9772428811 -150000.0 -150000.0 -150000.0 -35000.0 -35000.0
-359782.8321243154 -268836.2518981149 -260271.1128340536 -150000.0 -150000.0 -150000.0 -35000.0 -35000.0
-371236.44055460213 -279201.51941874996 -270545.7860973968 -150000.0 -150000.0 -150000.0 -35000.0 -35000.0
-383092.8225765982 -289896.86325710535 -281145.0218912953 -150000.0 -150000.0 -150000.0 -35000.0 -35000.0
-395370.1091070019 -300936.2363629377 -292081.46541590756 -150000.0 -150000.0 -150000.0 -35000.0 -35000.0
-408087.24289078964 -312334.5230342256 -303371.09346709895 -150000.0 -150000.0 -150000.0 -35000.0 -35000.0
-421263.7125350431 -324107.7823386934 -315027.6810179434 -150000.0 -150000.0 -150000.0 -35000.0 -35000.0
-434919.53511866066 -336270.7870062745 -327068.129126689 -150000.0 -150000.0 -150000.0 -35000.0 -35000.0
-449075.238677859 -348841.9000251455 -339507.3721294163 -150000.0 -150000.0 -150000.0 -35000.0 -35000.0
-463751.844896776 -361835.57243518205 -352363.2038416604 -150000.0 -150000.0 -150000.0 -35000.0 -35000.0
-478970.85232919856 -375272.67697241064 -365651.7513826077 -150000.0 -150000.0 -150000.0 -35000.0 -35000.0
-494754.2204618021 -389167.12656090135 -379391.665989993 -150000.0 -150000.0 -150000.0 -35000.0 -35000.0
-511124.3549025362 -403542.5128407628 -393600.3048161774 -150000.0 -150000.0 -150000.0 -35000.0 -35000.0
-528104.0939407287 -418412.66357610765 -408297.13735603535 -150000.0 -150000.0 -150000.0 -35000.0 -35000.0
-545716.6966805453 -433802.0858858661 -423500.79187516123 -150000.0 -150000.0 -150000.0 -35000.0 -35000.0
-563985.8328986468 -449726.48754225817 -439231.51313051675 -150000.0 -150000.0 -150000.0 -35000.0 -35000.0
-582935.5747231382 -466210.32083072054 -455509.2454109688 -150000.0 -150000.0 -150000.0 -35000.0 -35000.0
-602590.564711571 -483271.5543068475 -472354.96191053995 -150000.0 -150000.0 -150000.0 -35000.0 -35000.0
-622977.7258475656 -500934.36014061084 -489789.97168139083 -150000.0 -150000.0 -150000.0 -35000.0 -35000.0
-644120.4911136824 -519219.1019273591 -507835.9256995832 -150000.0 -150000.0 -150000.0 -35000.0 -35000.0
-666044.532900407 -538149.5403446702 -526515.5503505885 -150000.0 -150000.0 -150000.0 -35000.0 -35000.0
-688775.9112850308 -557748.5522722445 -545851.1199075024 -150000.0 -150000.0 -150000.0 -35000.0 -35000.0
-683558.4303321415 -578039.3744912533 -565866.8344891017 -150000.0 -150000.0 -150000.0 -35000.0 -35000.0
-675129.4299744985 -599047.4970045902 -586585.5333505291 -150000.0 -150000.0 -150000.0 -35000.0 -35000.0
-666700.4296168552 -620795.5411815938 -608032.9505738482 -150000.0 -150000.0 -150000.0 -35000.0 -35000.0
-658271.4292592122 -643311.6901199892 -630232.4282512704 -150000.0 -150000.0 -150000.0 -35000.0 -35000.0
-650735.9029394793 -650735.9029394793 -650735.9029394793 -150000.0 -150000.0 -150000.0 -35000.0 -35000.0
-650735.9029394793 -650735.9029394793 -650735.9029394793 -150000.0 -150000.0 -150000.0 -35000.0 -35000.0
-650735.9029394793 -650735.9029394793 -650735.9029394793 -150000.0 -150000.0 -150000.0 -35000.0 -35000.0
-650735.9029394793 -650735.9029394793 -650735.9029394793 -150000.0 -150000.0 -150000.0 -35000.0 -35000.0
-650735.9029394793 -650735.9029394793 -650735.9029394793 -150000.0 -150000.0 -150000.0 -35000.0 -35000.0
-650735.9029394793 -650735.9029394793 -650735.9029394793 -150000.0 -150000.0 -150000.0 -35000.0 -35000.0
-650735.9029394793 -650735.9029394793 -650735.9029394793 -150000.0 -150000.0 -150000.0 -35000.0 -35000.0
-650735.9029394793 -650735.9029394793 -650735.9029394793 -150000.0 -150000.0 -150000.0 -35000.0 -35000.0
-650735.9029394793 -650735.9029394793 -650735.9029394793 -150000.0 -150000.0 -150000.0 -35000.0 -35000.0
-650735.9029394793 -650735.9029394793 -650735.9029394793 -150000.0 -150000.0 -150000.0 -35000.0 -35000.0
-650735.9029394793 -650735.9029394793 -650735.9029394793 -150000.0 -150000.0 -150000.0 -35000.0 -35000.0
-650735.9029394793 -650735.9029394793 -650735.9029394793 -150000.0 -150000.0 -150000.0 -35000.0 -35000.0
-650735.9029394793 -650735.9029394793 -650735.9029394793 -150000.0 -150000.0 -150000.0 -35000.0 -35000.0
-650735.9029394793 -650735.9029394793 -650735.9029394793 -150000.0 -150000.0 -150000.0 -35000.0 -35000.0
-650735.9029394793 -650735.9029394793 -650735.9029394793 -150000.0 -150000.0 -150000.0 -35000.0 -35000.0
-650735.9029394793 -650735.9029394793 -650735.9029394793 -150000.0 -150000.0 -150000.0 -35000.0 -35000.0
-650735.9029394793 -650735.9029394793 -650735.9029394793 -150000.0 -150000.0 -150000.0 -35000.0 -35000.0
-650735.9029394793 -650735.9029394793 -650735.9029394793 -150000.0 -150000.0 -150000.0 -35000.0 -35000.0
-650735.9029394793 -650735.9029394793 -650735.9029394793 -150000.0 -150000.0 -150000.0 -35000.0 -35000.0
-650735.9029394793 -650735.9029394793 -650735.9029394793 -150000.0 -150000.0 -150000.0 -35000.0 -35000.0
-650735.9029394793 -650735.9029394793 -650735.9029394793 -150000.0 -150000.0 -150000.0 -35000.0 -35000.0
-650735.9029394793 -650735.9029394793 -650735.9029394793 -150000.0 -150000.0 -150000.0 -35000.0 -35000.0
-650735.9029394793 -650735.9029394793 -650735.9029394793 -150000.0 -150000.0 -150000.0 -35000.0 -35000.0
-650735.9029394793 -650735.9029394793 -650735.9029394793 -150000.0 -150000.0 -150000.0 -35000.0 -35000.0
-650735.9029394793 -650735.9029394793 -650735.9029394793 -150000.0 -150000.0 -150000.0 -35000.0 -35000.0
-650735.9029394793 -650735.9029394793 -650735.9029394793 -150000.0 -150000.0 -150000.0 -35000.0 -35000.0
-650735.9029394793 -650735.9029394793 -650735.9029394793 -150000.0 -150000.0 -150000.0 -35000.0 -35000.0
-650735.9029394793 -650735.9029394793 -650735.9029394793 -150000.0 -150000.0 -150000.0 -35000.0 -35000.0
-650735.9029394793 -650735.9029394793 -650735.9029394793 -150000.0 -150000.0 -150000.0 -35000.0 -35000.0
-650735.9029394793 -650735.9029394793 -650735.9029394793 -150000.0 -150000.0 -150000.0 -35000.0 -35000.0
-650735.9029394793 -650735.9029394793 -650735.9029394793 -150000.0 -150000.0 -150000.0 -35000.0 -35000.0
-650735.9029394793 -650735.9029394793 -650735.9029394793 -150000.0 -150000.0 -150000.0 -35000.0 -35000.0
-650735.9029394793 -650735.9029394793 -650735.9029394793 -150000.0 -150000.0 -150000.0 -35000.0 -35000.0
-650735.9029394793 -650735.9029394793 -650735.9029394793 -150000.0 -150000.0 -150000.0 -35000.0 -35000.0
-650735.9029394793 -650735.9029394793 -650735.9029394793 -150000.0 -150000.0 -150000.0 -35000.0 -35000.0
-650735.9029394793 -650735.9029394793 -650735.9029394793 -150000.0 -150000.0 -150000.0 -35000.0 -35000.0
-650735.9029394793 -650735.9029394793 -650735.9029394793 -150000.0 -150000.0 -150000.0 -35000.0 -35000.0
-650735.9029394793 -650735.9029394793 -650735.9029394793 -150000.0 -150000.0 -150000.0 -35000.0 -35000.0
-650735.9029394793 -650735.9029394793 -650735.9029394793 -150000.0 -150000.0 -150000.0 -35000.0 -35000.0
-650735.9029394793 -650735.9029394793 -650735.9029394793 -150000.0 -150000.0 -150000.0 -35000.0 -35000.0
-650735.9029394793 -650735.9029394793 -650735.9029394793 -150000.0 -150000.0 -150000.0 -35000.0 -35000.0
-650735.9029394793 -650735.9029394793 -650735.9029394793 -150000.0 -150000.0 -150000.0 -35000.0 -35000.0
-650735.9029394793 -650735.9029394793 -650735.9029394793 -150000.0 -150000.0 -150000.0 -35000.0 -35000.0
-650735.9029394793 -650735.9029394793 -650735.9029394793 -150000.0 -150000.0 -150000.0 -35000.0 -35000.0
-650735.9029394793 -650735.9029394793 -650735.9029394793 -150000.0 -150000.0 -150000.0 -35000.0 -35000.0
-650735.9029394793 -650735.9029394793 -650735.9029394793 -150000.0 -150000.0 -150000.0 -35000.0 -35000.0
-650735.9029394793 -650735.9029394793 -650735.9029394793 -150000.0 -150000.0 -150000.0 -35000.0 -35000.0
-650735.9029394793 -650735.9029394793 -650735.9029394793 -150000.0 -150000.0 -150000.0 -35000.0 -35000.0
-650735.9029394793 -650735.9029394793 -650735.9029394793 -150000.0 -150000.0 -150000.0 -35000.0 -35000.0
-650735.9029394793 -650735.9029394793 -650735.9029394793 -150000.0 -150000.0 -150000.0 -35000.0 -35000.0
-650735.9029394793 -650735.9029394793 -650735.9029394793 -150000.0 -150000.0 -150000.0 -35000.0 -35000.0
-650735.9029394793 -650735.9029394793 -650735.9029394793 -150000.0 -150000.0 -150000.0 -35000.0 -35000.0
-650735.9029394793 -650735.9029394793 -650735.9029394793 -150000.0 -150000.0 -150000.0 -35000.0 -35000.0
-650735.9029394793 -650735.9029394793 -650735.9029394793 -150000.0 -150000.0 -150000.0 -35000.0 -35000.0
-650735.9029394793 -650735.9029394793 -650735.9029394793 -150000.0 -150000.0 -150000.0 -35000.0 -35000.0
-650735.9029394793 -650735.9029394793 -650735.9029394793 -150000.0 -150000.0 -150000.0 -35000.0 -35000.0
-650735.9029394793 -650735.9029394793 -650735.9029394793 -150000.0 -150000.0 -150000.0 -35000.0 -35000.0
-650735.9029394793 -650735.9029394793 -650735.9029394793 -150000.0 -150000.0 -150000.0 -35000.0 -35000.0
-650735.9029394793 -650735.9029394793 -650735.9029394793 -150000.0 -150000.0 -150000.0 -35000.0 -35000.0
-650735.9029394793 -650735.9029394793 -650735.9029394793 -150000.0 -150000.0 -150000.0 -35000.0 -35000.0
-650735.9029394793 -650735.9029394793 -650735.9029394793 -150000.0 -150000.0 -150000.0 -35000.0 -35000.0
-650735.9029394793 -650735.9029394793 -650735.9029394793 -150000.0 -150000.0 -150000.0 -35000.0 -35000.0
-650735.9029394793 -650735.9029394793 -650735.9029394793 -150000.0 -150000.0 -150000.0 -35000.0 -35000.0
-650735.9029394793 -650735.9029394793 -650735.9029394793 -150000.0 -150000.0 -150000.0 -35000.0 -35000.0
-650735.9029394793 -650735.9029394793 -650735.9029394793 -150000.0 -150000.0 -150000.0 -35000.0 -35000.0
-650735.9029394793 -650735.9029394793 -650735.9029394793 -150000.0 -150000.0 -150000.0 -35000.0 -35000.0
-650735.9029394793 -650735.9029394793 -650735.9029394793 -150000.0 -150000.0 -150000.0 -35000.0 -35000.0
-650735.9029394793 -650735.9029394793 -650735.9029394793 -150000.0 -150000.0 -150000.0 -35000.0 -35000.0
-650735.9029394793 -650735.9029394793 -650735.9029394793 -150000.0 -150000.0 -150000.0 -35000.0 -35000.0
-650735.9029394793 -650735.9029394793 -650735.9029394793 -150000.0 -150000.0 -150000.0 -35000.0 -35000.0
-650735.9029394793 -650735.9029394793 -650735.9029394793 -150000.0 -150000.0 -150000.0 -35000.0 -35000.0
-650735.9029394793 -650735.9029394793 -650735.9029394793 -150000.0 -150000.0 -150000.0 -35000.0 -35000.0
-650735.9029394793 -650735.9029394793 -650735.9029394793 -150000.0 -150000.0 -150000.0 -35000.0 -35000.0
-650735.9029394793 -650735.9029394793 -650735.9029394793 -150000.0 -150000.0 -150000.0 -35000.0 -35000.0
-650735.9029394793 -650735.9029394793 -650735.9029394793 -150000.0 -150000.0 -150000.0 -35000.0 -35000.0
-650735.9029394793 -650735.9029394793 -650735.9029394793 -150000.0 -150000.0 -150000.0 -35000.0 -35000.0
-650735.9029394793 -650735.9029394793 -650735.9029394793 -150000.0 -150000.0 -150000.0 -35000.0 -35000.0
-650735.9029394793 -650735.9029394793 -650735.9029394793 -150000.0 -150000.0 -150000.0 -35000.0 -35000.0
-650735.9029394793 -650735.9029394793 -650735.9029394793 -150000.0 -150000.0 -150000.0 -35000.0 -35000.0
-650735.9029394793 -650735.9029394793 -650735.9029394793 -150000.0 -150000.0 -150000.0 -35000.0 -35000.0
-650735.9029394793 -650735.9029394793 -650735.9029394793 -150000.0 -150000.0 -150000.0 -35000.0 -35000.0
-650735.9029394793 -650735.9029394793 -650735.9029394793 -150000.0 -150000.0 -150000.0 -35000.0 -35000.0
-650735.9029394793 -650735.9029394793 -650735.9029394793 -150000.0 -150000.0 -150000.0 -35000.0 -35000.0
-650735.9029394793 -650735.9029394793 -650735.9029394793 -150000.0 -150000.0 -150000.0 -35000.0 -35000.0
-650735.9029394793 -650735.9029394793 -650735.9029394793 -150000.0 -150000.0 -150000.0 -35000.0 -35000.0
-650735.9029394793 -650735.9029394793 -650735.9029394793 -150000.0 -150000.0 -150000.0 -35000.0 -35000.0
-650735.9029394793 -650735.9029394793 -650735.9029394793 -150000.0 -150000.0 -150000.0 -35000.0 -35000.0
-650735.9029394793 -650735.9029394793 -650735.9029394793 -150000.0 -150000.0 -150000.0 -35000.0 -35000.0
-650735.9029394793 -650735.9029394793 -650735.9029394793 -150000.0 -150000.0 -150000.0 -35000.0 -35000.0
-650735.9029394793 -650735.9029394793 -650735.9029394793 -150000.0 -150000.0 -150000.0 -35000.0 -35000.0
-650735.9029394793 -650735.9029394793 -650735.9029394793 -150000.0 -150000.0 -150000.0 -35000.0 -35000.0
-650735.9029394793 -650735.9029394793 -650735.9029394793 -150000.0 -150000.0 -150000.0 -35000.0 -35000.0
-650735.9029394793 -650735.9029394793 -650735.9029394793 -150000.0 -150000.0 -150000.0 -35000.0 -35000.0
-650735.9029394793 -650735.9029394793 -650735.9029394793 -150000.0 -150000.0 -150000.0 -35000.0 -35000.0
-650735.9029394793 -650735.9029394793 -650735.9029394793 -150000.0 -150000.0 -150000.0 -35000.0 -35000.0
-650735.9029394793 -650735.9029394793 -650735.9029394793 -150000.0 -150000.0 -150000.0 -35000.0 -35000.0
-650735.9029394793 -650735.9029394793 -650735.9029394793 -150000.0 -150000.0 -150000.0 -35000.0 -35000.0
-650735.9029394793 -650735.9029394793 -650735.9029394793 -150000.0 -150000.0 -150000.0 -35000.0 -35000.0
-650735.9029394793 -650735.9029394793 -650735.9029394793 -150000.0 -150000.0 -150000.0 -35000.0 -35000.0
-650735.9029394793 -650735.9029394793 -650735.9029394793 -150000.0 -150000.0 -150000.0 -35000.0 -35000.0
-650735.9029394793 -650735.9029394793 -650735.9029394793 -150000.0 -150000.0 -150000.0 -35000.0 -35000.0
-650735.9029394793 -650735.9029394793 -650735.9029394793 -150000.0 -150000.0 -150000.0 -35000.0 -35000.0
-650735.9029394793 -650735.9029394793 -650735.9029394793 -150000.0 -150000.0 -150000.0 -35000.0 -35000.0
-650735.9029394793 -650735.9029394793 -650735.9029394793 -150000.0 -150000.0 -150000.0 -35000.0 -35000.0
-650735.9029394793 -650735.9029394793 -650735.9029394793 -150000.0 -150000.0 -150000.0 -35000.0 -35000.0
-650735.9029394793 -650735.9029394793 -650735.9029394793 -150000.0 -150000.0 -150000.0 -35000.0 -35000.0
-650735.9029394793 -650735.9029394793 -650735.9029394793 -150000.0 -150000.0 -150000.0 -35000.0 -35000.0
-650735.9029394793 -650735.9029394793 -650735.9029394793 -150000.0 -150000.0 -150000.0 -35000.0 -35000.0
-650735.9029394793 -650735.9029394793 -650735.9029394793 -150000.0 -150000.0 -150000.0 -35000.0 -35000.0
-650735.9029394793 -650735.9029394793 -650735.9029394793 -150000.0 -150000.0 -150000.0 -35000.0 -35000.0
-650735.9029394793 -650735.9029394793 -650735.9029394793 -150000.0 -150000.0 -150000.0 -35000.0 -35000.0
-650735.9029394793 -650735.9029394793 -650735.9029394793 -150000.0 -150000.0 -150000.0 -35000.0 -35000.0
-650735.9029394793 -650735.9029394793 -650735.9029394793 -150000.0 -150000.0 -150000.0 -35000.0 -35000.0
-650735.9029394793 -650735.9029394793 -650735.9029394793 -150000.0 -150000.0 -150000.0 -35000.0 -35000.0
-650735.9029394793 -650735.9029394793 -650735.9029394793 -150000.0 -150000.0 -150000.0 -35000.0 -35000.0
-650735.9029394793 -650735.9029394793 -650735.9029394793 -150000.0 -150000.0 -150000.0 -35000.0 -35000.0
-650735.9029394793 -650735.9029394793 -650735.9029394793 -150000.0 -150000.0 -150000.0 -35000.0 -35000.0
-650735.9029394793 -650735.9029394793 -650735.9029394793 -150000.0 -150000.0 -150000.0 -35000.0 -35000.0
-650735.9029394793 -650735.9029394793 -650735.9029394793 -150000.0 -150000.0 -150000.0 -35000.0 -35000.0
-650735.9029394793 -650735.9029394793 -650735.9029394793 -150000.0 -150000.0 -150000.0 -35000.0 -35000.0
-650735.9029394793 -650735.9029394793 -650735.9029394793 -150000.0 -150000.0 -150000.0 -35000.0 -35000.0
-650735.9029394793 -650735.9029394793 -650735.9029394793 -150000.0 -150000.0 -150000.0 -35000.0 -35000.0
-650735.9029394793 -650735.9029394793 -650735.9029394793 -150000.0 -150000.0 -150000.0 -35000.0 -35000.0
-650735.9029394793 -650735.9029394793 -650735.9029394793 -150000.0 -150000.0 -150000.0 -35000.0 -35000.0
-650735.9029394793 -650735.9029394793 -650735.9029394793 -150000.0 -150000.0 -150000.0 -35000.0 -35000.0
-650735.9029394793 -650735.9029394793 -650735.9029394793 -150000.0 -150000.0 -150000.0 -35000.0 -35000.0
-650735.9029394793 -650735.9029394793 -650735.9029394793 -150000.0 -150000.0 -150000.0 -35000.0 -35000.0
-650735.9029394793 -650735.9029394793 -650735.9029394793 -150000.0 -150000.0 -150000.0 -35000.0 -35000.0
-650735.9029394793 -650735.9029394793 -650735.9029394793 -150000.0 -150000.0 -150000.0 -35000.0 -35000.0
-650735.9029394793 -650735.9029394793 -650735.9029394793 -150000.0 -150000.0 -150000.0 -35000.0 -35000.0
-650735.9029394793 -650735.9029394793 -650735.9029394793 -150000.0 -150000.0 -150000.0 -35000.0 -35000.0
-650735.9029394793 -650735.9029394793 -650735.9029394793 -150000.0 -150000.0 -150000.0 -35000.0 -35000.0
-650735.9029394793 -650735.9029394793 -650735.9029394793 -150000.0 -150000.0 -150000.0 -35000.0 -35000.0
-650735.9029394793 -650735.9029394793 -650735.9029394793 -150000.0 -150000.0 -150000.0 -35000.0 -35000.0
-650735.9029394793 -650735.9029394793 -650735.9029394793 -150000.0 -150000.0 -150000.0 -35000.0 -35000.0
-650735.9029394793 -650735.9029394793 -650735.9029394793 -150000.0 -150000.0 -150000.0 -35000.0 -35000.0
-650735.9029394793 -650735.9029394793 -650735.9029394793 -150000.0 -150000.0 -150000.0 -35000.0 -35000.0
-650735.9029394793 -650735.9029394793 -650735.9029394793 -150000.0 -150000.0 -150000.0 -35000.0 -35000.0
-650735.9029394793 -650735.9029394793 -650735.9029394793 -150000.0 -150000.0 -150000.0 -35000.0 -35000.0
-650735.9029394793 -650735.9029394793 -650735.9029394793 -150000.0 -150000.0 -150000.0 -35000.0 -35000.0
-650735.9029394793 -650735.9029394793 -650735.9029394793 -150000.0 -150000.0 -150000.0 -35000.0 -35000.0
-650735.9029394793 -650735.9029394793 -650735.9029394793 -150000.0 -150000.0 -150000.0 -35000.0 -35000.0
-650735.9029394793 -650735.9029394793 -650735.9029394793 -150000.0 -150000.0 -150000.0 -35000.0 -35000.0
-650735.9029394793 -650735.9029394793 -650735.9029394793 -150000.0 -150000.0 -150000.0 -35000.0 -35000.0
-650735.9029394793 -650735.9029394793 -650735.9029394793 -150000.0 -150000.0 -150000.0 -35000.0 -35000.0
-650735.9029394793 -650735.9029394793 -650735.9029394793 -150000.0 -150000.0 -150000.0 -35000.0 -35000.0
-650735.9029394793 -650735.9029394793 -650735.9029394793 -150000.0 -150000.0 -150000.0 -35000.0 -35000.0
-650735.9029394793 -650735.9029394793 -650735.9029394793 -150000.0 -150000.0 -150000.0 -35000.0 -35000.0
-650735.9029394793 -650735.9029394793 -650735.9029394793 -150000.0 -150000.0 -150000.0 -35000.0 -35000.0
-650735.9029394793 -650735.9029394793 -650735.9029394793 -150000.0 -150000.0 -150000.0 -35000.0 -35000.0
-650735.9029394793 -650735.9029394793 -650735.9029394793 -150000.0 -150000.0 -150000.0 -35000.0 -35000.0
-650735.9029394793 -650735.9029394793 -650735.9029394793 -150000.0 -150000.0 -150000.0 -35000.0 -35000.0
-650735.9029394793 -650735.9029394793 -650735.9029394793 -150000.0 -150000.0 -150000.0 -35000.0 -35000.0
-650735.9029394793 -650735.9029394793 -650735.9029394793 -150000.0 -150000.0 -150000.0 -35000.0 -35000.0
-650735.9029394793 -650735.9029394793 -650735.9029394793 -150000.0 -150000.0 -150000.0 -35000.0 -35000.0
-650735.9029394793 -650735.9029394793 -650735.9029394793 -150000.0 -150000.0 -150000.0 -35000.0 -35000.0
-650735.9029394793 -650735.9029394793 -650735.9029394793 -150000.0 -150000.0 -150000.0 -35000.0 -35000.0
-650735.9029394793 -650735.9029394793 -650735.9029394793 -150000.0 -150000.0 -150000.0 -35000.0 -35000.0
-650735.9029394793 -650735.9029394793 -650735.9029394793 -150000.0 -150000.0 -150000.0 -35000.0 -35000.0
-650735.9029394793 -650735.9029394793 -650735.9029394793 -150000.0 -150000.0 -150000.0 -35000.0 -35000.0
-650735.9029394793 -650735.9029394793 -650735.9029394793 -150000.0 -150000.0 -150000.0 -35000.0 -35000.0
-650735.9029394793 -650735.9029394793 -650735.9029394793 -150000.0 -150000.0 -150000.0 -35000.0 -35000.0
-650735.9029394793 -650735.9029394793 -650735.9029394793 -150000.0 -150000.0 -150000.0 -35000.0 -35000.0
-650735.9029394793 -650735.9029394793 -650735.9029394793 -150000.0 -150000.0 -150000.0 -35000.0 -35000.0
-650735.9029394793 -650735.9029394793 -650735.9029394793 -150000.0 -150000.0 -150000.0 -35000.0 -35000.0
-650735.9029394793 -650735.9029394793 -650735.9029394793 -150000.0 -150000.0 -150000.0 -35000.0 -35000.0
-650735.9029394793 -650735.9029394793 -650735.9029394793 -150000.0 -150000.0 -150000.0 -35000.0 -35000.0
-650735.9029394793 -650735.9029394793 -650735.9029394793 -150000.0 -150000.0 -150000.0 -35000.0 -35000.0
-650735.9029394793 -650735.9029394793 -650735.9029394793 -150000.0 -150000.0 -150000.0 -35000.0 -35000.0
-650735.9029394793 -650735.9029394793 -650735.9029394793 -150000.0 -150000.0 -150000.0 -35000.0 -35000.0
-650735.9029394793 -650735.9029394793 -650735.9029394793 -150000.0 -150000.0 -150000.0 -35000.0 -35000.0
-650735.9029394793 -650735.9029394793 -650735.9029394793 -150000.0 -150000.0 -150000.0 -35000.0 -35000.0
-650735.9029394793 -650735.9029394793 -650735.9029394793 -150000.0 -150000.0 -150000.0 -35000.0 -35000.0
-650735.9029394793 -650735.9029394793 -650735.9029394793 -150000.0 -150000.0 -150000.0 -35000.0 -35000.0
-650735.9029394793 -650735.9029394793 -650735.9029394793 -150000.0 -150000.0 -150000.0 -35000.0 -35000.0
-650735.9029394793 -650735.9029394793 -650735.9029394793 -150000.0 -150000.0 -150000.0 -35000.0 -35000.0
-650735.9029394793 -650735.9029394793 -650735.9029394793 -150000.0 -150000.0 -150000.0 -35000.0 -35000.0
-650735.9029394793 -650735.9029394793 -650735.9029394793 -150000.0 -150000.0 -150000.0 -35000.0 -35000.0
-650735.9029394793 -650735.9029394793 -650735.9029394793 -150000.0 -150000.0 -150000.0 -35000.0 -35000.0
-650735.9029394793 -650735.9029394793 -650735.9029394793 -150000.0 -150000.0 -150000.0 -35000.0 -35000.0
-650735.9029394793 -650735.9029394793 -650735.9029394793 -150000.0 -150000.0 -150000.0 -35000.0 -35000.0
-650735.9029394793 -650735.9029394793 -650735.9029394793 -150000.0 -150000.0 -150000.0 -35000.0 -35000.0
-650735.9029394793 -650735.9029394793 -650735.9029394793 -150000.0 -150000.0 -150000.0 -35000.0 -35000.0
-650735.9029394793 -650735.9029394793 -650735.9029394793 -150000.0 -150000.0 -150000.0 -35000.0 -35000.0
-80000.0 -7000.0 0.0 0.0 0.0 0.0 0.0 0.0
-80000.0 -7000.0 0.0 0.0 0.0 0.0 0.0 0.0
-80000.0 -7000.0 0.0 0.0 0.0 0.0 0.0 0.0
-80000.0 -7000.0 0.0 0.0 0.0 0.0 0.0 0.0
-80000.0 -7000.0 0.0 0.0 0.0 0.0 0.0 0.0
-80000.0 -7000.0 0.0 0.0 0.0 0.0 0.0 0.0
-80000.0 -7000.0 0.0 0.0 0.0 0.0 0.0 0.0
-80000.0 -7000.0 0.0 0.0 0.0 0.0 0.0 0.0
-80000.0 -7000.0 0.0 0.0 0.0 0.0 0.0 0.0
-80000.0 -7000.0 0.0 0.0 0.0 0.0 0.0 0.0
-80000.0 -7000.0 0.0 0.0 0.0 0.0 0.0 0.0
-80000.0 -7000.0 0.0 0.0 0.0 0.0 0.0 0.0
-80000.0 -7000.0 0.0 0.0 0.0 0.0 0.0 0.0
-80000.0 -7000.0 0.0 0.0 0.0 0.0 0.0 0.0
-80000.0 -7000.0 0.0 0.0 0.0 0.0 0.0 0.0
-80000.0 -7000.0 0.0 0.0 0.0 0.0 0.0 0.0
-80000.0 -7000.0 0.0 0.0 0.0 0.0 0.0 0.0
-80000.0 -7000.0 0.0 0.0 0.0 0.0 0.0 0.0
-80000.0 -7000.0 0.0 0.0 0.0 0.0 0.0 0.0
-80000.0 -7000.0 0.0 0.0 0.0 0.0 0.0 0.0
-80000.0 -7000.0 0.0 0.0 0.0 0.0 0.0 0.0
-80000.0 -7000.0 0.0 0.0 0.0 0.0 0.0 0.0
-80000.0 -7000.0 0.0 0.0 0.0 0.0 0.0 0.0
-80000.0 -7000.0 0.0 0.0 0.0 0.0 0.0 0.0
-80000.0 -7000.0 0.0 0.0 0.0 0.0 0.0 0.0
-80000.0 -7000.0 0.0 0.0 0.0 0.0 0.0 0.0
-80000.0 -7000.0 0.0 0.0 0.0 0.0 0.0 0.0
-80000.0 -7000.0 0.0 0.0 0.0 0.0 0.0 0.0
-80000.0 -7000.0 0.0 0.0 0.0 0.0 0.0 0.0
-80000.0 -7000.0 0.0 0.0 0.0 0.0 0.0 0.0
-80000.0 -7000.0 0.0 0.0 0.0 0.0 0.0 0.0
-80000.0 -7000.0 0.0 0.0 0.0 0.0 0.0 0.0
-80000.0 -7000.0 0.0 0.0 0.0 0.0 0.0 0.0
-80000.0 -7000.0 0.0 0.0 0.0 0.0 0.0 0.0
-80000.0 -7000.0 0.0 0.0 0.0 0.0 0.0 0.0
-80000.0 -7000.0 0.0 0.0 0.0 0.0 0.0 0.0
-80000.0 -7000.0 0.0 0.0 0.0 0.0 0.0 0.0
-80000.0 -7000.0 0.0 0.0 0.0 0.0 0.0 0.0
-80000.0 -7000.0 0.0 0.0 0.0 0.0 0.0 0.0
-80000.0 -7000.0 0.0 0.0 0.0 0.0 0.0 0.0
-80000.0 -7000.0 0.0 0.0 0.0 0.0 0.0 0.0
-80000.0 -7000.0 0.0 0.0 0.0 0.0 0.0 0.0
-80000.0 -7000.0 0.0 0.0 0.0 0.0 0.0 0.0
-80000.0 -7000.0 0.0 0.0 0.0 0.0 0.0 0.0
-80000.0 -7000.0 0.0 0.0 0.0 0.0 0.0 0.0
-80000.0 -7000.0 0.0 0.0 0.0 0.0 0.0 0.0
-80000.0 -7000.0 0.0 0.0 0.0 0.0 0.0 0.0
-79830.7478020746 -6784.494713902291 220.4148234763892 220.4148234763892 0.0 0.0 0.0 0.0
-79471.55539800866 -6467.5864581606165 534.2361862228593 534.2361862228593 0.0 0.0 0.0 0.0
-79477.030165201 -6471.467702833884 529.2378758827905 529.2378758827905 0.0 0.0 0.0 0.0
-79824.92255510093 -6783.781615722695 220.63172715920487 220.63172715920487 0.0 0.0 0.0 0.0
-80499.66462323218 -7390.447412528616 -379.95431468428364 -379.95431468428364 0.0 0.0 0.0 0.0
-81481.5071075951 -8278.312134522728 -1260.309121029934 -1260.309121029934 0.0 0.0 0.0 0.0
-82755.73934312415 -9435.871226325702 -2407.5024827034213 -2407.5024827034213 0.0 0.0 0.0 0.0
-84306.86596202827 -10852.234140715467 -3811.8849459727357 -3811.8849459727357 0.0 0.0 0.0 0.0
-86120.51475146321 -12514.536006845887 -5461.1798191223215 -5461.1798191223215 0.0 0.0 0.0 0.0
-88183.59536994892 -14414.663149102296 -7346.4534134120495 -7346.4534134120495 0.0 0.0 0.0 0.0
-90483.9157458097 -16540.53338238566 -9456.785395715557 -9456.785395715557 0.0 0.0 0.0 0.0
-93010.15507612149 -18884.43228113303 -11784.208559024024 -11784.208559024024 0.0 0.0 0.0 0.0
-95751.8372717133 -21436.343118835794 -14318.802635817008 -14318.802635817008 0.0 0.0 0.0 0.0
-98699.3052552749 -24188.768176853897 -17053.66360138598 -17053.66360138598 0.0 0.0 0.0 0.0
-101843.69642074461 -27133.52727265024 -19979.880503695513 -19979.880503695513 0.0 0.0 0.0 0.0
-105176.91947931978 -30263.530135305842 -23091.605165451256 -23091.605165451256 -2612.645846121637 -2612.645846121637 -2612.645846121637 0.0
-108691.63284942669 -33572.25408873882 -26380.941369995697 -26380.941369995697 -5848.950338221784 -5848.950338221784 -5848.950338221784 0.0
-112381.22469311855 -37053.16191068132 -29843.093282549005 -29843.093282549005 -9256.052786298425 -9256.052786298425 -9256.052786298425 0.0
-116239.7946578659 -40701.25223460326 -33471.181011737914 -33471.181011737914 -12829.845854303414 -12829.845854303414 -12829.845854303414 0.0
-120262.35397640085 -44510.64833608598 -37261.46139038406 -37261.46139038406 -16564.022725552888 -16564.022725552888 -16564.022725552888 0.0
-124444.46521979396 -48477.77045575674 -41208.06861231961 -41208.06861231961 -20454.604891176787 -20454.604891176787 -20454.604891176787 0.0
-128781.98286874368 -52597.477715970796 -45308.31633303791 -45308.31633303791 -24497.862993316518 -24497.862993316518 -24497.862993316518 0.0
-133271.703918619 -56867.543253132964 -49557.34676151389 -49557.34676151389 -28689.283028529077 -28689.283028529077 -28689.283028529077 0.0
-137911.0725244265 -61283.61035287614 -53953.53836096745 -53953.53836096745 -33027.276113417596 -33027.276113417596 -33027.276113417596 0.0
-142698.1715569559 -65844.76272984619 -58493.03145546815 -58493.03145546815 -37507.91651635285 -35000.0 -35000.0 0.0
-147632.17029140145 -70547.53187044486 -63175.28113100508 -63175.28113100508 -42129.94957167802 -35000.0 -35000.0 0.0
-152712.13436230473 -75392.05647404629 -67997.41209670686 -67997.41209670686 -46891.49811141101 -35000.0 -35000.0 0.0
-157937.86326934883 -80376.0468159391 -72959.97170636048 -72959.97170636048 -51791.1656411996 -35000.0 -35000.0 0.0
-163309.9437692456 -85500.4711762362 -78061.05149413252 -78061.05149413252 -56829.170443367446 -35000.0 -35000.0 0.0
-168829.5805917449 -90764.35329927204 -83302.31055661716 -83302.31055661716 -62004.320312251366 -35000.0 -35000.0 0.0
-174499.11958926424 -96169.46157631179 -88682.7858630204 -88682.7858630204 -67318.15485615181 -35000.0 -35000.0 0.0
-180320.6372594368 -101716.11144992465 -94205.27155773755 -94205.27155773755 -72770.67099950454 -35000.0 -35000.0 0.0
-186297.05509357597 -107406.884263579 -99869.76947918907 -99869.76947918907 -78363.63877711244 -35000.0 -35000.0 0.0
-192432.05716192484 -113243.38173151824 -105680.10199205679 -105680.10199205679 -84099.05714918893 -35000.0 -35000.0 0.0
-198729.9514264637 -119228.9957885979 -111637.34436531218 -111637.34436531218 -89978.53229337784 -35000.0 -35000.0 0.0
-205196.1281875423 -125366.62512673713 -117746.32254828737 -117746.32254828737 -96006.28682338982 -35000.0 -35000.0 0.0
-211835.9386900421 -131660.4544740768 -124009.16887078654 -124009.16887078654 -102184.2619621786 -35000.0 -35000.0 0.0
-218655.36775613826 -138114.70665641065 -130431.72732151925 -130431.72732151925 -108517.38152935912 -35000.0 -35000.0 0.0
-225661.25854729017 -144734.3252250144 -137017.17475138378 -137017.17475138378 -115009.36513800173 -35000.0 -35000.0 0.0
-232861.0981804842 -151524.90147894502 -143772.38381321536 -143772.38381321536 -121665.04860488453 -35000.0 -35000.0 0.0
-240263.02211486406 -158492.08653428883 -150701.56716925453 -150000.0 -128490.47972933891 -35000.0 -35000.0 0.0
-247876.08030148648 -165642.9027043851 -157812.63293121697 -150000.0 -135490.14818696695 -35000.0 -35000.0 0.0
-255709.81028746895 -172983.63876283861 -165110.8246929198 -150000.0 -142672.07480358565 -35000.0 -35000.0 0.0
-263773.96482690336 -180522.82993723996 -172605.08898973843 -150000.0 -150000.0 -150000.0 -35000.0 -35000.0
-272079.3058281436 -188267.31265394177 -180301.69929728447 -150000.0 -150000.0 -150000.0 -35000.0 -35000.0
-280637.2571798304 -196227.2374476994 -188210.63970937495 -150000.0 -150000.0 -150000.0 -35000.0 -35000.0
-289459.90475866594 -204409.87693571538 -196339.21636362278 -150000.0 -150000.0 -150000.0 -35000.0 -35000.0
-298559.9950949476 -212827.12078245392 -204698.4462170931 -150000.0 -150000.0 -150000.0 -35000.0 -35000.0
-307950.9325583652 -221486.68735184197 -213296.67467958518 -150000.0 -150000.0 -150000.0 -35000.0 -35000.0
-317646.7749529345 -230401.92059003867 -222145.94304623402 -150000.0 -150000.0 -150000.0 -35000.0 -35000.0
-327662.22744236415 -239581.50191096196 -231255.64643920405 -150000.0 -150000.0 -150000.0 -35000.0 -35000.0
-338012.6347651967 -249039.5224809806 -240638.838136524 -150000.0 -150000.0 -150000.0 -35000.0 -35000.0
-348713.9717420871 -258786.26370378435 -250305.9772428811 -150000.0 -150000.0 -150000.0 -35000.0 -35000.0
-359782.8321243154 -268836.2518981149 -260271.1128340536 -150000.0 -150000.0 -150000.0 -35000.0 -35000.0
-371236.44055460213 -279201.51941874996 -270545.7860973968 -150000.0 -150000.0 -150000.0 -35000.0 -35000.0
-383092.8225765982 -289896.86325710535 -281145.0218912953 -150000.0 -150000.0 -150000.0 -35000.0 -35000.0
-395370.1091070019 -300936.2363629377 -292081.46541590756 -150000.0 -150000.0 -150000.0 -35000.0 -35000.0
-408087.24289078964 -312334.5230342256 -303371.09346709895 -150000.0 -150000.0 -150000.0 -35000.0 -35000.0
-421263.7125350431 -324107.7823386934 -315027.6810179434 -150000.0 -150000.0 -150000.0 -35000.0 -35000.0
-434919.53511866066 -336270.7870062745 -327068.129126689 -150000.0 -150000.0 -150000.0 -35000.0 -35000.0
-449075.238677859 -348841.9000251455 -339507.3721294163 -150000.0 -150000.0 -150000.0 -35000.0 -35000.0
-463751.844896776 -361835.57243518205 -352363.2038416604 -150000.0 -150000.0 -150000.0 -35000.0 -35000.0
-478970.85232919856 -375272.67697241064 -365651.7513826077 -150000.0 -150000.0 -150000.0 -35000.0 -35000.0
-494754.2204618021 -389167.12656090135 -379391.665989993 -150000.0 -150000.0 -150000.0 -35000.0 -35000.0
-511124.3549025362 -403542.5128407628 -393600.3048161774 -150000.0 -150000.0 -150000.0 -35000.0 -35000.0
-528104.0939407287 -418412.66357610765 -408297.13735603535 -150000.0 -150000.0 -150000.0 -35000.0 -35000.0
-545716.6966805453 -433802.0858858661 -423500.79187516123 -150000.0 -150000.0 -150000.0 -35000.0 -35000.0
-563985.8328986468 -449726.48754225817 -439231.51313051675 -150000.0 -150000.0 -150000.0 -35000.0 -35000.0
-582935.5747231382 -466210.32083072054 -455509.2454109688 -150000.0 -150000.0 -150000.0 -35000.0 -35000.0
-602590.564711571 -483271.5543068475 -472354.96191053995 -150000.0 -150000.0 -150000.0 -35000.0 -35000.0
-622977.7258475656 -500934.36014061084 -489789.97168139083 -150000.0 -150000.0 -150000.0 -35000.0 -35000.0
-644120.4911136824 -519219.1019273591 -507835.9256995832 -150000.0 -150000.0 -150000.0 -35000.0 -35000.0
-666044.532900407 -538149.5403446702 -526515.5503505885 -150000.0 -150000.0 -150000.0 -35000.0 -35000.0
-688775.9112850308 -557748.5522722445 -545851.1199075024 -150000.0 -150000.0 -150000.0 -35000.0 -35000.0
-683558.4303321415 -578039.3744912533 -565866.8344891017 -150000.0 -150000.0 -150000.0 -35000.0 -35000.0
-675129.4299744985 -599047.4970045902 -586585.5333505291 -150000.0 -150000.0 -150000.0 -35000.0 -35000.0
-666700.4296168552 -620795.5411815938 -608032.9505738482 -150000.0 -150000.0 -150000.0 -35000.0 -35000.0
-658271.4292592122 -643311.6901199892 -630232.4282512704 -150000.0 -150000.0 -150000.0 -35000.0 -35000.0
-650735.9029394793 -650735.9029394793 -650735.9029394793 -150000.0 -150000.0 -150000.0 -35000.0 -35000.0
-650735.9029394793 -650735.9029394793 -650735.9029394793 -150000.0 -150000.0 -150000.0 -35000.0 -35000.0
-650735.9029394793 -650735.9029394793 -650735.9029394793 -150000.0 -150000.0 -150000.0 -35000.0 -35000.0
-650735.9029394793 -650735.9029394793 -650735.9029394793 -150000.0 -150000.0 -150000.0 -35000.0 -35000.0
-650735.9029394793 -650735.9029394793 -650735.9029394793 -150000.0 -150000.0 -150000.0 -35000.0 -35000.0
-650735.9029394793 -650735.9029394793 -650735.9029394793 -150000.0 -150000.0 -150000.0 -35000.0 -35000.0
-650735.9029394793 -650735.9029394793 -650735.9029394793 -150000.0 -150000.0 -150000.0 -35000.0 -35000.0
-650735.9029394793 -650735.9029394793 -650735.9029394793 -150000.0 -150000.0 -150000.0 -35000.0 -35000.0
-650735.9029394793 -650735.9029394793 -650735.9029394793 -150000.0 -150000.0 -150000.0 -35000.0 -35000.0
-650735.9029394793 -650735.9029394793 -650735.9029394793 -150000.0 -150000.0 -150000.0 -35000.0 -35000.0
-650735.9029394793 -650735.9029394793 -650735.9029394793 -150000.0 -150000.0 -150000.0 -35000.0 -35000.0
-650735.9029394793 -650735.9029394793 -650735.9029394793 -150000.0 -150000.0 -150000.0 -35000.0 -35000.0
-650735.9029394793 -650735.9029394793 -650735.9029394793 -150000.0 -150000.0 -150000.0 -35000.0 -35000.0
-650735.9029394793 -650735.9029394793 -650735.9029394793 -150000.0 -150000.0 -150000.0 -35000.0 -35000.0
-650735.9029394793 -650735.9029394793 -650735.9029394793 -150000.0 -150000.0 -150000.0 -35000.0 -35000.0
-650735.9029394793 -650735.9029394793 -650735.9029394793 -150000.0 -150000.0 -150000.0 -35000.0 -35000.0
-650735.9029394793 -650735.9029394793 -650735.9029394793 -150000.0 -150000.0 -150000.0 -35000.0 -35000.0
-650735.9029394793 -650735.9029394793 -650735.9029394793 -150000.0 -150000.0 -150000.0 -35000.0 -35000.0
-650735.9029394793 -650735.9029394793 -650735.9029394793 -150000.0 -150000.0 -150000.0 -35000.0 -35000.0
-650735.9029394793 -650735.9029394793 -650735.9029394793 -150000.0 -150000.0 -150000.0 -35000.0 -35000.0
-650735.9029394793 -650735.9029394793 -650735.9029394793 -150000.0 -150000.0 -150000.0 -35000.0 -35000.0
-650735.9029394793 -650735.9029394793 -650735.9029394793 -150000.0 -150000.0 -150000.0 -35000.0 -35000.0
-650735.9029394793 -650735.9029394793 -650735.9029394793 -150000.0 -150000.0 -150000.0 -35000.0 -35000.0
-650735.9029394793 -650735.9029394793 -650735.9029394793 -150000.0 -150000.0 -150000.0 -35000.0 -35000.0
-650735.9029394793 -650735.9029394793 -650735.9029394793 -150000.0 -150000.0 -150000.0 -35000.0 -35000.0
-650735.9029394793 -650735.9029394793 -650735.9029394793 -150000.0 -150000.0 -150000.0 -35000.0 -35000.0
-650735.9029394793 -650735.9029394793 -650735.9029394793 -150000.0 -150000.0 -150000.0 -35000.0 -35000.0
-650735.9029394793 -650735.9029394793 -650735.9029394793 -150000.0 -150000.0 -150000.0 -35000.0 -35000.0
-650735.9029394793 -650735.9029394793 -650735.9029394793 -150000.0 -150000.0 -150000.0 -35000.0 -35000.0
-650735.9029394793 -650735.9029394793 -650735.9029394793 -150000.0 -150000.0 -150000.0 -35000.0 -35000.0
-650735.9029394793 -650735.9029394793 -650735.9029394793 -150000.0 -150000.0 -150000.0 -35000.0 -35000.0
-650735.9029394793 -650735.9029394793 -650735.9029394793 -150000.0 -150000.0 -150000.0 -35000.0 -35000.0
-650735.9029394793 -650735.9029394793 -650735.9029394793 -150000.0 -150000.0 -150000.0 -35000.0 -35000.0
-650735.9029394793 -650735.9029394793 -650735.9029394793 -150000.0 -150000.0 -150000.0 -35000.0 -35000.0
-650735.9029394793 -650735.9029394793 -650735.9029394793 -150000.0 -150000.0 -150000.0 -35000.0 -35000.0
-650735.9029394793 -650735.9029394793 -650735.9029394793 -150000.0 -150000.0 -150000.0 -35000.0 -35000.0
-650735.9029394793 -650735.9029394793 -650735.9029394793 -150000.0 -150000.0 -150000.0 -35000.0 -35000.0
-650735.9029394793 -650735.9029394793 -650735.9029394793 -150000.0 -150000.0 -150000.0 -35000.0 -35000.0
-650735.9029394793 -650735.9029394793 -650735.9029394793 -150000.0 -150000.0 -150000.0 -35000.0 -35000.0
-650735.9029394793 -650735.9029394793 -650735.9029394793 -150000.0 -150000.0 -150000.0 -35000.0 -35000.0
-650735.9029394793 -650735.9029394793 -650735.9029394793 -150000.0 -150000.0 -150000.0 -35000.0 -35000.0
-650735.9029394793 -650735.9029394793 -650735.9029394793 -150000.0 -150000.0 -150000.0 -35000.0 -35000.0
-650735.9029394793 -650735.9029394793 -650735.9029394793 -150000.0 -150000.0 -150000.0 -35000.0 -35000.0
-650735.9029394793 -650735.9029394793 -650735.9029394793 -150000.0 -150000.0 -150000.0 -35000.0 -35000.0
-650735.9029394793 -650735.9029394793 -650735.9029394793 -150000.0 -150000.0 -150000.0 -35000.0 -35000.0
-650735.9029394793 -650735.9029394793 -650735.9029394793 -150000.0 -150000.0 -150000.0 -35000.0 -35000.0
-650735.9029394793 -650735.9029394793 -650735.9029394793 -150000.0 -150000.0 -150000.0 -35000.0 -35000.0
-650735.9029394793 -650735.9029394793 -650735.9029394793 -150000.0 -150000.0 -150000.0 -35000.0 -35000.0
-650735.9029394793 -650735.9029394793 -650735.9029394793 -150000.0 -150000.0 -150000.0 -35000.0 -35000.0
-650735.9029394793 -650735.9029394793 -650735.9029394793 -150000.0 -150000.0 -150000.0 -35000.0 -35000.0
-650735.9029394793 -650735.9029394793 -650735.9029394793 -150000.0 -150000.0 -150000.0 -35000.0 -35000.0
-650735.9029394793 -650735.9029394793 -650735.9029394793 -150000.0 -150000.0 -150000.0 -35000.0 -35000.0
-650735.9029394793 -650735.9029394793 -650735.9029394793 -150000.0 -150000.0 -150000.0 -35000.0 -35000.0
-650735.9029394793 -650735.9029394793 -650735.9029394793 -150000.0 -150000.0 -150000.0 -35000.0 -35000.0
-650735.9029394793 -650735.9029394793 -650735.9029394793 -150000.0 -150000.0 -150000.0 -35000.0 -35000.0
-650735.9029394793 -650735.9029394793 -650735.9029394793 -150000.0 -150000.0 -150000.0 -35000.0 -35000.0
-650735.9029394793 -650735.9029394793 -650735.9029394793 -150000.0 -150000.0 -150000.0 -35000.0 -35000.0
-650735.9029394793 -650735.9029394793 -650735.9029394793 -150000.0 -150000.0 -150000.0 -35000.0 -35000.0
-650735.9029394793 -650735.9029394793 -650735.9029394793 -150000.0 -150000.0 -150000.0 -35000.0 -35000.0
-650735.9029394793 -650735.9029394793 -650735.9029394793 -150000.0 -150000.0 -150000.0 -35000.0 -35000.0
-650735.9029394793 -650735.9029394793 -650735.9029394793 -150000.0 -150000.0 -150000.0 -35000.0 -35000.0
-650735.9029394793 -650735.9029394793 -650735.9029394793 -150000.0 -150000.0 -150000.0 -35000.0 -35000.0
-650735.9029394793 -650735.9029394793 -650735.9029394793 -150000.0 -150000.0 -150000.0 -35000.0 -35000.0
-650735.9029394793 -650735.9029394793 -650735.9029394793 -150000.0 -150000.0 -150000.0 -35000.0 -35000.0
-650735.9029394793 -650735.9029394793 -650735.9029394793 -150000.0 -150000.0 -150000.0 -35000.0 -35000.0
-650735.9029394793 -650735.9029394793 -650735.9029394793 -150000.0 -150000.0 -150000.0 -35000.0 -35000.0
-650735.9029394793 -650735.9029394793 -650735.9029394793 -150000.0 -150000.0 -150000.0 -35000.0 -35000.0
-650735.9029394793 -650735.9029394793 -650735.9029394793 -150000.0 -150000.0 -150000.0 -35000.0 -35000.0
-650735.9029394793 -650735.9029394793 -650735.9029394793 -150000.0 -150000.0 -150000.0 -35000.0 -35000.0
-650735.9029394793 -650735.9029394793 -650735.9029394793 -150000.0 -150000.0 -150000.0 -35000.0 -35000.0
-650735.9029394793 -650735.9029394793 -650735.9029394793 -150000.0 -150000.0 -150000.0 -35000.0 -35000.0
-650735.9029394793 -650735.9029394793 -650735.9029394793 -150000.0 -150000.0 -150000.0 -35000.0 -35000.0
-650735.9029394793 -650735.9029394793 -650735.9029394793 -150000.0 -150000.0 -150000.0 -35000.0 -35000.0
-650735.9029394793 -650735.9029394793 -650735.9029394793 -150000.0 -150000.0 -150000.0 -35000.0 -35000.0
-650735.9029394793 -650735.9029394793 -650735.9029394793 -150000.0 -150000.0 -150000.0 -35000.0 -35000.0
-650735.9029394793 -650735.9029394793 -650735.9029394793 -150000.0 -150000.0 -150000.0 -35000.0 -35000.0
-650735.9029394793 -650735.9029394793 -650735.9029394793 -150000.0 -150000.0 -150000.0 -35000.0 -35000.0
-650735.9029394793 -650735.9029394793 -650735.9029394793 -150000.0 -150000.0 -150000.0 -35000.0 -35000.0
-650735.9029394793 -650735.9029394793 -650735.9029394793 -150000.0 -150000.0 -150000.0 -35000.0 -35000.0
-650735.9029394793 -650735.9029394793 -650735.9029394793 -150000.0 -150000.0 -150000.0 -35000.0 -35000.0
-650735.9029394793 -650735.9029394793 -650735.9029394793 -150000.0 -150000.0 -150000.0 -35000.0 -35000.0
-650735.9029394793 -650735.9029394793 -650735.9029394793 -150000.0 -150000.0 -150000.0 -35000.0 -35000.0
-650735.9029394793 -650735.9029394793 -650735.9029394793 -150000.0 -150000.0 -150000.0 -35000.0 -35000.0
-650735.9029394793 -650735.9029394793 -650735.9029394793 -150000.0 -150000.0 -150000.0 -35000.0 -35000.0
-650735.9029394793 -650735.9029394793 -650735.9029394793 -150000.0 -150000.0 -150000.0 -35000.0 -35000.0
-650735.9029394793 -650735.9029394793 -650735.9029394793 -150000.0 -150000.0 -150000.0 -35000.0 -35000.0
-650735.9029394793 -650735.9029394793 -650735.9029394793 -150000.0 -150000.0 -150000.0 -35000.0 -35000.0
-650735.9029394793 -650735.9029394793 -650735.9029394793 -150000.0 -150000.0 -150000.0 -35000.0 -35000.0
-650735.9029394793 -650735.9029394793 -650735.9029394793 -150000.0 -150000.0 -150000.0 -35000.0 -35000.0
-650735.9029394793 -650735.9029394793 -650735.9029394793 -150000.0 -150000.0 -150000.0 -35000.0 -35000.0
-650735.9029394793 -650735.9029394793 -650735.9029394793 -150000.0 -150000.0 -150000.0 -35000.0 -35000.0
-650735.9029394793 -650735.9029394793 -650735.9029394793 -150000.0 -150000.0 -150000.0 -35000.0 -35000.0
-650735.9029394793 -650735.9029394793 -650735.9029394793 -150000.0 -150000.0 -150000.0 -35000.0 -35000.0
-650735.9029394793 -650735.9029394793 -650735.9029394793 -150000.0 -150000.0 -150000.0 -35000.0 -35000.0
-650735.9029394793 -650735.9029394793 -650735.9029394793 -150000.0 -150000.0 -150000.0 -35000.0 -35000.0
-650735.9029394793 -650735.9029394793 -650735.9029394793 -150000.0 -150000.0 -150000.0 -35000.0 -35000.0
-650735.9029394793 -650735.9029394793 -650735.9029394793 -150000.0 -150000.0 -150000.0 -35000.0 -35000.0
-650735.9029394793 -650735.9029394793 -650735.9029394793 -150000.0 -150000.0 -150000.0 -35000.0 -35000.0
-650735.9029394793 -650735.9029394793 -650735.9029394793 -150000.0 -150000.0 -150000.0 -35000.0 -35000.0
-650735.9029394793 -650735.9029394793 -650735.9029394793 -150000.0 -150000.0 -150000.0 -35000.0 -35000.0
-650735.9029394793 -650735.9029394793 -650735.9029394793 -150000.0 -150000.0 -150000.0 -35000.0 -35000.0
-650735.9029394793 -650735.9029394793 -650735.9029394793 -150000.0 -150000.0 -150000.0 -35000.0 -35000.0
-650735.9029394793 -650735.9029394793 -650735.9029394793 -150000.0 -150000.0 -150000.0 -35000.0 -35000.0
-650735.9029394793 -650735.9029394793 -650735.9029394793 -150000.0 -150000.0 -150000.0 -35000.0 -35000.0
-650735.9029394793 -650735.9029394793 -650735.9029394793 -150000.0 -150000.0 -150000.0 -35000.0 -35000.0
-650735.9029394793 -650735.9029394793 -650735.9029394793 -150000.0 -150000.0 -150000.0 -35000.0 -35000.0
-650735.9029394793 -650735.9029394793 -650735.9029394793 -150000.0 -150000.0 -150000.0 -35000.0 -35000.0
-650735.9029394793 -650735.9029394793 -650735.9029394793 -150000.0 -150000.0 -150000.0 -35000.0 -35000.0
-650735.9029394793 -650735.9029394793 -650735.9029394793 -150000.0 -150000.0 -150000.0 -35000.0 -35000.0
-650735.9029394793 -650735.9029394793 -650735.9029394793 -150000.0 -150000.0 -150000.0 -35000.0 -35000.0
-650735.9029394793 -650735.9029394793 -650735.9029394793 -150000.0 -150000.0 -150000.0 -35000.0 -35000.0
-650735.9029394793 -650735.9029394793 -650735.9029394793 -150000.0 -150000.0 -150000.0 -35000.0 -35000.0
-650735.9029394793 -650735.9029394793 -650735.9029394793 -150000.0 -150000.0 -150000.0 -35000.0 -35000.0
-650735.9029394793 -650735.9029394793 -650735.9029394793 -150000.0 -150000.0 -150000.0 -35000.0 -35000.0
-650735.9029394793 -650735.9029394793 -650735.9029394793 -150000.0 -150000.0 -150000.0 -35000.0 -35000.0
-650735.9029394793 -650735.9029394793 -650735.9029394793 -150000.0 -150000.0 -150000.0 -35000.0 -35000.0
-650735.9029394793 -650735.9029394793 -650735.9029394793 -150000.0 -150000.0 -150000.0 -35000.0 -35000.0
-650735.9029394793 -650735.9029394793 -650735.9029394793 -150000.0 -150000.0 -150000.0 -35000.0 -35000.0
-650735.9029394793 -650735.9029394793 -650735.9029394793 -150000.0 -150000.0 -150000.0 -35000.0 -35000.0
-650735.9029394793 -650735.9029394793 -650735.9029394793 -150000.0 -150000.0 -150000.0 -35000.0 -35000.0
-650735.9029394793 -650735.9029394793 -650735.9029394793 -150000.0 -150000.0 -150000.0 -35000.0 -35000.0
-650735.9029394793 -650735.9029394793 -650735.9029394793 -150000.0 -150000.0 -150000.0 -35000.0 -35000.0
-650735.9029394793 -650735.9029394793 -650735.9029394793 -150000.0 -150000.0 -150000.0 -35000.0 -35000.0
-650735.9029394793 -650735.9029394793 -650735.9029394793 -150000.0 -150000.0 -150000.0 -35000.0 -35000.0
-650735.9029394793 -650735.9029394793 -650735.9029394793 -150000.0 -150000.0 -150000.0 -35000.0 -35000.0
-650735.9029394793 -650735.9029394793 -650735.9029394793 -150000.0 -150000.0 -150000.0 -35000.0 -35000.0
-650735.9029394793 -650735.9029394793 -650735.9029394793 -150000.0 -150000.0 -150000.0 -35000.0 -35000.0
-650735.9029394793 -650735.9029394793 -650735.9029394793 -150000.0 -150000.0 -150000.0 -35000.0 -35000.0
-650735.9029394793 -650735.9029394793 -650735.9029394793 -150000.0 -150000.0 -150000.0 -35000.0 -35000.0
-650735.9029394793 -650735.9029394793 -650735.9029394793 -150000.0 -150000.0 -150000.0 -35000.0 -35000.0
-650735.9029394793 -650735.9029394793 -650735.9029394793 -150000.0 -150000.0 -150000.0 -35000.0 -35000.0
-650735.9029394793 -650735.9029394793 -650735.9029394793 -150000.0 -150000.0 -150000.0 -35000.0 -35000.0
-650735.9029394793 -650735.9029394793 -650735.9029394793 -150000.0 -150000.0 -150000.0 -35000.0 -35000.0
-650735.9029394793 -650735.9029394793 -650735.9029394793 -150000.0 -150000.0 -150000.0 -35000.0 -35000.0
-650735.9029394793 -650735.9029394793 -650735.9029394793 -150000.0 -150000.0 -150000.0 -35000.0 -35000.0
-650735.9029394793 -650735.9029394793 -650735.9029394793 -150000.0 -150000.0 -150000.0 -35000.0 -35000.0
-650735.9029394793 -650735.9029394793 -650735.9029394793 -150000.0 -150000.0 -150000.0 -35000.0 -35000.0
-650735.9029394793 -650735.9029394793 -650735.9029394793 -150000.0 -150000.0 -150000.0 -35000.0 -35000.0
-650735.9029394793 -650735.9029394793 -650735.9029394793 -150000.0 -150000.0 -150000.0 -35000.0 -35000.0
-650735.9029394793 -650735.9029394793 -650735.9029394793 -150000.0 -150000.0 -150000.0 -35000.0 -35000.0
-650735.9029394793 -650735.9029394793 -650735.9029394793 -150000.0 -150000.0 -150000.0 -35000.0 -35000.0
-650735.9029394793 -650735.9029394793 -650735.9029394793 -150000.0 -150000.0 -150000.0 -35000.0 -35000.0
-650735.9029394793 -650735.9029394793 -650735.9029394793 -150000.0 -150000.0 -150000.0 -35000.0 -35000.0
-650735.9029394793 -650735.9029394793 -650735.9029394793 -150000.0 -150000.0 -150000.0 -35000.0 -35000.0
-650735.9029394793 -650735.9029394793 -650735.9029394793 -150000.0 -150000.0 -150000.0 -35000.0 -35000.0
-650735.9029394793 -650735.9029394793 -650735.9029394793 -150000.0 -150000.0 -150000.0 -35000.0 -35000.0
-650735.9029394793 -650735.9029394793 -650735.9029394793 -150000.0 -150000.0 -150000.0 -35000.0 -35000.0
-650735.9029394793 -650735.9029394793 -650735.9029394793 -150000.0 -150000.0 -150000.0 -35000.0 -35000.0
-650735.9029394793 -650735.9029394793 -650735.9029394793 -150000.0 -150000.0 -150000.0 -35000.0 -35000.0
-650735.9029394793 -650735.9029394793 -650735.9029394793 -150000.0 -150000.0 -150000.0 -35000.0 -35000.0
-650735.9029394793 -650735.9029394793 -650735.9029394793 -150000.0 -150000.0 -150000.0 -35000.0 -35000.0
-650735.9029394793 -650735.9029394793 -650735.9029394793 -150000.0 -150000.0 -150000.0 -35000.0 -35000.0
-650735.9029394793 -650735.9029394793 -650735.9029394793 -150000.0 -150000.0 -150000.0 -35000.0 -35000.0
-650735.9029394793 -650735.9029394793 -650735.9029394793 -150000.0 -150000.0 -150000.0 -35000.0 -35000.0
-650735.9029394793 -650735.9029394793 -650735.9029394793 -150000.0 -150000.0 -150000.0 -35000.0 -35000.0
-650735.9029394793 -650735.9029394793 -650735.9029394793 -150000.0 -150000.0 -150000.0 -35000.0 -35000.0
-650735.9029394793 -650735.9029394793 -650735.9029394793 -150000.0 -150000.0 -150000.0 -35000.0 -35000.0
-650735.9029394793 -650735.9029394793 -650735.9029394793 -150000.0 -150000.0 -150000.0 -35000.0 -35000.0
-650735.9029394793 -650735.9029394793 -650735.9029394793 -150000.0 -150000.0 -150000.0 -35000.0 -35000.0
-650735.9029394793 -650735.9029394793 -650735.9029394793 -150000.0 -150000.0 -150000.0 -35000.0 -35000.0
-650735.9029394793 -650735.9029394793 -650735.9029394793 -150000.0 -150000.0 -150000.0 -35000.0 -35000.0
-650735.9029394793 -650735.9029394793 -650735.9029394793 -150000.0 -150000.0 -150000.0 -35000.0 -35000.0
-650735.9029394793 -650735.9029394793 -650735.9029394793 -150000.0 -150000.0 -150000.0 -35000.0 -35000.0
-650735.9029394793 -650735.9029394793 -650735.9029394793 -150000.0 -150000.0 -150000.0 -35000.0 -35000.0
-650735.9029394793 -650735.9029394793 -650735.9029394793 -150000.0 -150000.0 -150000.0 -35000.0 -35000.0
-650735.9029394793 -650735.9029394793 -650735.9029394793 -150000.0 -150000.0 -150000.0 -35000.0 -35000.0
-650735.9029394793 -650735.9029394793 -650735.9029394793 -150000.0 -150000.0 -150000.0 -35000.0 -35000.0
-650735.9029394793 -650735.9029394793 -650735.9029394793 -150000.0 -150000.0 -150000.0 -35000.0 -35000.0
-650735.9029394793 -650735.9029394793 -650735.9029394793 -150000.0 -150000.0 -150000.0 -35000.0 -35000.0
-650735.9029394793 -650735.9029394793 -650735.9029394793 -150000.0 -150000.0 -150000.0 -35000.0 -35000.0
-650735.9029394793 -650735.9029394793 -650735.9029394793 -150000.0 -150000.0 -150000.0 -35000.0 -35000.0
-650735.9029394793 -650735.9029394793 -650735.9029394793 -150000.0 -150000.0 -150000.0 -35000.0 -35000.0
-650735.9029394793 -650735.9029394793 -650735.9029394793 -150000.0 -150000.0 -150000.0 -35000.0 -35000.0
-650735.9029394793 -650735.9029394793 -650735.9029394793 -150000.0 -150000.0 -150000.0 -35000.0 -35000.0
-650735.9029394793 -650735.9029394793 -650735.9029394793 -150000.0 -150000.0 -150000.0 -35000.0 -35000.0
-650735.9029394793 -650735.9029394793 -650735.9029394793 -150000.0 -150000.0 -150000.0 -35000.0 -35000.0
-650735.9029394793 -650735.9029394793 -650735.9029394793 -150000.0 -150000.0 -150000.0 -35000.0 -35000.0
-650735.9029394793 -650735.9029394793 -650735.9029394793 -150000.0 -150000.0 -150000.0 -35000.0 -35000.0
-650735.9029394793 -650735.9029394793 -650735.9029394793 -150000.0 -150000.0 -150000.0 -35000.0 -35000.0
-650735.9029394793 -650735.9029394793 -650735.9029394793 -150000.0 -150000.0 -150000.0 -35000.0 -35000.0
-650735.9029394793 -650735.9029394793 -650735.9029394793 -150000.0 -150000.0 -150000.0 -35000.0 -35000.0
-650735.9029394793 -650735.9029394793 -650735.9029394793 -150000.0 -150000.0 -150000.0 -35000.0 -35000.0
-650735.9029394793 -650735.9029394793 -650735.9029394793 -150000.0 -150000.0 -150000.0 -35000.0 -35000.0
-650735.9029394793 -650735.9029394793 -650735.9029394793 -150000.0 -150000.0 -150000.0 -35000.0 -35000.0
