1.0 10000.0 10000.0 1.0 1.0 10000.0 10000.0 10000.0 10000.0
3300.0 3300.0 2800.0 3300.0 3000.0 3300.0 3300.0 2775.0 2750.0
0.0 0.0 0.0 0.0 0.0 0.0 0.0 0.0 0.0
-80000.0000000000 -7000.0000000000 0.0000000000 0.0000000000 0.0000000000 0.0000000000 0.0000000000 0.0000000000
-80000.0000000000 -7000.0000000000 0.0000000000 0.0000000000 0.0000000000 0.0000000000 0.0000000000 0.0000000000
-80000.0000000000 -7000.0000000000 0.0000000000 0.0000000000 0.0000000000 0.0000000000 0.0000000000 0.0000000000
-80000.0000000000 -7000.0000000000 0.0000000000 0.0000000000 0.0000000000 0.0000000000 0.0000000000 0.0000000000
-80000.0000000000 -7000.0000000000 0.0000000000 0.0000000000 0.0000000000 0.0000000000 0.0000000000 0.0000000000
-80000.0000000000 -7000.0000000000 0.0000000000 0.0000000000 0.0000000000 0.0000000000 0.0000000000 0.0000000000
-80000.0000000000 -7000.0000000000 0.0000000000 0.0000000000 0.0000000000 0.0000000000 0.0000000000 0.0000000000
-80000.0000000000 -7000.0000000000 0.0000000000 0.0000000000 0.0000000000 0.0000000000 0.0000000000 0.0000000000
-80000.0000000000 -7000.0000000000 0.0000000000 0.0000000000 0.0000000000 0.0000000000 0.0000000000 0.0000000000
-80000.0000000000 -7000.0000000000 0.0000000000 0.0000000000 0.0000000000 0.0000000000 0.0000000000 0.0000000000
-80000.0000000000 -7000.0000000000 0.0000000000 0.0000000000 0.0000000000 0.0000000000 0.0000000000 0.0000000000
-80000.0000000000 -7000.0000000000 0.0000000000 0.0000000000 0.0000000000 0.0000000000 0.0000000000 0.0000000000
-80000.0000000000 -7000.0000000000 0.0000000000 0.0000000000 0.0000000000 0.0000000000 0.0000000000 0.0000000000
-80000.0000000000 -7000.0000000000 0.0000000000 0.0000000000 0.0000000000 0.0000000000 0.0000000000 0.0000000000
-80000.0000000000 -7000.0000000000 0.0000000000 0.0000000000 0.0000000000 0.0000000000 0.0000000000 0.0000000000
-80000.0000000000 -7000.0000000000 0.0000000000 0.0000000000 0.0000000000 0.0000000000 0.0000000000 0.0000000000
-80000.0000000000 -7000.0000000000 0.0000000000 0.0000000000 0.0000000000 0.0000000000 0.0000000000 0.0000000000
-80000.0000000000 -7000.0000000000 0.0000000000 0.0000000000 0.0000000000 0.0000000000 0.0000000000 0.0000000000
-80000.0000000000 -7000.0000000000 0.0000000000 0.0000000000 0.0000000000 0.0000000000 0.0000000000 0.0000000000
-80000.0000000000 -7000.0000000000 0.0000000000 0.0000000000 0.0000000000 0.0000000000 0.0000000000 0.0000000000
-80000.0000000000 -7000.0000000000 0.0000000000 0.0000000000 0.0000000000 0.0000000000 0.0000000000 0.0000000000
-80000.0000000000 -7000.0000000000 0.0000000000 0.0000000000 0.0000000000 0.0000000000 0.0000000000 0.0000000000
-80000.0000000000 -7000.0000000000 0.0000000000 0.0000000000 0.0000000000 0.0000000000 0.0000000000 0.0000000000
-80000.0000000000 -7000.0000000000 0.0000000000 0.0000000000 0.0000000000 0.0000000000 0.0000000000 0.0000000000
-80000.0000000000 -7000.0000000000 0.0000000000 0.0000000000 0.0000000000 0.0000000000 0.0000000000 0.0000000000
-80000.0000000000 -7000.0000000000 0.0000000000 0.0000000000 0.0000000000 0.0000000000 0.0000000000 0.0000000000
-80000.0000000000 -7000.0000000000 0.0000000000 0.0000000000 0.0000000000 0.0000000000 0.0000000000 0.0000000000
-80000.0000000000 -7000.0000000000 0.0000000000 0.0000000000 0.0000000000 0.0000000000 0.0000000000 0.0000000000
-80000.0000000000 -7000.0000000000 0.0000000000 0.0000000000 0.0000000000 0.0000000000 0.0000000000 0.0000000000
-80000.0000000000 -7000.0000000000 0.0000000000 0.0000000000 0.0000000000 0.0000000000 0.0000000000 0.0000000000
-80000.0000000000 -7000.0000000000 0.0000000000 0.0000000000 0.0000000000 0.0000000000 0.0000000000 0.0000000000
-80000.0000000000 -7000.0000000000 0.0000000000 0.0000000000 0.0000000000 0.0000000000 0.0000000000 0.0000000000
-80000.0000000000 -7000.0000000000 0.0000000000 0.0000000000 0.0000000000 0.0000000000 0.0000000000 0.0000000000
-80000.0000000000 -7000.0000000000 0.0000000000 0.0000000000 0.0000000000 0.0000000000 0.0000000000 0.0000000000
-80000.0000000000 -7000.0000000000 0.0000000000 0.0000000000 0.0000000000 0.0000000000 0.0000000000 0.0000000000
-80000.0000000000 -7000.0000000000 0.0000000000 0.0000000000 0.0000000000 0.0000000000 0.0000000000 0.0000000000
-80000.0000000000 -7000.0000000000 0.0000000000 0.0000000000 0.0000000000 0.0000000000 0.0000000000 0.0000000000
-80000.0000000000 -7000.0000000000 0.0000000000 0.0000000000 0.0000000000 0.0000000000 0.0000000000 0.0000000000
-80000.0000000000 -7000.0000000000 0.0000000000 0.0000000000 0.0000000000 0.0000000000 0.0000000000 0.0000000000
-80000.0000000000 -7000.0000000000 0.0000000000 0.0000000000 0.0000000000 0.0000000000 0.0000000000 0.0000000000
-80000.0000000000 -7000.0000000000 0.0000000000 0.0000000000 0.0000000000 0.0000000000 0.0000000000 0.0000000000
-80000.0000000000 -7000.0000000000 0.0000000000 0.0000000000 0.0000000000 0.0000000000 0.0000000000 0.0000000000
-80000.0000000000 -7000.0000000000 0.0000000000 0.0000000000 0.0000000000 0.0000000000 0.0000000000 0.0000000000
-80000.0000000000 -7000.0000000000 0.0000000000 0.0000000000 0.0000000000 0.0000000000 0.0000000000 0.0000000000
-80000.0000000000 -7000.0000000000 0.0000000000 0.0000000000 0.0000000000 0.0000000000 0.0000000000 0.0000000000
-80000.0000000000 -7000.0000000000 0.0000000000 0.0000000000 0.0000000000 0.0000000000 0.0000000000 0.0000000000
-80000.0000000000 -7000.0000000000 0.0000000000 0.0000000000 0.0000000000 0.0000000000 0.0000000000 0.0000000000
-79830.7478020746 -6784.4947139023 0.0000000000 0.0000000000 0.0000000000 0.0000000000 0.0000000000 0.0000000000
-79471.5553980087 -6467.5864581606 0.0000000000 0.0000000000 0.0000000000 0.0000000000 0.0000000000 0.0000000000
-79477.0301652010 -6471.4677028339 0.0000000000 0.0000000000 0.0000000000 0.0000000000 0.0000000000 0.0000000000
-79824.9225551009 -6783.7816157227 0.0000000000 0.0000000000 0.0000000000 0.0000000000 0.0000000000 0.0000000000
-80499.6646232322 -7390.4474125286 -379.9543146843 -379.9543146843 0.0000000000 0.0000000000 0.0000000000 0.0000000000
-81481.5071075951 -8278.3121345227 -1260.3091210299 -1260.3091210299 0.0000000000 0.0000000000 0.0000000000 0.0000000000
-82755.7393431242 -9435.8712263257 -2407.5024827034 -2407.5024827034 0.0000000000 0.0000000000 0.0000000000 0.0000000000
-84306.8659620283 -10852.2341407155 -3811.8849459727 -3811.8849459727 0.0000000000 0.0000000000 0.0000000000 0.0000000000
-86120.5147514632 -12514.5360068459 -5461.1798191223 -5461.1798191223 0.0000000000 0.0000000000 0.0000000000 0.0000000000
-88183.5953699489 -14414.6631491023 -7346.4534134120 -7346.4534134120 0.0000000000 0.0000000000 0.0000000000 0.0000000000
-90483.9157458097 -16540.5333823857 -9456.7853957156 -9456.7853957156 0.0000000000 0.0000000000 0.0000000000 0.0000000000
-93010.1550761215 -18884.4322811330 -11784.2085590240 -11784.2085590240 0.0000000000 0.0000000000 0.0000000000 0.0000000000
-95751.8372717133 -21436.3431188358 -14318.8026358170 -14318.8026358170 0.0000000000 0.0000000000 0.0000000000 0.0000000000
-98699.3052552749 -24188.7681768539 -17053.6636013860 -17053.6636013860 0.0000000000 0.0000000000 0.0000000000 0.0000000000
-101843.6964207446 -27133.5272726502 -19979.8805036955 -19979.8805036955 0.0000000000 0.0000000000 0.0000000000 0.0000000000
-105176.9194793198 -30263.5301353058 -23091.6051654513 -23091.6051654513 0.0000000000 0.0000000000 0.0000000000 0.0000000000
-108691.6328494267 -33572.2540887388 -26380.9413699957 -26380.9413699957 0.0000000000 0.0000000000 0.0000000000 0.0000000000
-112381.2246931186 -37053.1619106813 -29843.0932825490 -29843.0932825490 0.0000000000 0.0000000000 0.0000000000 0.0000000000
-116239.7946578659 -40701.2522346033 -33471.1810117379 -33471.1810117379 0.0000000000 0.0000000000 0.0000000000 0.0000000000
-120262.3539764008 -44510.6483360860 -37261.4613903841 -37261.4613903841 0.0000000000 0.0000000000 0.0000000000 0.0000000000
-124444.4652197940 -48477.7704557567 -41208.0686123196 -41208.0686123196 0.0000000000 0.0000000000 0.0000000000 0.0000000000
-128781.9828687437 -52597.4777159708 -45308.3163330379 -45308.3163330379 0.0000000000 0.0000000000 0.0000000000 0.0000000000
-133271.7039186190 -56867.5432531330 -49557.3467615139 -49557.3467615139 0.0000000000 0.0000000000 0.0000000000 0.0000000000
-137911.0725244265 -61283.6103528761 -53953.5383609675 -53953.5383609675 0.0000000000 0.0000000000 0.0000000000 0.0000000000
-142698.1715569559 -65844.7627298462 -58493.0314554682 -58493.0314554682 0.0000000000 0.0000000000 0.0000000000 0.0000000000
-147632.1702914014 -70547.5318704449 -63175.2811310051 -63175.2811310051 -114.9116870816 -114.9116870816 -114.9116870816 0.0000000000
-152712.1343623047 -75392.0564740463 -67997.4120967069 -67997.4120967069 -4757.7588756692 -4757.7588756692 -4757.7588756692 0.0000000000
-157937.8632693488 -80376.0468159391 -72959.9717063605 -72959.9717063605 -9537.0534627033 -9537.0534627033 -9537.0534627033 0.0000000000
-163309.9437692456 -85500.4711762362 -78061.0514941325 -78061.0514941325 -14451.4128404319 -14451.4128404319 -14451.4128404319 0.0000000000
-168829.5805917449 -90764.3532992720 -83302.3105566172 -83302.3105566172 -19500.1980818743 -19500.1980818743 -19500.1980818743 0.0000000000
-174499.1195892642 -96169.4615763118 -88682.7858630204 -88682.7858630204 -24684.2783830476 -24684.2783830476 -24684.2783830476 0.0000000000
-180320.6372594368 -101716.1114499246 -94205.2715577375 -94205.2715577375 -30003.4452414661 -30003.4452414661 -30003.4452414661 0.0000000000
-186297.0550935760 -107406.8842635790 -99869.7694791891 -99869.7694791891 -35458.3781671355 -35000.0000000000 -35000.0000000000 0.0000000000
-192432.0571619248 -113243.3817315182 -105680.1019920568 -105680.1019920568 -41050.8026219661 -35000.0000000000 -35000.0000000000 0.0000000000
-198729.9514264637 -119228.9957885979 -111637.3443653122 -111637.3443653122 -46782.7579787930 -35000.0000000000 -35000.0000000000 0.0000000000
-205196.1281875423 -125366.6251267371 -117746.3225482874 -117746.3225482874 -52655.7717401419 -35000.0000000000 -35000.0000000000 0.0000000000
-211835.9386900421 -131660.4544740768 -124009.1688707865 -124009.1688707865 -58672.5241248195 -35000.0000000000 -35000.0000000000 0.0000000000
-218655.3677561383 -138114.7066564106 -130431.7273215193 -130431.7273215193 -64837.0307736677 -35000.0000000000 -35000.0000000000 0.0000000000
-225661.2585472902 -144734.3252250144 -137017.1747513838 -137017.1747513838 -71152.4576799670 -35000.0000000000 -35000.0000000000 0.0000000000
-232861.0981804842 -151524.9014789450 -143772.3838132154 -143772.3838132154 -77622.2777991872 -35000.0000000000 -35000.0000000000 0.0000000000
-240263.0221148641 -158492.0865342888 -150701.5671692545 -150000.0000000000 -84251.4708471447 -35000.0000000000 -35000.0000000000 0.0000000000
-247876.0803014865 -165642.9027043851 -157812.6329312170 -150000.0000000000 -91045.4401557743 -35000.0000000000 -35000.0000000000 0.0000000000
-255709.8102874690 -172983.6387628386 -165110.8246929198 -150000.0000000000 -98009.0625359593 -35000.0000000000 -35000.0000000000 0.0000000000
-263773.9648269034 -180522.8299372400 -172605.0889897384 -150000.0000000000 -105147.7130844419 -35000.0000000000 -35000.0000000000 0.0000000000
-272079.3058281436 -188267.3126539418 -180301.6992972845 -150000.0000000000 -112468.2302744209 -35000.0000000000 -35000.0000000000 0.0000000000
-280637.2571798304 -196227.2374476994 -188210.6397093750 -150000.0000000000 -119977.8206120147 -35000.0000000000 -35000.0000000000 0.0000000000
-289459.9047586659 -204409.8769357154 -196339.2163636228 -150000.0000000000 -127682.8284438332 -35000.0000000000 -35000.0000000000 0.0000000000
-298559.9950949476 -212827.1207824539 -204698.4462170931 -150000.0000000000 -135590.9524921342 -35000.0000000000 -35000.0000000000 0.0000000000
-307950.9325583652 -221486.6873518420 -213296.6746795852 -150000.0000000000 -143709.8258851453 -35000.0000000000 -35000.0000000000 0.0000000000
-317646.7749529345 -230401.9205900387 -222145.9430462340 -150000.0000000000 -150000.0000000000 -150000.0000000000 -35000.0000000000 -35000.0000000000
-327662.2274423642 -239581.5019109620 -231255.6464392041 -150000.0000000000 -150000.0000000000 -150000.0000000000 -35000.0000000000 -35000.0000000000
-338012.6347651967 -249039.5224809806 -240638.8381365240 -150000.0000000000 -150000.0000000000 -150000.0000000000 -35000.0000000000 -35000.0000000000
-348713.9717420871 -258786.2637037844 -250305.9772428811 -150000.0000000000 -150000.0000000000 -150000.0000000000 -35000.0000000000 -35000.0000000000
-359782.8321243154 -268836.2518981149 -260271.1128340536 -150000.0000000000 -150000.0000000000 -150000.0000000000 -35000.0000000000 -35000.0000000000
-371236.4405546021 -279201.5194187500 -270545.7860973968 -150000.0000000000 -150000.0000000000 -150000.0000000000 -35000.0000000000 -35000.0000000000
-383092.8225765982 -289896.8632571053 -281145.0218912953 -150000.0000000000 -150000.0000000000 -150000.0000000000 -35000.0000000000 -35000.0000000000
-395370.1091070019 -300936.2363629377 -292081.4654159076 -150000.0000000000 -150000.0000000000 -150000.0000000000 -35000.0000000000 -35000.0000000000
-408087.2428907896 -312334.5230342256 -303371.0934670990 -150000.0000000000 -150000.0000000000 -150000.0000000000 -35000.0000000000 -35000.0000000000
-421263.7125350431 -324107.7823386934 -315027.6810179434 -150000.0000000000 -150000.0000000000 -150000.0000000000 -35000.0000000000 -35000.0000000000
-434919.5351186607 -336270.7870062745 -327068.1291266890 -150000.0000000000 -150000.0000000000 -150000.0000000000 -35000.0000000000 -35000.0000000000
-449075.2386778590 -348841.9000251455 -339507.3721294163 -150000.0000000000 -150000.0000000000 -150000.0000000000 -35000.0000000000 -35000.0000000000
-463751.8448967760 -361835.5724351821 -352363.2038416604 -150000.0000000000 -150000.0000000000 -150000.0000000000 -35000.0000000000 -35000.0000000000
-478970.8523291986 -375272.6769724106 -365651.7513826077 -150000.0000000000 -150000.0000000000 -150000.0000000000 -35000.0000000000 -35000.0000000000
-494754.2204618021 -389167.1265609013 -379391.6659899930 -150000.0000000000 -150000.0000000000 -150000.0000000000 -35000.0000000000 -35000.0000000000
-511124.3549025362 -403542.5128407628 -393600.3048161774 -150000.0000000000 -150000.0000000000 -150000.0000000000 -35000.0000000000 -35000.0000000000
-528104.0939407287 -418412.6635761076 -408297.1373560354 -150000.0000000000 -150000.0000000000 -150000.0000000000 -35000.0000000000 -35000.0000000000
-545716.6966805453 -433802.0858858661 -423500.7918751612 -150000.0000000000 -150000.0000000000 -150000.0000000000 -35000.0000000000 -35000.0000000000
-563985.8328986468 -449726.4875422582 -439231.5131305167 -150000.0000000000 -150000.0000000000 -150000.0000000000 -35000.0000000000 -35000.0000000000
-582935.5747231382 -466210.3208307205 -455509.2454109688 -150000.0000000000 -150000.0000000000 -150000.0000000000 -35000.0000000000 -35000.0000000000
-602590.5647115710 -483271.5543068475 -472354.9619105399 -150000.0000000000 -150000.0000000000 -150000.0000000000 -35000.0000000000 -35000.0000000000
-622977.7258475656 -500934.3601406108 -489789.9716813908 -150000.0000000000 -150000.0000000000 -150000.0000000000 -35000.0000000000 -35000.0000000000
-644120.4911136824 -519219.1019273591 -507835.9256995832 -150000.0000000000 -150000.0000000000 -150000.0000000000 -35000.0000000000 -35000.0000000000
-666044.5329004070 -538149.5403446702 -526515.5503505885 -150000.0000000000 -150000.0000000000 -150000.0000000000 -35000.0000000000 -35000.0000000000
-688775.9112850308 -557748.5522722445 -545851.1199075024 -150000.0000000000 -150000.0000000000 -150000.0000000000 -35000.0000000000 -35000.0000000000
-683558.4303321415 -578039.3744912533 -565866.8344891017 -150000.0000000000 -150000.0000000000 -150000.0000000000 -35000.0000000000 -35000.0000000000
-675129.4299744985 -599047.4970045902 -586585.5333505291 -150000.0000000000 -150000.0000000000 -150000.0000000000 -35000.0000000000 -35000.0000000000
-666700.4296168552 -620795.5411815938 -608032.9505738482 -150000.0000000000 -150000.0000000000 -150000.0000000000 -35000.0000000000 -35000.0000000000
-658271.4292592122 -643311.6901199892 -630232.4282512704 -150000.0000000000 -150000.0000000000 -150000.0000000000 -35000.0000000000 -35000.0000000000
-650735.9029394793 -650735.9029394793 -650735.9029394793 -150000.0000000000 -150000.0000000000 -150000.0000000000 -35000.0000000000 -35000.0000000000
-650735.9029394793 -650735.9029394793 -650735.9029394793 -150000.0000000000 -150000.0000000000 -150000.0000000000 -35000.0000000000 -35000.0000000000
-650735.9029394793 -650735.9029394793 -650735.9029394793 -150000.0000000000 -150000.0000000000 -150000.0000000000 -35000.0000000000 -35000.0000000000
-650735.9029394793 -650735.9029394793 -650735.9029394793 -150000.0000000000 -150000.0000000000 -150000.0000000000 -35000.0000000000 -35000.0000000000
-650735.9029394793 -650735.9029394793 -650735.9029394793 -150000.0000000000 -150000.0000000000 -150000.0000000000 -35000.0000000000 -35000.0000000000
-650735.9029394793 -650735.9029394793 -650735.9029394793 -150000.0000000000 -150000.0000000000 -150000.0000000000 -35000.0000000000 -35000.0000000000
-650735.9029394793 -650735.9029394793 -650735.9029394793 -150000.0000000000 -150000.0000000000 -150000.0000000000 -35000.0000000000 -35000.0000000000
-650735.9029394793 -650735.9029394793 -650735.9029394793 -150000.0000000000 -150000.0000000000 -150000.0000000000 -35000.0000000000 -35000.0000000000
-650735.9029394793 -650735.9029394793 -650735.9029394793 -150000.0000000000 -150000.0000000000 -150000.0000000000 -35000.0000000000 -35000.0000000000
-650735.9029394793 -650735.9029394793 -650735.9029394793 -150000.0000000000 -150000.0000000000 -150000.0000000000 -35000.0000000000 -35000.0000000000
-650735.9029394793 -650735.9029394793 -650735.9029394793 -150000.0000000000 -150000.0000000000 -150000.0000000000 -35000.0000000000 -35000.0000000000
-650735.9029394793 -650735.9029394793 -650735.9029394793 -150000.0000000000 -150000.0000000000 -150000.0000000000 -35000.0000000000 -35000.0000000000
-650735.9029394793 -650735.9029394793 -650735.9029394793 -150000.0000000000 -150000.0000000000 -150000.0000000000 -35000.0000000000 -35000.0000000000
-650735.9029394793 -650735.9029394793 -650735.9029394793 -150000.0000000000 -150000.0000000000 -150000.0000000000 -35000.0000000000 -35000.0000000000
-650735.9029394793 -650735.9029394793 -650735.9029394793 -150000.0000000000 -150000.0000000000 -150000.0000000000 -35000.0000000000 -35000.0000000000
-650735.9029394793 -650735.9029394793 -650735.9029394793 -150000.0000000000 -150000.0000000000 -150000.0000000000 -35000.0000000000 -35000.0000000000
-650735.9029394793 -650735.9029394793 -650735.9029394793 -150000.0000000000 -150000.0000000000 -150000.0000000000 -35000.0000000000 -35000.0000000000
-650735.9029394793 -650735.9029394793 -650735.9029394793 -150000.0000000000 -150000.0000000000 -150000.0000000000 -35000.0000000000 -35000.0000000000
-650735.9029394793 -650735.9029394793 -650735.9029394793 -150000.0000000000 -150000.0000000000 -150000.0000000000 -35000.0000000000 -35000.0000000000
-650735.9029394793 -650735.9029394793 -650735.9029394793 -150000.0000000000 -150000.0000000000 -150000.0000000000 -35000.0000000000 -35000.0000000000
-650735.9029394793 -650735.9029394793 -650735.9029394793 -150000.0000000000 -150000.0000000000 -150000.0000000000 -35000.0000000000 -35000.0000000000
-650735.9029394793 -650735.9029394793 -650735.9029394793 -150000.0000000000 -150000.0000000000 -150000.0000000000 -35000.0000000000 -35000.0000000000
-650735.9029394793 -650735.9029394793 -650735.9029394793 -150000.0000000000 -150000.0000000000 -150000.0000000000 -35000.0000000000 -35000.0000000000
-650735.9029394793 -650735.9029394793 -650735.9029394793 -150000.0000000000 -150000.0000000000 -150000.0000000000 -35000.0000000000 -35000.0000000000
-650735.9029394793 -650735.9029394793 -650735.9029394793 -150000.0000000000 -150000.0000000000 -150000.0000000000 -35000.0000000000 -35000.0000000000
-650735.9029394793 -650735.9029394793 -650735.9029394793 -150000.0000000000 -150000.0000000000 -150000.0000000000 -35000.0000000000 -35000.0000000000
-650735.9029394793 -650735.9029394793 -650735.9029394793 -150000.0000000000 -150000.0000000000 -150000.0000000000 -35000.0000000000 -35000.0000000000
-650735.9029394793 -650735.9029394793 -650735.9029394793 -150000.0000000000 -150000.0000000000 -150000.0000000000 -35000.0000000000 -35000.0000000000
-650735.9029394793 -650735.9029394793 -650735.9029394793 -150000.0000000000 -150000.0000000000 -150000.0000000000 -35000.0000000000 -35000.0000000000
-650735.9029394793 -650735.9029394793 -650735.9029394793 -150000.0000000000 -150000.0000000000 -150000.0000000000 -35000.0000000000 -35000.0000000000
-650735.9029394793 -650735.9029394793 -650735.9029394793 -150000.0000000000 -150000.0000000000 -150000.0000000000 -35000.0000000000 -35000.0000000000
-650735.9029394793 -650735.9029394793 -650735.9029394793 -150000.0000000000 -150000.0000000000 -150000.0000000000 -35000.0000000000 -35000.0000000000
-650735.9029394793 -650735.9029394793 -650735.9029394793 -150000.0000000000 -150000.0000000000 -150000.0000000000 -35000.0000000000 -35000.0000000000
-650735.9029394793 -650735.9029394793 -650735.9029394793 -150000.0000000000 -150000.0000000000 -150000.0000000000 -35000.0000000000 -35000.0000000000
-650735.9029394793 -650735.9029394793 -650735.9029394793 -150000.0000000000 -150000.0000000000 -150000.0000000000 -35000.0000000000 -35000.0000000000
-650735.9029394793 -650735.9029394793 -650735.9029394793 -150000.0000000000 -150000.0000000000 -150000.0000000000 -35000.0000000000 -35000.0000000000
-650735.9029394793 -650735.9029394793 -650735.9029394793 -150000.0000000000 -150000.0000000000 -150000.0000000000 -35000.0000000000 -35000.0000000000
-650735.9029394793 -650735.9029394793 -650735.9029394793 -150000.0000000000 -150000.0000000000 -150000.0000000000 -35000.0000000000 -35000.0000000000
-650735.9029394793 -650735.9029394793 -650735.9029394793 -150000.0000000000 -150000.0000000000 -150000.0000000000 -35000.0000000000 -35000.0000000000
-650735.9029394793 -650735.9029394793 -650735.9029394793 -150000.0000000000 -150000.0000000000 -150000.0000000000 -35000.0000000000 -35000.0000000000
-650735.9029394793 -650735.9029394793 -650735.9029394793 -150000.0000000000 -150000.0000000000 -150000.0000000000 -35000.0000000000 -35000.0000000000
-650735.9029394793 -650735.9029394793 -650735.9029394793 -150000.0000000000 -150000.0000000000 -150000.0000000000 -35000.0000000000 -35000.0000000000
-650735.9029394793 -650735.9029394793 -650735.9029394793 -150000.0000000000 -150000.0000000000 -150000.0000000000 -35000.0000000000 -35000.0000000000
-650735.9029394793 -650735.9029394793 -650735.9029394793 -150000.0000000000 -150000.0000000000 -150000.0000000000 -35000.0000000000 -35000.0000000000
-650735.9029394793 -650735.9029394793 -650735.9029394793 -150000.0000000000 -150000.0000000000 -150000.0000000000 -35000.0000000000 -35000.0000000000
-650735.9029394793 -650735.9029394793 -650735.9029394793 -150000.0000000000 -150000.0000000000 -150000.0000000000 -35000.0000000000 -35000.0000000000
-650735.9029394793 -650735.9029394793 -650735.9029394793 -150000.0000000000 -150000.0000000000 -150000.0000000000 -35000.0000000000 -35000.0000000000
-650735.9029394793 -650735.9029394793 -650735.9029394793 -150000.0000000000 -150000.0000000000 -150000.0000000000 -35000.0000000000 -35000.0000000000
-650735.9029394793 -650735.9029394793 -650735.9029394793 -150000.0000000000 -150000.0000000000 -150000.0000000000 -35000.0000000000 -35000.0000000000
-650735.9029394793 -650735.9029394793 -650735.9029394793 -150000.0000000000 -150000.0000000000 -150000.0000000000 -35000.0000000000 -35000.0000000000
-650735.9029394793 -650735.9029394793 -650735.9029394793 -150000.0000000000 -150000.0000000000 -150000.0000000000 -35000.0000000000 -35000.0000000000
-650735.9029394793 -650735.9029394793 -650735.9029394793 -150000.0000000000 -150000.0000000000 -150000.0000000000 -35000.0000000000 -35000.0000000000
-650735.9029394793 -650735.9029394793 -650735.9029394793 -150000.0000000000 -150000.0000000000 -150000.0000000000 -35000.0000000000 -35000.0000000000
-650735.9029394793 -650735.9029394793 -650735.9029394793 -150000.0000000000 -150000.0000000000 -150000.0000000000 -35000.0000000000 -35000.0000000000
-650735.9029394793 -650735.9029394793 -650735.9029394793 -150000.0000000000 -150000.0000000000 -150000.0000000000 -35000.0000000000 -35000.0000000000
-650735.9029394793 -650735.9029394793 -650735.9029394793 -150000.0000000000 -150000.0000000000 -150000.0000000000 -35000.0000000000 -35000.0000000000
-650735.9029394793 -650735.9029394793 -650735.9029394793 -150000.0000000000 -150000.0000000000 -150000.0000000000 -35000.0000000000 -35000.0000000000
-650735.9029394793 -650735.9029394793 -650735.9029394793 -150000.0000000000 -150000.0000000000 -150000.0000000000 -35000.0000000000 -35000.0000000000
-650735.9029394793 -650735.9029394793 -650735.9029394793 -150000.0000000000 -150000.0000000000 -150000.0000000000 -35000.0000000000 -35000.0000000000
-650735.9029394793 -650735.9029394793 -650735.9029394793 -150000.0000000000 -150000.0000000000 -150000.0000000000 -35000.0000000000 -35000.0000000000
-650735.9029394793 -650735.9029394793 -650735.9029394793 -150000.0000000000 -150000.0000000000 -150000.0000000000 -35000.0000000000 -35000.0000000000
-650735.9029394793 -650735.9029394793 -650735.9029394793 -150000.0000000000 -150000.0000000000 -150000.0000000000 -35000.0000000000 -35000.0000000000
-650735.9029394793 -650735.9029394793 -650735.9029394793 -150000.0000000000 -150000.0000000000 -150000.0000000000 -35000.0000000000 -35000.0000000000
-650735.9029394793 -650735.9029394793 -650735.9029394793 -150000.0000000000 -150000.0000000000 -150000.0000000000 -35000.0000000000 -35000.0000000000
-650735.9029394793 -650735.9029394793 -650735.9029394793 -150000.0000000000 -150000.0000000000 -150000.0000000000 -35000.0000000000 -35000.0000000000
-650735.9029394793 -650735.9029394793 -650735.9029394793 -150000.0000000000 -150000.0000000000 -150000.0000000000 -35000.0000000000 -35000.0000000000
-650735.9029394793 -650735.9029394793 -650735.9029394793 -150000.0000000000 -150000.0000000000 -150000.0000000000 -35000.0000000000 -35000.0000000000
-650735.9029394793 -650735.9029394793 -650735.9029394793 -150000.0000000000 -150000.0000000000 -150000.0000000000 -35000.0000000000 -35000.0000000000
-650735.9029394793 -650735.9029394793 -650735.9029394793 -150000.0000000000 -150000.0000000000 -150000.0000000000 -35000.0000000000 -35000.0000000000
-650735.9029394793 -650735.9029394793 -650735.9029394793 -150000.0000000000 -150000.0000000000 -150000.0000000000 -35000.0000000000 -35000.0000000000
-650735.9029394793 -650735.9029394793 -650735.9029394793 -150000.0000000000 -150000.0000000000 -150000.0000000000 -35000.0000000000 -35000.0000000000
-650735.9029394793 -650735.9029394793 -650735.9029394793 -150000.0000000000 -150000.0000000000 -150000.0000000000 -35000.0000000000 -35000.0000000000
-650735.9029394793 -650735.9029394793 -650735.9029394793 -150000.0000000000 -150000.0000000000 -150000.0000000000 -35000.0000000000 -35000.0000000000
-650735.9029394793 -650735.9029394793 -650735.9029394793 -150000.0000000000 -150000.0000000000 -150000.0000000000 -35000.0000000000 -35000.0000000000
-650735.9029394793 -650735.9029394793 -650735.9029394793 -150000.0000000000 -150000.0000000000 -150000.0000000000 -35000.0000000000 -35000.0000000000
-650735.9029394793 -650735.9029394793 -650735.9029394793 -150000.0000000000 -150000.0000000000 -150000.0000000000 -35000.0000000000 -35000.0000000000
-650735.9029394793 -650735.9029394793 -650735.9029394793 -150000.0000000000 -150000.0000000000 -150000.0000000000 -35000.0000000000 -35000.0000000000
-650735.9029394793 -650735.9029394793 -650735.9029394793 -150000.0000000000 -150000.0000000000 -150000.0000000000 -35000.0000000000 -35000.0000000000
-650735.9029394793 -650735.9029394793 -650735.9029394793 -150000.0000000000 -150000.0000000000 -150000.0000000000 -35000.0000000000 -35000.0000000000
-650735.9029394793 -650735.9029394793 -650735.9029394793 -150000.0000000000 -150000.0000000000 -150000.0000000000 -35000.0000000000 -35000.0000000000
-650735.9029394793 -650735.9029394793 -650735.9029394793 -150000.0000000000 -150000.0000000000 -150000.0000000000 -35000.0000000000 -35000.0000000000
-650735.9029394793 -650735.9029394793 -650735.9029394793 -150000.0000000000 -150000.0000000000 -150000.0000000000 -35000.0000000000 -35000.0000000000
-650735.9029394793 -650735.9029394793 -650735.9029394793 -150000.0000000000 -150000.0000000000 -150000.0000000000 -35000.0000000000 -35000.0000000000
-650735.9029394793 -650735.9029394793 -650735.9029394793 -150000.0000000000 -150000.0000000000 -150000.0000000000 -35000.0000000000 -35000.0000000000
-650735.9029394793 -650735.9029394793 -650735.9029394793 -150000.0000000000 -150000.0000000000 -150000.0000000000 -35000.0000000000 -35000.0000000000
-650735.9029394793 -650735.9029394793 -650735.9029394793 -150000.0000000000 -150000.0000000000 -150000.0000000000 -35000.0000000000 -35000.0000000000
-650735.9029394793 -650735.9029394793 -650735.9029394793 -150000.0000000000 -150000.0000000000 -150000.0000000000 -35000.0000000000 -35000.0000000000
-650735.9029394793 -650735.9029394793 -650735.9029394793 -150000.0000000000 -150000.0000000000 -150000.0000000000 -35000.0000000000 -35000.0000000000
-650735.9029394793 -650735.9029394793 -650735.9029394793 -150000.0000000000 -150000.0000000000 -150000.0000000000 -35000.0000000000 -35000.0000000000
-650735.9029394793 -650735.9029394793 -650735.9029394793 -150000.0000000000 -150000.0000000000 -150000.0000000000 -35000.0000000000 -35000.0000000000
-650735.9029394793 -650735.9029394793 -650735.9029394793 -150000.0000000000 -150000.0000000000 -150000.0000000000 -35000.0000000000 -35000.0000000000
-650735.9029394793 -650735.9029394793 -650735.9029394793 -150000.0000000000 -150000.0000000000 -150000.0000000000 -35000.0000000000 -35000.0000000000
-650735.9029394793 -650735.9029394793 -650735.9029394793 -150000.0000000000 -150000.0000000000 -150000.0000000000 -35000.0000000000 -35000.0000000000
-650735.9029394793 -650735.9029394793 -650735.9029394793 -150000.0000000000 -150000.0000000000 -150000.0000000000 -35000.0000000000 -35000.0000000000
-650735.9029394793 -650735.9029394793 -650735.9029394793 -150000.0000000000 -150000.0000000000 -150000.0000000000 -35000.0000000000 -35000.0000000000
-650735.9029394793 -650735.9029394793 -650735.9029394793 -150000.0000000000 -150000.0000000000 -150000.0000000000 -35000.0000000000 -35000.0000000000
-650735.9029394793 -650735.9029394793 -650735.9029394793 -150000.0000000000 -150000.0000000000 -150000.0000000000 -35000.0000000000 -35000.0000000000
-650735.9029394793 -650735.9029394793 -650735.9029394793 -150000.0000000000 -150000.0000000000 -150000.0000000000 -35000.0000000000 -35000.0000000000
-650735.9029394793 -650735.9029394793 -650735.9029394793 -150000.0000000000 -150000.0000000000 -150000.0000000000 -35000.0000000000 -35000.0000000000
-650735.9029394793 -650735.9029394793 -650735.9029394793 -150000.0000000000 -150000.0000000000 -150000.0000000000 -35000.0000000000 -35000.0000000000
-650735.9029394793 -650735.9029394793 -650735.9029394793 -150000.0000000000 -150000.0000000000 -150000.0000000000 -35000.0000000000 -35000.0000000000
-650735.9029394793 -650735.9029394793 -650735.9029394793 -150000.0000000000 -150000.0000000000 -150000.0000000000 -35000.0000000000 -35000.0000000000
-650735.9029394793 -650735.9029394793 -650735.9029394793 -150000.0000000000 -150000.0000000000 -150000.0000000000 -35000.0000000000 -35000.0000000000
-650735.9029394793 -650735.9029394793 -650735.9029394793 -150000.0000000000 -150000.0000000000 -150000.0000000000 -35000.0000000000 -35000.0000000000
-650735.9029394793 -650735.9029394793 -650735.9029394793 -150000.0000000000 -150000.0000000000 -150000.0000000000 -35000.0000000000 -35000.0000000000
-650735.9029394793 -650735.9029394793 -650735.9029394793 -150000.0000000000 -150000.0000000000 -150000.0000000000 -35000.0000000000 -35000.0000000000
-650735.9029394793 -650735.9029394793 -650735.9029394793 -150000.0000000000 -150000.0000000000 -150000.0000000000 -35000.0000000000 -35000.0000000000
-650735.9029394793 -650735.9029394793 -650735.9029394793 -150000.0000000000 -150000.0000000000 -150000.0000000000 -35000.0000000000 -35000.0000000000
-650735.9029394793 -650735.9029394793 -650735.9029394793 -150000.0000000000 -150000.0000000000 -150000.0000000000 -35000.0000000000 -35000.0000000000
-650735.9029394793 -650735.9029394793 -650735.9029394793 -150000.0000000000 -150000.0000000000 -150000.0000000000 -35000.0000000000 -35000.0000000000
-650735.9029394793 -650735.9029394793 -650735.9029394793 -150000.0000000000 -150000.0000000000 -150000.0000000000 -35000.0000000000 -35000.0000000000
-650735.9029394793 -650735.9029394793 -650735.9029394793 -150000.0000000000 -150000.0000000000 -150000.0000000000 -35000.0000000000 -35000.0000000000
-650735.9029394793 -650735.9029394793 -650735.9029394793 -150000.0000000000 -150000.0000000000 -150000.0000000000 -35000.0000000000 -35000.0000000000
-650735.9029394793 -650735.9029394793 -650735.9029394793 -150000.0000000000 -150000.0000000000 -150000.0000000000 -35000.0000000000 -35000.0000000000
-650735.9029394793 -650735.9029394793 -650735.9029394793 -150000.0000000000 -150000.0000000000 -150000.0000000000 -35000.0000000000 -35000.0000000000
-650735.9029394793 -650735.9029394793 -650735.9029394793 -150000.0000000000 -150000.0000000000 -150000.0000000000 -35000.0000000000 -35000.0000000000
-650735.9029394793 -650735.9029394793 -650735.9029394793 -150000.0000000000 -150000.0000000000 -150000.0000000000 -35000.0000000000 -35000.0000000000
-650735.9029394793 -650735.9029394793 -650735.9029394793 -150000.0000000000 -150000.0000000000 -150000.0000000000 -35000.0000000000 -35000.0000000000
-650735.9029394793 -650735.9029394793 -650735.9029394793 -150000.0000000000 -150000.0000000000 -150000.0000000000 -35000.0000000000 -35000.0000000000
-650735.9029394793 -650735.9029394793 -650735.9029394793 -150000.0000000000 -150000.0000000000 -150000.0000000000 -35000.0000000000 -35000.0000000000
-650735.9029394793 -650735.9029394793 -650735.9029394793 -150000.0000000000 -150000.0000000000 -150000.0000000000 -35000.0000000000 -35000.0000000000
-650735.9029394793 -650735.9029394793 -650735.9029394793 -150000.0000000000 -150000.0000000000 -150000.0000000000 -35000.0000000000 -35000.0000000000
-650735.9029394793 -650735.9029394793 -650735.9029394793 -150000.0000000000 -150000.0000000000 -150000.0000000000 -35000.0000000000 -35000.0000000000
-650735.9029394793 -650735.9029394793 -650735.9029394793 -150000.0000000000 -150000.0000000000 -150000.0000000000 -35000.0000000000 -35000.0000000000
-650735.9029394793 -650735.9029394793 -650735.9029394793 -150000.0000000000 -150000.0000000000 -150000.0000000000 -35000.0000000000 -35000.0000000000
-650735.9029394793 -650735.9029394793 -650735.9029394793 -150000.0000000000 -150000.0000000000 -150000.0000000000 -35000.0000000000 -35000.0000000000
-650735.9029394793 -650735.9029394793 -650735.9029394793 -150000.0000000000 -150000.0000000000 -150000.0000000000 -35000.0000000000 -35000.0000000000
-650735.9029394793 -650735.9029394793 -650735.9029394793 -150000.0000000000 -150000.0000000000 -150000.0000000000 -35000.0000000000 -35000.0000000000
-650735.9029394793 -650735.9029394793 -650735.9029394793 -150000.0000000000 -150000.0000000000 -150000.0000000000 -35000.0000000000 -35000.0000000000
-650735.9029394793 -650735.9029394793 -650735.9029394793 -150000.0000000000 -150000.0000000000 -150000.0000000000 -35000.0000000000 -35000.0000000000
-650735.9029394793 -650735.9029394793 -650735.9029394793 -150000.0000000000 -150000.0000000000 -150000.0000000000 -35000.0000000000 -35000.0000000000
-650735.9029394793 -650735.9029394793 -650735.9029394793 -150000.0000000000 -150000.0000000000 -150000.0000000000 -35000.0000000000 -35000.0000000000
-650735.9029394793 -650735.9029394793 -650735.9029394793 -150000.0000000000 -150000.0000000000 -150000.0000000000 -35000.0000000000 -35000.0000000000
-650735.9029394793 -650735.9029394793 -650735.9029394793 -150000.0000000000 -150000.0000000000 -150000.0000000000 -35000.0000000000 -35000.0000000000
-650735.9029394793 -650735.9029394793 -650735.9029394793 -150000.0000000000 -150000.0000000000 -150000.0000000000 -35000.0000000000 -35000.0000000000
-650735.9029394793 -650735.9029394793 -650735.9029394793 -150000.0000000000 -150000.0000000000 -150000.0000000000 -35000.0000000000 -35000.0000000000
-650735.9029394793 -650735.9029394793 -650735.9029394793 -150000.0000000000 -150000.0000000000 -150000.0000000000 -35000.0000000000 -35000.0000000000
-650735.9029394793 -650735.9029394793 -650735.9029394793 -150000.0000000000 -150000.0000000000 -150000.0000000000 -35000.0000000000 -35000.0000000000
-650735.9029394793 -650735.9029394793 -650735.9029394793 -150000.0000000000 -150000.0000000000 -150000.0000000000 -35000.0000000000 -35000.0000000000
-650735.9029394793 -650735.9029394793 -650735.9029394793 -150000.0000000000 -150000.0000000000 -150000.0000000000 -35000.0000000000 -35000.0000000000
-650735.9029394793 -650735.9029394793 -650735.9029394793 -150000.0000000000 -150000.0000000000 -150000.0000000000 -35000.0000000000 -35000.0000000000
-650735.9029394793 -650735.9029394793 -650735.9029394793 -150000.0000000000 -150000.0000000000 -150000.0000000000 -35000.0000000000 -35000.0000000000
-650735.9029394793 -650735.9029394793 -650735.9029394793 -150000.0000000000 -150000.0000000000 -150000.0000000000 -35000.0000000000 -35000.0000000000
-650735.9029394793 -650735.9029394793 -650735.9029394793 -150000.0000000000 -150000.0000000000 -150000.0000000000 -35000.0000000000 -35000.0000000000
-650735.9029394793 -650735.9029394793 -650735.9029394793 -150000.0000000000 -150000.0000000000 -150000.0000000000 -35000.0000000000 -35000.0000000000
-650735.9029394793 -650735.9029394793 -650735.9029394793 -150000.0000000000 -150000.0000000000 -150000.0000000000 -35000.0000000000 -35000.0000000000
-650735.9029394793 -650735.9029394793 -650735.9029394793 -150000.0000000000 -150000.0000000000 -150000.0000000000 -35000.0000000000 -35000.0000000000
-650735.9029394793 -650735.9029394793 -650735.9029394793 -150000.0000000000 -150000.0000000000 -150000.0000000000 -35000.0000000000 -35000.0000000000
-650735.9029394793 -650735.9029394793 -650735.9029394793 -150000.0000000000 -150000.0000000000 -150000.0000000000 -35000.0000000000 -35000.0000000000
-650735.9029394793 -650735.9029394793 -650735.9029394793 -150000.0000000000 -150000.0000000000 -150000.0000000000 -35000.0000000000 -35000.0000000000
-650735.9029394793 -650735.9029394793 -650735.9029394793 -150000.0000000000 -150000.0000000000 -150000.0000000000 -35000.0000000000 -35000.0000000000
-650735.9029394793 -650735.9029394793 -650735.9029394793 -150000.0000000000 -150000.0000000000 -150000.0000000000 -35000.0000000000 -35000.0000000000
-650735.9029394793 -650735.9029394793 -650735.9029394793 -150000.0000000000 -150000.0000000000 -150000.0000000000 -35000.0000000000 -35000.0000000000
-650735.9029394793 -650735.9029394793 -650735.9029394793 -150000.0000000000 -150000.0000000000 -150000.0000000000 -35000.0000000000 -35000.0000000000
-650735.9029394793 -650735.9029394793 -650735.9029394793 -150000.0000000000 -150000.0000000000 -150000.0000000000 -35000.0000000000 -35000.0000000000
-650735.9029394793 -650735.9029394793 -650735.9029394793 -150000.0000000000 -150000.0000000000 -150000.0000000000 -35000.0000000000 -35000.0000000000
-650735.9029394793 -650735.9029394793 -650735.9029394793 -150000.0000000000 -150000.0000000000 -150000.0000000000 -35000.0000000000 -35000.0000000000
-650735.9029394793 -650735.9029394793 -650735.9029394793 -150000.0000000000 -150000.0000000000 -150000.0000000000 -35000.0000000000 -35000.0000000000
-650735.9029394793 -650735.9029394793 -650735.9029394793 -150000.0000000000 -150000.0000000000 -150000.0000000000 -35000.0000000000 -35000.0000000000
-650735.9029394793 -650735.9029394793 -650735.9029394793 -150000.0000000000 -150000.0000000000 -150000.0000000000 -35000.0000000000 -35000.0000000000
-650735.9029394793 -650735.9029394793 -650735.9029394793 -150000.0000000000 -150000.0000000000 -150000.0000000000 -35000.0000000000 -35000.0000000000
-650735.9029394793 -650735.9029394793 -650735.9029394793 -150000.0000000000 -150000.0000000000 -150000.0000000000 -35000.0000000000 -35000.0000000000
-650735.9029394793 -650735.9029394793 -650735.9029394793 -150000.0000000000 -150000.0000000000 -150000.0000000000 -35000.0000000000 -35000.0000000000
-650735.9029394793 -650735.9029394793 -650735.9029394793 -150000.0000000000 -150000.0000000000 -150000.0000000000 -35000.0000000000 -35000.0000000000
-650735.9029394793 -650735.9029394793 -650735.9029394793 -150000.0000000000 -150000.0000000000 -150000.0000000000 -35000.0000000000 -35000.0000000000
-650735.9029394793 -650735.9029394793 -650735.9029394793 -150000.0000000000 -150000.0000000000 -150000.0000000000 -35000.0000000000 -35000.0000000000
-650735.9029394793 -650735.9029394793 -650735.9029394793 -150000.0000000000 -150000.0000000000 -150000.0000000000 -35000.0000000000 -35000.0000000000
-650735.9029394793 -650735.9029394793 -650735.9029394793 -150000.0000000000 -150000.0000000000 -150000.0000000000 -35000.0000000000 -35000.0000000000
-650735.9029394793 -650735.9029394793 -650735.9029394793 -150000.0000000000 -150000.0000000000 -150000.0000000000 -35000.0000000000 -35000.0000000000
-650735.9029394793 -650735.9029394793 -650735.9029394793 -150000.0000000000 -150000.0000000000 -150000.0000000000 -35000.0000000000 -35000.0000000000
-650735.9029394793 -650735.9029394793 -650735.9029394793 -150000.0000000000 -150000.0000000000 -150000.0000000000 -35000.0000000000 -35000.0000000000
-650735.9029394793 -650735.9029394793 -650735.9029394793 -150000.0000000000 -150000.0000000000 -150000.0000000000 -35000.0000000000 -35000.0000000000
-650735.9029394793 -650735.9029394793 -650735.9029394793 -150000.0000000000 -150000.0000000000 -150000.0000000000 -35000.0000000000 -35000.0000000000
-650735.9029394793 -650735.9029394793 -650735.9029394793 -150000.0000000000 -150000.0000000000 -150000.0000000000 -35000.0000000000 -35000.0000000000
-650735.9029394793 -650735.9029394793 -650735.9029394793 -150000.0000000000 -150000.0000000000 -150000.0000000000 -35000.0000000000 -35000.0000000000
-650735.9029394793 -650735.9029394793 -650735.9029394793 -150000.0000000000 -150000.0000000000 -150000.0000000000 -35000.0000000000 -35000.0000000000
-650735.9029394793 -650735.9029394793 -650735.9029394793 -150000.0000000000 -150000.0000000000 -150000.0000000000 -35000.0000000000 -35000.0000000000
-650735.9029394793 -650735.9029394793 -650735.9029394793 -150000.0000000000 -150000.0000000000 -150000.0000000000 -35000.0000000000 -35000.0000000000
-650735.9029394793 -650735.9029394793 -650735.9029394793 -150000.0000000000 -150000.0000000000 -150000.0000000000 -35000.0000000000 -35000.0000000000
-650735.9029394793 -650735.9029394793 -650735.9029394793 -150000.0000000000 -150000.0000000000 -150000.0000000000 -35000.0000000000 -35000.0000000000
-650735.9029394793 -650735.9029394793 -650735.9029394793 -150000.0000000000 -150000.0000000000 -150000.0000000000 -35000.0000000000 -35000.0000000000
-650735.9029394793 -650735.9029394793 -650735.9029394793 -150000.0000000000 -150000.0000000000 -150000.0000000000 -35000.0000000000 -35000.0000000000
-650735.9029394793 -650735.9029394793 -650735.9029394793 -150000.0000000000 -150000.0000000000 -150000.0000000000 -35000.0000000000 -35000.0000000000
-650735.9029394793 -650735.9029394793 -650735.9029394793 -150000.0000000000 -150000.0000000000 -150000.0000000000 -35000.0000000000 -35000.0000000000
-80000.0000000000 -7000.0000000000 0.0000000000 0.0000000000 0.0000000000 0.0000000000 0.0000000000 0.0000000000
-80000.0000000000 -7000.0000000000 0.0000000000 0.0000000000 0.0000000000 0.0000000000 0.0000000000 0.0000000000
-80000.0000000000 -7000.0000000000 0.0000000000 0.0000000000 0.0000000000 0.0000000000 0.0000000000 0.0000000000
-80000.0000000000 -7000.0000000000 0.0000000000 0.0000000000 0.0000000000 0.0000000000 0.0000000000 0.0000000000
-80000.0000000000 -7000.0000000000 0.0000000000 0.0000000000 0.0000000000 0.0000000000 0.0000000000 0.0000000000
-80000.0000000000 -7000.0000000000 0.0000000000 0.0000000000 0.0000000000 0.0000000000 0.0000000000 0.0000000000
-80000.0000000000 -7000.0000000000 0.0000000000 0.0000000000 0.0000000000 0.0000000000 0.0000000000 0.0000000000
-80000.0000000000 -7000.0000000000 0.0000000000 0.0000000000 0.0000000000 0.0000000000 0.0000000000 0.0000000000
-80000.0000000000 -7000.0000000000 0.0000000000 0.0000000000 0.0000000000 0.0000000000 0.0000000000 0.0000000000
-80000.0000000000 -7000.0000000000 0.0000000000 0.0000000000 0.0000000000 0.0000000000 0.0000000000 0.0000000000
-80000.0000000000 -7000.0000000000 0.0000000000 0.0000000000 0.0000000000 0.0000000000 0.0000000000 0.0000000000
-80000.0000000000 -7000.0000000000 0.0000000000 0.0000000000 0.0000000000 0.0000000000 0.0000000000 0.0000000000
-80000.0000000000 -7000.0000000000 0.0000000000 0.0000000000 0.0000000000 0.0000000000 0.0000000000 0.0000000000
-80000.0000000000 -7000.0000000000 0.0000000000 0.0000000000 0.0000000000 0.0000000000 0.0000000000 0.0000000000
-80000.0000000000 -7000.0000000000 0.0000000000 0.0000000000 0.0000000000 0.0000000000 0.0000000000 0.0000000000
-80000.0000000000 -7000.0000000000 0.0000000000 0.0000000000 0.0000000000 0.0000000000 0.0000000000 0.0000000000
-80000.0000000000 -7000.0000000000 0.0000000000 0.0000000000 0.0000000000 0.0000000000 0.0000000000 0.0000000000
-80000.0000000000 -7000.0000000000 0.0000000000 0.0000000000 0.0000000000 0.0000000000 0.0000000000 0.0000000000
-80000.0000000000 -7000.0000000000 0.0000000000 0.0000000000 0.0000000000 0.0000000000 0.0000000000 0.0000000000
-80000.0000000000 -7000.0000000000 0.0000000000 0.0000000000 0.0000000000 0.0000000000 0.0000000000 0.0000000000
-80000.0000000000 -7000.0000000000 0.0000000000 0.0000000000 0.0000000000 0.0000000000 0.0000000000 0.0000000000
-80000.0000000000 -7000.0000000000 0.0000000000 0.0000000000 0.0000000000 0.0000000000 0.0000000000 0.0000000000
-80000.0000000000 -7000.0000000000 0.0000000000 0.0000000000 0.0000000000 0.0000000000 0.0000000000 0.0000000000
-80000.0000000000 -7000.0000000000 0.0000000000 0.0000000000 0.0000000000 0.0000000000 0.0000000000 0.0000000000
-80000.0000000000 -7000.0000000000 0.0000000000 0.0000000000 0.0000000000 0.0000000000 0.0000000000 0.0000000000
-80000.0000000000 -7000.0000000000 0.0000000000 0.0000000000 0.0000000000 0.0000000000 0.0000000000 0.0000000000
-80000.0000000000 -7000.0000000000 0.0000000000 0.0000000000 0.0000000000 0.0000000000 0.0000000000 0.0000000000
-80000.0000000000 -7000.0000000000 0.0000000000 0.0000000000 0.0000000000 0.0000000000 0.0000000000 0.0000000000
-80000.0000000000 -7000.0000000000 0.0000000000 0.0000000000 0.0000000000 0.0000000000 0.0000000000 0.0000000000
-80000.0000000000 -7000.0000000000 0.0000000000 0.0000000000 0.0000000000 0.0000000000 0.0000000000 0.0000000000
-80000.0000000000 -7000.0000000000 0.0000000000 0.0000000000 0.0000000000 0.0000000000 0.0000000000 0.0000000000
-80000.0000000000 -7000.0000000000 0.0000000000 0.0000000000 0.0000000000 0.0000000000 0.0000000000 0.0000000000
-80000.0000000000 -7000.0000000000 0.0000000000 0.0000000000 0.0000000000 0.0000000000 0.0000000000 0.0000000000
-80000.0000000000 -7000.0000000000 0.0000000000 0.0000000000 0.0000000000 0.0000000000 0.0000000000 0.0000000000
-80000.0000000000 -7000.0000000000 0.0000000000 0.0000000000 0.0000000000 0.0000000000 0.0000000000 0.0000000000
-80000.0000000000 -7000.0000000000 0.0000000000 0.0000000000 0.0000000000 0.0000000000 0.0000000000 0.0000000000
-80000.0000000000 -7000.0000000000 0.0000000000 0.0000000000 0.0000000000 0.0000000000 0.0000000000 0.0000000000
-80000.0000000000 -7000.0000000000 0.0000000000 0.0000000000 0.0000000000 0.0000000000 0.0000000000 0.0000000000
-80000.0000000000 -7000.0000000000 0.0000000000 0.0000000000 0.0000000000 0.0000000000 0.0000000000 0.0000000000
-80000.0000000000 -7000.0000000000 0.0000000000 0.0000000000 0.0000000000 0.0000000000 0.0000000000 0.0000000000
-80000.0000000000 -7000.0000000000 0.0000000000 0.0000000000 0.0000000000 0.0000000000 0.0000000000 0.0000000000
-80000.0000000000 -7000.0000000000 0.0000000000 0.0000000000 0.0000000000 0.0000000000 0.0000000000 0.0000000000
-80000.0000000000 -7000.0000000000 0.0000000000 0.0000000000 0.0000000000 0.0000000000 0.0000000000 0.0000000000
-80000.0000000000 -7000.0000000000 0.0000000000 0.0000000000 0.0000000000 0.0000000000 0.0000000000 0.0000000000
-80000.0000000000 -7000.0000000000 0.0000000000 0.0000000000 0.0000000000 0.0000000000 0.0000000000 0.0000000000
-80000.0000000000 -7000.0000000000 0.0000000000 0.0000000000 0.0000000000 0.0000000000 0.0000000000 0.0000000000
-80000.0000000000 -7000.0000000000 0.0000000000 0.0000000000 0.0000000000 0.0000000000 0.0000000000 0.0000000000
-79830.7478020746 -6784.4947139023 0.0000000000 0.0000000000 0.0000000000 0.0000000000 0.0000000000 0.0000000000
-79471.5553980087 -6467.5864581606 0.0000000000 0.0000000000 0.0000000000 0.0000000000 0.0000000000 0.0000000000
-79477.0301652010 -6471.4677028339 0.0000000000 0.0000000000 0.0000000000 0.0000000000 0.0000000000 0.0000000000
-79824.9225551009 -6783.7816157227 0.0000000000 0.0000000000 0.0000000000 0.0000000000 0.0000000000 0.0000000000
-80499.6646232322 -7390.4474125286 -379.9543146843 -379.9543146843 0.0000000000 0.0000000000 0.0000000000 0.0000000000
-81481.5071075951 -8278.3121345227 -1260.3091210299 -1260.3091210299 0.0000000000 0.0000000000 0.0000000000 0.0000000000
-82755.7393431242 -9435.8712263257 -2407.5024827034 -2407.5024827034 0.0000000000 0.0000000000 0.0000000000 0.0000000000
-84306.8659620283 -10852.2341407155 -3811.8849459727 -3811.8849459727 0.0000000000 0.0000000000 0.0000000000 0.0000000000
-86120.5147514632 -12514.5360068459 -5461.1798191223 -5461.1798191223 0.0000000000 0.0000000000 0.0000000000 0.0000000000
-88183.5953699489 -14414.6631491023 -7346.4534134120 -7346.4534134120 0.0000000000 0.0000000000 0.0000000000 0.0000000000
-90483.9157458097 -16540.5333823857 -9456.7853957156 -9456.7853957156 0.0000000000 0.0000000000 0.0000000000 0.0000000000
-93010.1550761215 -18884.4322811330 -11784.2085590240 -11784.2085590240 0.0000000000 0.0000000000 0.0000000000 0.0000000000
-95751.8372717133 -21436.3431188358 -14318.8026358170 -14318.8026358170 0.0000000000 0.0000000000 0.0000000000 0.0000000000
-98699.3052552749 -24188.7681768539 -17053.6636013860 -17053.6636013860 0.0000000000 0.0000000000 0.0000000000 0.0000000000
-101843.6964207446 -27133.5272726502 -19979.8805036955 -19979.8805036955 0.0000000000 0.0000000000 0.0000000000 0.0000000000
-105176.9194793198 -30263.5301353058 -23091.6051654513 -23091.6051654513 0.0000000000 0.0000000000 0.0000000000 0.0000000000
-108691.6328494267 -33572.2540887388 -26380.9413699957 -26380.9413699957 0.0000000000 0.0000000000 0.0000000000 0.0000000000
-112381.2246931186 -37053.1619106813 -29843.0932825490 -29843.0932825490 0.0000000000 0.0000000000 0.0000000000 0.0000000000
-116239.7946578659 -40701.2522346033 -33471.1810117379 -33471.1810117379 0.0000000000 0.0000000000 0.0000000000 0.0000000000
-120262.3539764008 -44510.6483360860 -37261.4613903841 -37261.4613903841 0.0000000000 0.0000000000 0.0000000000 0.0000000000
-124444.4652197940 -48477.7704557567 -41208.0686123196 -41208.0686123196 0.0000000000 0.0000000000 0.0000000000 0.0000000000
-128781.9828687437 -52597.4777159708 -45308.3163330379 -45308.3163330379 0.0000000000 0.0000000000 0.0000000000 0.0000000000
-133271.7039186190 -56867.5432531330 -49557.3467615139 -49557.3467615139 0.0000000000 0.0000000000 0.0000000000 0.0000000000
-137911.0725244265 -61283.6103528761 -53953.5383609675 -53953.5383609675 0.0000000000 0.0000000000 0.0000000000 0.0000000000
-142698.1715569559 -65844.7627298462 -58493.0314554682 -58493.0314554682 0.0000000000 0.0000000000 0.0000000000 0.0000000000
-147632.1702914014 -70547.5318704449 -63175.2811310051 -63175.2811310051 -114.9116870816 -114.9116870816 -114.9116870816 0.0000000000
-152712.1343623047 -75392.0564740463 -67997.4120967069 -67997.4120967069 -4757.7588756692 -4757.7588756692 -4757.7588756692 0.0000000000
-157937.8632693488 -80376.0468159391 -72959.9717063605 -72959.9717063605 -9537.0534627033 -9537.0534627033 -9537.0534627033 0.0000000000
-163309.9437692456 -85500.4711762362 -78061.0514941325 -78061.0514941325 -14451.4128404319 -14451.4128404319 -14451.4128404319 0.0000000000
-168829.5805917449 -90764.3532992720 -83302.3105566172 -83302.3105566172 -19500.1980818743 -19500.1980818743 -19500.1980818743 0.0000000000
-174499.1195892642 -96169.4615763118 -88682.7858630204 -88682.7858630204 -24684.2783830476 -24684.2783830476 -24684.2783830476 0.0000000000
-180320.6372594368 -101716.1114499246 -94205.2715577375 -94205.2715577375 -30003.4452414661 -30003.4452414661 -30003.4452414661 0.0000000000
-186297.0550935760 -107406.8842635790 -99869.7694791891 -99869.7694791891 -35458.3781671355 -35000.0000000000 -35000.0000000000 0.0000000000
-192432.0571619248 -113243.3817315182 -105680.1019920568 -105680.1019920568 -41050.8026219661 -35000.0000000000 -35000.0000000000 0.0000000000
-198729.9514264637 -119228.9957885979 -111637.3443653122 -111637.3443653122 -46782.7579787930 -35000.0000000000 -35000.0000000000 0.0000000000
-205196.1281875423 -125366.6251267371 -117746.3225482874 -117746.3225482874 -52655.7717401419 -35000.0000000000 -35000.0000000000 0.0000000000
-211835.9386900421 -131660.4544740768 -124009.1688707865 -124009.1688707865 -58672.5241248195 -35000.0000000000 -35000.0000000000 0.0000000000
-218655.3677561383 -138114.7066564106 -130431.7273215193 -130431.7273215193 -64837.0307736677 -35000.0000000000 -35000.0000000000 0.0000000000
-225661.2585472902 -144734.3252250144 -137017.1747513838 -137017.1747513838 -71152.4576799670 -35000.0000000000 -35000.0000000000 0.0000000000
-232861.0981804842 -151524.9014789450 -143772.3838132154 -143772.3838132154 -77622.2777991872 -35000.0000000000 -35000.0000000000 0.0000000000
-240263.0221148641 -158492.0865342888 -150701.5671692545 -150000.0000000000 -84251.4708471447 -35000.0000000000 -35000.0000000000 0.0000000000
-247876.0803014865 -165642.9027043851 -157812.6329312170 -150000.0000000000 -91045.4401557743 -35000.0000000000 -35000.0000000000 0.0000000000
-255709.8102874690 -172983.6387628386 -165110.8246929198 -150000.0000000000 -98009.0625359593 -35000.0000000000 -35000.0000000000 0.0000000000
-263773.9648269034 -180522.8299372400 -172605.0889897384 -150000.0000000000 -105147.7130844419 -35000.0000000000 -35000.0000000000 0.0000000000
-272079.3058281436 -188267.3126539418 -180301.6992972845 -150000.0000000000 -112468.2302744209 -35000.0000000000 -35000.0000000000 0.0000000000
-280637.2571798304 -196227.2374476994 -188210.6397093750 -150000.0000000000 -119977.8206120147 -35000.0000000000 -35000.0000000000 0.0000000000
-289459.9047586659 -204409.8769357154 -196339.2163636228 -150000.0000000000 -127682.8284438332 -35000.0000000000 -35000.0000000000 0.0000000000
-298559.9950949476 -212827.1207824539 -204698.4462170931 -150000.0000000000 -135590.9524921342 -35000.0000000000 -35000.0000000000 0.0000000000
-307950.9325583652 -221486.6873518420 -213296.6746795852 -150000.0000000000 -143709.8258851453 -35000.0000000000 -35000.0000000000 0.0000000000
-317646.7749529345 -230401.9205900387 -222145.9430462340 -150000.0000000000 -150000.0000000000 -150000.0000000000 -35000.0000000000 -35000.0000000000
-327662.2274423642 -239581.5019109620 -231255.6464392041 -150000.0000000000 -150000.0000000000 -150000.0000000000 -35000.0000000000 -35000.0000000000
-338012.6347651967 -249039.5224809806 -240638.8381365240 -150000.0000000000 -150000.0000000000 -150000.0000000000 -35000.0000000000 -35000.0000000000
-348713.9717420871 -258786.2637037844 -250305.9772428811 -150000.0000000000 -150000.0000000000 -150000.0000000000 -35000.0000000000 -35000.0000000000
-359782.8321243154 -268836.2518981149 -260271.1128340536 -150000.0000000000 -150000.0000000000 -150000.0000000000 -35000.0000000000 -35000.0000000000
-371236.4405546021 -279201.5194187500 -270545.7860973968 -150000.0000000000 -150000.0000000000 -150000.0000000000 -35000.0000000000 -35000.0000000000
-383092.8225765982 -289896.8632571053 -281145.0218912953 -150000.0000000000 -150000.0000000000 -150000.0000000000 -35000.0000000000 -35000.0000000000
-395370.1091070019 -300936.2363629377 -292081.4654159076 -150000.0000000000 -150000.0000000000 -150000.0000000000 -35000.0000000000 -35000.0000000000
-408087.2428907896 -312334.5230342256 -303371.0934670990 -150000.0000000000 -150000.0000000000 -150000.0000000000 -35000.0000000000 -35000.0000000000
-421263.7125350431 -324107.7823386934 -315027.6810179434 -150000.0000000000 -150000.0000000000 -150000.0000000000 -35000.0000000000 -35000.0000000000
-434919.5351186607 -336270.7870062745 -327068.1291266890 -150000.0000000000 -150000.0000000000 -150000.0000000000 -35000.0000000000 -35000.0000000000
-449075.2386778590 -348841.9000251455 -339507.3721294163 -150000.0000000000 -150000.0000000000 -150000.0000000000 -35000.0000000000 -35000.0000000000
-463751.8448967760 -361835.5724351821 -352363.2038416604 -150000.0000000000 -150000.0000000000 -150000.0000000000 -35000.0000000000 -35000.0000000000
-478970.8523291986 -375272.6769724106 -365651.7513826077 -150000.0000000000 -150000.0000000000 -150000.0000000000 -35000.0000000000 -35000.0000000000
-494754.2204618021 -389167.1265609013 -379391.6659899930 -150000.0000000000 -150000.0000000000 -150000.0000000000 -35000.0000000000 -35000.0000000000
-511124.3549025362 -403542.5128407628 -393600.3048161774 -150000.0000000000 -150000.0000000000 -150000.0000000000 -35000.0000000000 -35000.0000000000
-528104.0939407287 -418412.6635761076 -408297.1373560354 -150000.0000000000 -150000.0000000000 -150000.0000000000 -35000.0000000000 -35000.0000000000
-545716.6966805453 -433802.0858858661 -423500.7918751612 -150000.0000000000 -150000.0000000000 -150000.0000000000 -35000.0000000000 -35000.0000000000
-563985.8328986468 -449726.4875422582 -439231.5131305167 -150000.0000000000 -150000.0000000000 -150000.0000000000 -35000.0000000000 -35000.0000000000
-582935.5747231382 -466210.3208307205 -455509.2454109688 -150000.0000000000 -150000.0000000000 -150000.0000000000 -35000.0000000000 -35000.0000000000
-602590.5647115710 -483271.5543068475 -472354.9619105399 -150000.0000000000 -150000.0000000000 -150000.0000000000 -35000.0000000000 -35000.0000000000
-622977.7258475656 -500934.3601406108 -489789.9716813908 -150000.0000000000 -150000.0000000000 -150000.0000000000 -35000.0000000000 -35000.0000000000
-644120.4911136824 -519219.1019273591 -507835.9256995832 -150000.0000000000 -150000.0000000000 -150000.0000000000 -35000.0000000000 -35000.0000000000
-666044.5329004070 -538149.5403446702 -526515.5503505885 -150000.0000000000 -150000.0000000000 -150000.0000000000 -35000.0000000000 -35000.0000000000
-688775.9112850308 -557748.5522722445 -545851.1199075024 -150000.0000000000 -150000.0000000000 -150000.0000000000 -35000.0000000000 -35000.0000000000
-683558.4303321415 -578039.3744912533 -565866.8344891017 -150000.0000000000 -150000.0000000000 -150000.0000000000 -35000.0000000000 -35000.0000000000
-675129.4299744985 -599047.4970045902 -586585.5333505291 -150000.0000000000 -150000.0000000000 -150000.0000000000 -35000.0000000000 -35000.0000000000
-666700.4296168552 -620795.5411815938 -608032.9505738482 -150000.0000000000 -150000.0000000000 -150000.0000000000 -35000.0000000000 -35000.0000000000
-658271.4292592122 -643311.6901199892 -630232.4282512704 -150000.0000000000 -150000.0000000000 -150000.0000000000 -35000.0000000000 -35000.0000000000
-650735.9029394793 -650735.9029394793 -650735.9029394793 -150000.0000000000 -150000.0000000000 -150000.0000000000 -35000.0000000000 -35000.0000000000
-650735.9029394793 -650735.9029394793 -650735.9029394793 -150000.0000000000 -150000.0000000000 -150000.0000000000 -35000.0000000000 -35000.0000000000
-650735.9029394793 -650735.9029394793 -650735.9029394793 -150000.0000000000 -150000.0000000000 -150000.0000000000 -35000.0000000000 -35000.0000000000
-650735.9029394793 -650735.9029394793 -650735.9029394793 -150000.0000000000 -150000.0000000000 -150000.0000000000 -35000.0000000000 -35000.0000000000
-650735.9029394793 -650735.9029394793 -650735.9029394793 -150000.0000000000 -150000.0000000000 -150000.0000000000 -35000.0000000000 -35000.0000000000
-650735.9029394793 -650735.9029394793 -650735.9029394793 -150000.0000000000 -150000.0000000000 -150000.0000000000 -35000.0000000000 -35000.0000000000
-650735.9029394793 -650735.9029394793 -650735.9029394793 -150000.0000000000 -150000.0000000000 -150000.0000000000 -35000.0000000000 -35000.0000000000
-650735.9029394793 -650735.9029394793 -650735.9029394793 -150000.0000000000 -150000.0000000000 -150000.0000000000 -35000.0000000000 -35000.0000000000
-650735.9029394793 -650735.9029394793 -650735.9029394793 -150000.0000000000 -150000.0000000000 -150000.0000000000 -35000.0000000000 -35000.0000000000
-650735.9029394793 -650735.9029394793 -650735.9029394793 -150000.0000000000 -150000.0000000000 -150000.0000000000 -35000.0000000000 -35000.0000000000
-650735.9029394793 -650735.9029394793 -650735.9029394793 -150000.0000000000 -150000.0000000000 -150000.0000000000 -35000.0000000000 -35000.0000000000
-650735.9029394793 -650735.9029394793 -650735.9029394793 -150000.0000000000 -150000.0000000000 -150000.0000000000 -35000.0000000000 -35000.0000000000
-650735.9029394793 -650735.9029394793 -650735.9029394793 -150000.0000000000 -150000.0000000000 -150000.0000000000 -35000.0000000000 -35000.0000000000
-650735.9029394793 -650735.9029394793 -650735.9029394793 -150000.0000000000 -150000.0000000000 -150000.0000000000 -35000.0000000000 -35000.0000000000
-650735.9029394793 -650735.9029394793 -650735.9029394793 -150000.0000000000 -150000.0000000000 -150000.0000000000 -35000.0000000000 -35000.0000000000
-650735.9029394793 -650735.9029394793 -650735.9029394793 -150000.0000000000 -150000.0000000000 -150000.0000000000 -35000.0000000000 -35000.0000000000
-650735.9029394793 -650735.9029394793 -650735.9029394793 -150000.0000000000 -150000.0000000000 -150000.0000000000 -35000.0000000000 -35000.0000000000
-650735.9029394793 -650735.9029394793 -650735.9029394793 -150000.0000000000 -150000.0000000000 -150000.0000000000 -35000.0000000000 -35000.0000000000
-650735.9029394793 -650735.9029394793 -650735.9029394793 -150000.0000000000 -150000.0000000000 -150000.0000000000 -35000.0000000000 -35000.0000000000
-650735.9029394793 -650735.9029394793 -650735.9029394793 -150000.0000000000 -150000.0000000000 -150000.0000000000 -35000.0000000000 -35000.0000000000
-650735.9029394793 -650735.9029394793 -650735.9029394793 -150000.0000000000 -150000.0000000000 -150000.0000000000 -35000.0000000000 -35000.0000000000
-650735.9029394793 -650735.9029394793 -650735.9029394793 -150000.0000000000 -150000.0000000000 -150000.0000000000 -35000.0000000000 -35000.0000000000
-650735.9029394793 -650735.9029394793 -650735.9029394793 -150000.0000000000 -150000.0000000000 -150000.0000000000 -35000.0000000000 -35000.0000000000
-650735.9029394793 -650735.9029394793 -650735.9029394793 -150000.0000000000 -150000.0000000000 -150000.0000000000 -35000.0000000000 -35000.0000000000
-650735.9029394793 -650735.9029394793 -650735.9029394793 -150000.0000000000 -150000.0000000000 -150000.0000000000 -35000.0000000000 -35000.0000000000
-650735.9029394793 -650735.9029394793 -650735.9029394793 -150000.0000000000 -150000.0000000000 -150000.0000000000 -35000.0000000000 -35000.0000000000
-650735.9029394793 -650735.9029394793 -650735.9029394793 -150000.0000000000 -150000.0000000000 -150000.0000000000 -35000.0000000000 -35000.0000000000
-650735.9029394793 -650735.9029394793 -650735.9029394793 -150000.0000000000 -150000.0000000000 -150000.0000000000 -35000.0000000000 -35000.0000000000
-650735.9029394793 -650735.9029394793 -650735.9029394793 -150000.0000000000 -150000.0000000000 -150000.0000000000 -35000.0000000000 -35000.0000000000
-650735.9029394793 -650735.9029394793 -650735.9029394793 -150000.0000000000 -150000.0000000000 -150000.0000000000 -35000.0000000000 -35000.0000000000
-650735.9029394793 -650735.9029394793 -650735.9029394793 -150000.0000000000 -150000.0000000000 -150000.0000000000 -35000.0000000000 -35000.0000000000
-650735.9029394793 -650735.9029394793 -650735.9029394793 -150000.0000000000 -150000.0000000000 -150000.0000000000 -35000.0000000000 -35000.0000000000
-650735.9029394793 -650735.9029394793 -650735.9029394793 -150000.0000000000 -150000.0000000000 -150000.0000000000 -35000.0000000000 -35000.0000000000
-650735.9029394793 -650735.9029394793 -650735.9029394793 -150000.0000000000 -150000.0000000000 -150000.0000000000 -35000.0000000000 -35000.0000000000
-650735.9029394793 -650735.9029394793 -650735.9029394793 -150000.0000000000 -150000.0000000000 -150000.0000000000 -35000.0000000000 -35000.0000000000
-650735.9029394793 -650735.9029394793 -650735.9029394793 -150000.0000000000 -150000.0000000000 -150000.0000000000 -35000.0000000000 -35000.0000000000
-650735.9029394793 -650735.9029394793 -650735.9029394793 -150000.0000000000 -150000.0000000000 -150000.0000000000 -35000.0000000000 -35000.0000000000
-650735.9029394793 -650735.9029394793 -650735.9029394793 -150000.0000000000 -150000.0000000000 -150000.0000000000 -35000.0000000000 -35000.0000000000
-650735.9029394793 -650735.9029394793 -650735.9029394793 -150000.0000000000 -150000.0000000000 -150000.0000000000 -35000.0000000000 -35000.0000000000
-650735.9029394793 -650735.9029394793 -650735.9029394793 -150000.0000000000 -150000.0000000000 -150000.0000000000 -35000.0000000000 -35000.0000000000
-650735.9029394793 -650735.9029394793 -650735.9029394793 -150000.0000000000 -150000.0000000000 -150000.0000000000 -35000.0000000000 -35000.0000000000
-650735.9029394793 -650735.9029394793 -650735.9029394793 -150000.0000000000 -150000.0000000000 -150000.0000000000 -35000.0000000000 -35000.0000000000
-650735.9029394793 -650735.9029394793 -650735.9029394793 -150000.0000000000 -150000.0000000000 -150000.0000000000 -35000.0000000000 -35000.0000000000
-650735.9029394793 -650735.9029394793 -650735.9029394793 -150000.0000000000 -150000.0000000000 -150000.0000000000 -35000.0000000000 -35000.0000000000
-650735.9029394793 -650735.9029394793 -650735.9029394793 -150000.0000000000 -150000.0000000000 -150000.0000000000 -35000.0000000000 -35000.0000000000
-650735.9029394793 -650735.9029394793 -650735.9029394793 -150000.0000000000 -150000.0000000000 -150000.0000000000 -35000.0000000000 -35000.0000000000
-650735.9029394793 -650735.9029394793 -650735.9029394793 -150000.0000000000 -150000.0000000000 -150000.0000000000 -35000.0000000000 -35000.0000000000
-650735.9029394793 -650735.9029394793 -650735.9029394793 -150000.0000000000 -150000.0000000000 -150000.0000000000 -35000.0000000000 -35000.0000000000
-650735.9029394793 -650735.9029394793 -650735.9029394793 -150000.0000000000 -150000.0000000000 -150000.0000000000 -35000.0000000000 -35000.0000000000
-650735.9029394793 -650735.9029394793 -650735.9029394793 -150000.0000000000 -150000.0000000000 -150000.0000000000 -35000.0000000000 -35000.0000000000
-650735.9029394793 -650735.9029394793 -650735.9029394793 -150000.0000000000 -150000.0000000000 -150000.0000000000 -35000.0000000000 -35000.0000000000
-650735.9029394793 -650735.9029394793 -650735.9029394793 -150000.0000000000 -150000.0000000000 -150000.0000000000 -35000.0000000000 -35000.0000000000
-650735.9029394793 -650735.9029394793 -650735.9029394793 -150000.0000000000 -150000.0000000000 -150000.0000000000 -35000.0000000000 -35000.0000000000
-650735.9029394793 -650735.9029394793 -650735.9029394793 -150000.0000000000 -150000.0000000000 -150000.0000000000 -35000.0000000000 -35000.0000000000
-650735.9029394793 -650735.9029394793 -650735.9029394793 -150000.0000000000 -150000.0000000000 -150000.0000000000 -35000.0000000000 -35000.0000000000
-650735.9029394793 -650735.9029394793 -650735.9029394793 -150000.0000000000 -150000.0000000000 -150000.0000000000 -35000.0000000000 -35000.0000000000
-650735.9029394793 -650735.9029394793 -650735.9029394793 -150000.0000000000 -150000.0000000000 -150000.0000000000 -35000.0000000000 -35000.0000000000
-650735.9029394793 -650735.9029394793 -650735.9029394793 -150000.0000000000 -150000.0000000000 -150000.0000000000 -35000.0000000000 -35000.0000000000
-650735.9029394793 -650735.9029394793 -650735.9029394793 -150000.0000000000 -150000.0000000000 -150000.0000000000 -35000.0000000000 -35000.0000000000
-650735.9029394793 -650735.9029394793 -650735.9029394793 -150000.0000000000 -150000.0000000000 -150000.0000000000 -35000.0000000000 -35000.0000000000
-650735.9029394793 -650735.9029394793 -650735.9029394793 -150000.0000000000 -150000.0000000000 -150000.0000000000 -35000.0000000000 -35000.0000000000
-650735.9029394793 -650735.9029394793 -650735.9029394793 -150000.0000000000 -150000.0000000000 -150000.0000000000 -35000.0000000000 -35000.0000000000
-650735.9029394793 -650735.9029394793 -650735.9029394793 -150000.0000000000 -150000.0000000000 -150000.0000000000 -35000.0000000000 -35000.0000000000
-650735.9029394793 -650735.9029394793 -650735.9029394793 -150000.0000000000 -150000.0000000000 -150000.0000000000 -35000.0000000000 -35000.0000000000
-650735.9029394793 -650735.9029394793 -650735.9029394793 -150000.0000000000 -150000.0000000000 -150000.0000000000 -35000.0000000000 -35000.0000000000
-650735.9029394793 -650735.9029394793 -650735.9029394793 -150000.0000000000 -150000.0000000000 -150000.0000000000 -35000.0000000000 -35000.0000000000
-650735.9029394793 -650735.9029394793 -650735.9029394793 -150000.0000000000 -150000.0000000000 -150000.0000000000 -35000.0000000000 -35000.0000000000
-650735.9029394793 -650735.9029394793 -650735.9029394793 -150000.0000000000 -150000.0000000000 -150000.0000000000 -35000.0000000000 -35000.0000000000
-650735.9029394793 -650735.9029394793 -650735.9029394793 -150000.0000000000 -150000.0000000000 -150000.0000000000 -35000.0000000000 -35000.0000000000
-650735.9029394793 -650735.9029394793 -650735.9029394793 -150000.0000000000 -150000.0000000000 -150000.0000000000 -35000.0000000000 -35000.0000000000
-650735.9029394793 -650735.9029394793 -650735.9029394793 -150000.0000000000 -150000.0000000000 -150000.0000000000 -35000.0000000000 -35000.0000000000
-650735.9029394793 -650735.9029394793 -650735.9029394793 -150000.0000000000 -150000.0000000000 -150000.0000000000 -35000.0000000000 -35000.0000000000
-650735.9029394793 -650735.9029394793 -650735.9029394793 -150000.0000000000 -150000.0000000000 -150000.0000000000 -35000.0000000000 -35000.0000000000
-650735.9029394793 -650735.9029394793 -650735.9029394793 -150000.0000000000 -150000.0000000000 -150000.0000000000 -35000.0000000000 -35000.0000000000
-650735.9029394793 -650735.9029394793 -650735.9029394793 -150000.0000000000 -150000.0000000000 -150000.0000000000 -35000.0000000000 -35000.0000000000
-650735.9029394793 -650735.9029394793 -650735.9029394793 -150000.0000000000 -150000.0000000000 -150000.0000000000 -35000.0000000000 -35000.0000000000
-650735.9029394793 -650735.9029394793 -650735.9029394793 -150000.0000000000 -150000.0000000000 -150000.0000000000 -35000.0000000000 -35000.0000000000
-650735.9029394793 -650735.9029394793 -650735.9029394793 -150000.0000000000 -150000.0000000000 -150000.0000000000 -35000.0000000000 -35000.0000000000
-650735.9029394793 -650735.9029394793 -650735.9029394793 -150000.0000000000 -150000.0000000000 -150000.0000000000 -35000.0000000000 -35000.0000000000
-650735.9029394793 -650735.9029394793 -650735.9029394793 -150000.0000000000 -150000.0000000000 -150000.0000000000 -35000.0000000000 -35000.0000000000
-650735.9029394793 -650735.9029394793 -650735.9029394793 -150000.0000000000 -150000.0000000000 -150000.0000000000 -35000.0000000000 -35000.0000000000
-650735.9029394793 -650735.9029394793 -650735.9029394793 -150000.0000000000 -150000.0000000000 -150000.0000000000 -35000.0000000000 -35000.0000000000
-650735.9029394793 -650735.9029394793 -650735.9029394793 -150000.0000000000 -150000.0000000000 -150000.0000000000 -35000.0000000000 -35000.0000000000
-650735.9029394793 -650735.9029394793 -650735.9029394793 -150000.0000000000 -150000.0000000000 -150000.0000000000 -35000.0000000000 -35000.0000000000
-650735.9029394793 -650735.9029394793 -650735.9029394793 -150000.0000000000 -150000.0000000000 -150000.0000000000 -35000.0000000000 -35000.0000000000
-650735.9029394793 -650735.9029394793 -650735.9029394793 -150000.0000000000 -150000.0000000000 -150000.0000000000 -35000.0000000000 -35000.0000000000
-650735.9029394793 -650735.9029394793 -650735.9029394793 -150000.0000000000 -150000.0000000000 -150000.0000000000 -35000.0000000000 -35000.0000000000
-650735.9029394793 -650735.9029394793 -650735.9029394793 -150000.0000000000 -150000.0000000000 -150000.0000000000 -35000.0000000000 -35000.0000000000
-650735.9029394793 -650735.9029394793 -650735.9029394793 -150000.0000000000 -150000.0000000000 -150000.0000000000 -35000.0000000000 -35000.0000000000
-650735.9029394793 -650735.9029394793 -650735.9029394793 -150000.0000000000 -150000.0000000000 -150000.0000000000 -35000.0000000000 -35000.0000000000
-650735.9029394793 -650735.9029394793 -650735.9029394793 -150000.0000000000 -150000.0000000000 -150000.0000000000 -35000.0000000000 -35000.0000000000
-650735.9029394793 -650735.9029394793 -650735.9029394793 -150000.0000000000 -150000.0000000000 -150000.0000000000 -35000.0000000000 -35000.0000000000
-650735.9029394793 -650735.9029394793 -650735.9029394793 -150000.0000000000 -150000.0000000000 -150000.0000000000 -35000.0000000000 -35000.0000000000
-650735.9029394793 -650735.9029394793 -650735.9029394793 -150000.0000000000 -150000.0000000000 -150000.0000000000 -35000.0000000000 -35000.0000000000
-650735.9029394793 -650735.9029394793 -650735.9029394793 -150000.0000000000 -150000.0000000000 -150000.0000000000 -35000.0000000000 -35000.0000000000
-650735.9029394793 -650735.9029394793 -650735.9029394793 -150000.0000000000 -150000.0000000000 -150000.0000000000 -35000.0000000000 -35000.0000000000
-650735.9029394793 -650735.9029394793 -650735.9029394793 -150000.0000000000 -150000.0000000000 -150000.0000000000 -35000.0000000000 -35000.0000000000
-650735.9029394793 -650735.9029394793 -650735.9029394793 -150000.0000000000 -150000.0000000000 -150000.0000000000 -35000.0000000000 -35000.0000000000
-650735.9029394793 -650735.9029394793 -650735.9029394793 -150000.0000000000 -150000.0000000000 -150000.0000000000 -35000.0000000000 -35000.0000000000
-650735.9029394793 -650735.9029394793 -650735.9029394793 -150000.0000000000 -150000.0000000000 -150000.0000000000 -35000.0000000000 -35000.0000000000
-650735.9029394793 -650735.9029394793 -650735.9029394793 -150000.0000000000 -150000.0000000000 -150000.0000000000 -35000.0000000000 -35000.0000000000
-650735.9029394793 -650735.9029394793 -650735.9029394793 -150000.0000000000 -150000.0000000000 -150000.0000000000 -35000.0000000000 -35000.0000000000
-650735.9029394793 -650735.9029394793 -650735.9029394793 -150000.0000000000 -150000.0000000000 -150000.0000000000 -35000.0000000000 -35000.0000000000
-650735.9029394793 -650735.9029394793 -650735.9029394793 -150000.0000000000 -150000.0000000000 -150000.0000000000 -35000.0000000000 -35000.0000000000
-650735.9029394793 -650735.9029394793 -650735.9029394793 -150000.0000000000 -150000.0000000000 -150000.0000000000 -35000.0000000000 -35000.0000000000
-650735.9029394793 -650735.9029394793 -650735.9029394793 -150000.0000000000 -150000.0000000000 -150000.0000000000 -35000.0000000000 -35000.0000000000
-650735.9029394793 -650735.9029394793 -650735.9029394793 -150000.0000000000 -150000.0000000000 -150000.0000000000 -35000.0000000000 -35000.0000000000
-650735.9029394793 -650735.9029394793 -650735.9029394793 -150000.0000000000 -150000.0000000000 -150000.0000000000 -35000.0000000000 -35000.0000000000
-650735.9029394793 -650735.9029394793 -650735.9029394793 -150000.0000000000 -150000.0000000000 -150000.0000000000 -35000.0000000000 -35000.0000000000
-650735.9029394793 -650735.9029394793 -650735.9029394793 -150000.0000000000 -150000.0000000000 -150000.0000000000 -35000.0000000000 -35000.0000000000
-650735.9029394793 -650735.9029394793 -650735.9029394793 -150000.0000000000 -150000.0000000000 -150000.0000000000 -35000.0000000000 -35000.0000000000
-650735.9029394793 -650735.9029394793 -650735.9029394793 -150000.0000000000 -150000.0000000000 -150000.0000000000 -35000.0000000000 -35000.0000000000
-650735.9029394793 -650735.9029394793 -650735.9029394793 -150000.0000000000 -150000.0000000000 -150000.0000000000 -35000.0000000000 -35000.0000000000
-650735.9029394793 -650735.9029394793 -650735.9029394793 -150000.0000000000 -150000.0000000000 -150000.0000000000 -35000.0000000000 -35000.0000000000
-650735.9029394793 -650735.9029394793 -650735.9029394793 -150000.0000000000 -150000.0000000000 -150000.0000000000 -35000.0000000000 -35000.0000000000
-650735.9029394793 -650735.9029394793 -650735.9029394793 -150000.0000000000 -150000.0000000000 -150000.0000000000 -35000.0000000000 -35000.0000000000
-650735.9029394793 -650735.9029394793 -650735.9029394793 -150000.0000000000 -150000.0000000000 -150000.0000000000 -35000.0000000000 -35000.0000000000
-650735.9029394793 -650735.9029394793 -650735.9029394793 -150000.0000000000 -150000.0000000000 -150000.0000000000 -35000.0000000000 -35000.0000000000
-650735.9029394793 -650735.9029394793 -650735.9029394793 -150000.0000000000 -150000.0000000000 -150000.0000000000 -35000.0000000000 -35000.0000000000
-650735.9029394793 -650735.9029394793 -650735.9029394793 -150000.0000000000 -150000.0000000000 -150000.0000000000 -35000.0000000000 -35000.0000000000
-650735.9029394793 -650735.9029394793 -650735.9029394793 -150000.0000000000 -150000.0000000000 -150000.0000000000 -35000.0000000000 -35000.0000000000
-650735.9029394793 -650735.9029394793 -650735.9029394793 -150000.0000000000 -150000.0000000000 -150000.0000000000 -35000.0000000000 -35000.0000000000
-650735.9029394793 -650735.9029394793 -650735.9029394793 -150000.0000000000 -150000.0000000000 -150000.0000000000 -35000.0000000000 -35000.0000000000
-650735.9029394793 -650735.9029394793 -650735.9029394793 -150000.0000000000 -150000.0000000000 -150000.0000000000 -35000.0000000000 -35000.0000000000
-650735.9029394793 -650735.9029394793 -650735.9029394793 -150000.0000000000 -150000.0000000000 -150000.0000000000 -35000.0000000000 -35000.0000000000
-650735.9029394793 -650735.9029394793 -650735.9029394793 -150000.0000000000 -150000.0000000000 -150000.0000000000 -35000.0000000000 -35000.0000000000
-650735.9029394793 -650735.9029394793 -650735.9029394793 -150000.0000000000 -150000.0000000000 -150000.0000000000 -35000.0000000000 -35000.0000000000
-650735.9029394793 -650735.9029394793 -650735.9029394793 -150000.0000000000 -150000.0000000000 -150000.0000000000 -35000.0000000000 -35000.0000000000
-650735.9029394793 -650735.9029394793 -650735.9029394793 -150000.0000000000 -150000.0000000000 -150000.0000000000 -35000.0000000000 -35000.0000000000
-650735.9029394793 -650735.9029394793 -650735.9029394793 -150000.0000000000 -150000.0000000000 -150000.0000000000 -35000.0000000000 -35000.0000000000
-650735.9029394793 -650735.9029394793 -650735.9029394793 -150000.0000000000 -150000.0000000000 -150000.0000000000 -35000.0000000000 -35000.0000000000
-650735.9029394793 -650735.9029394793 -650735.9029394793 -150000.0000000000 -150000.0000000000 -150000.0000000000 -35000.0000000000 -35000.0000000000
-650735.9029394793 -650735.9029394793 -650735.9029394793 -150000.0000000000 -150000.0000000000 -150000.0000000000 -35000.0000000000 -35000.0000000000
-650735.9029394793 -650735.9029394793 -650735.9029394793 -150000.0000000000 -150000.0000000000 -150000.0000000000 -35000.0000000000 -35000.0000000000
-650735.9029394793 -650735.9029394793 -650735.9029394793 -150000.0000000000 -150000.0000000000 -150000.0000000000 -35000.0000000000 -35000.0000000000
-650735.9029394793 -650735.9029394793 -650735.9029394793 -150000.0000000000 -150000.0000000000 -150000.0000000000 -35000.0000000000 -35000.0000000000
-650735.9029394793 -650735.9029394793 -650735.9029394793 -150000.0000000000 -150000.0000000000 -150000.0000000000 -35000.0000000000 -35000.0000000000
-650735.9029394793 -650735.9029394793 -650735.9029394793 -150000.0000000000 -150000.0000000000 -150000.0000000000 -35000.0000000000 -35000.0000000000
-650735.9029394793 -650735.9029394793 -650735.9029394793 -150000.0000000000 -150000.0000000000 -150000.0000000000 -35000.0000000000 -35000.0000000000
-650735.9029394793 -650735.9029394793 -650735.9029394793 -150000.0000000000 -150000.0000000000 -150000.0000000000 -35000.0000000000 -35000.0000000000
-650735.9029394793 -650735.9029394793 -650735.9029394793 -150000.0000000000 -150000.0000000000 -150000.0000000000 -35000.0000000000 -35000.0000000000
-650735.9029394793 -650735.9029394793 -650735.9029394793 -150000.0000000000 -150000.0000000000 -150000.0000000000 -35000.0000000000 -35000.0000000000
-650735.9029394793 -650735.9029394793 -650735.9029394793 -150000.0000000000 -150000.0000000000 -150000.0000000000 -35000.0000000000 -35000.0000000000
-650735.9029394793 -650735.9029394793 -650735.9029394793 -150000.0000000000 -150000.0000000000 -150000.0000000000 -35000.0000000000 -35000.0000000000
-650735.9029394793 -650735.9029394793 -650735.9029394793 -150000.0000000000 -150000.0000000000 -150000.0000000000 -35000.0000000000 -35000.0000000000
-650735.9029394793 -650735.9029394793 -650735.9029394793 -150000.0000000000 -150000.0000000000 -150000.0000000000 -35000.0000000000 -35000.0000000000
-650735.9029394793 -650735.9029394793 -650735.9029394793 -150000.0000000000 -150000.0000000000 -150000.0000000000 -35000.0000000000 -35000.0000000000
-650735.9029394793 -650735.9029394793 -650735.9029394793 -150000.0000000000 -150000.0000000000 -150000.0000000000 -35000.0000000000 -35000.0000000000
-650735.9029394793 -650735.9029394793 -650735.9029394793 -150000.0000000000 -150000.0000000000 -150000.0000000000 -35000.0000000000 -35000.0000000000
-650735.9029394793 -650735.9029394793 -650735.9029394793 -150000.0000000000 -150000.0000000000 -150000.0000000000 -35000.0000000000 -35000.0000000000
-650735.9029394793 -650735.9029394793 -650735.9029394793 -150000.0000000000 -150000.0000000000 -150000.0000000000 -35000.0000000000 -35000.0000000000
-650735.9029394793 -650735.9029394793 -650735.9029394793 -150000.0000000000 -150000.0000000000 -150000.0000000000 -35000.0000000000 -35000.0000000000
-650735.9029394793 -650735.9029394793 -650735.9029394793 -150000.0000000000 -150000.0000000000 -150000.0000000000 -35000.0000000000 -35000.0000000000
-650735.9029394793 -650735.9029394793 -650735.9029394793 -150000.0000000000 -150000.0000000000 -150000.0000000000 -35000.0000000000 -35000.0000000000
-650735.9029394793 -650735.9029394793 -650735.9029394793 -150000.0000000000 -150000.0000000000 -150000.0000000000 -35000.0000000000 -35000.0000000000
-650735.9029394793 -650735.9029394793 -650735.9029394793 -150000.0000000000 -150000.0000000000 -150000.0000000000 -35000.0000000000 -35000.0000000000
-650735.9029394793 -650735.9029394793 -650735.9029394793 -150000.0000000000 -150000.0000000000 -150000.0000000000 -35000.0000000000 -35000.0000000000
-650735.9029394793 -650735.9029394793 -650735.9029394793 -150000.0000000000 -150000.0000000000 -150000.0000000000 -35000.0000000000 -35000.0000000000
-650735.9029394793 -650735.9029394793 -650735.9029394793 -150000.0000000000 -150000.0000000000 -150000.0000000000 -35000.0000000000 -35000.0000000000
-650735.9029394793 -650735.9029394793 -650735.9029394793 -150000.0000000000 -150000.0000000000 -150000.0000000000 -35000.0000000000 -35000.0000000000
-650735.9029394793 -650735.9029394793 -650735.9029394793 -150000.0000000000 -150000.0000000000 -150000.0000000000 -35000.0000000000 -35000.0000000000
-650735.9029394793 -650735.9029394793 -650735.9029394793 -150000.0000000000 -150000.0000000000 -150000.0000000000 -35000.0000000000 -35000.0000000000
-650735.9029394793 -650735.9029394793 -650735.9029394793 -150000.0000000000 -150000.0000000000 -150000.0000000000 -35000.0000000000 -35000.0000000000
-650735.9029394793 -650735.9029394793 -650735.9029394793 -150000.0000000000 -150000.0000000000 -150000.0000000000 -35000.0000000000 -35000.0000000000
-650735.9029394793 -650735.9029394793 -650735.9029394793 -150000.0000000000 -150000.0000000000 -150000.0000000000 -35000.0000000000 -35000.0000000000
-650735.9029394793 -650735.9029394793 -650735.9029394793 -150000.0000000000 -150000.0000000000 -150000.0000000000 -35000.0000000000 -35000.0000000000
-650735.9029394793 -650735.9029394793 -650735.9029394793 -150000.0000000000 -150000.0000000000 -150000.0000000000 -35000.0000000000 -35000.0000000000
-650735.9029394793 -650735.9029394793 -650735.9029394793 -150000.0000000000 -150000.0000000000 -150000.0000000000 -35000.0000000000 -35000.0000000000
-650735.9029394793 -650735.9029394793 -650735.9029394793 -150000.0000000000 -150000.0000000000 -150000.0000000000 -35000.0000000000 -35000.0000000000
-650735.9029394793 -650735.9029394793 -650735.9029394793 -150000.0000000000 -150000.0000000000 -150000.0000000000 -35000.0000000000 -35000.0000000000
-650735.9029394793 -650735.9029394793 -650735.9029394793 -150000.0000000000 -150000.0000000000 -150000.0000000000 -35000.0000000000 -35000.0000000000
-650735.9029394793 -650735.9029394793 -650735.9029394793 -150000.0000000000 -150000.0000000000 -150000.0000000000 -35000.0000000000 -35000.0000000000
-650735.9029394793 -650735.9029394793 -650735.9029394793 -150000.0000000000 -150000.0000000000 -150000.0000000000 -35000.0000000000 -35000.0000000000
-650735.9029394793 -650735.9029394793 -650735.9029394793 -150000.0000000000 -150000.0000000000 -150000.0000000000 -35000.0000000000 -35000.0000000000
-650735.9029394793 -650735.9029394793 -650735.9029394793 -150000.0000000000 -150000.0000000000 -150000.0000000000 -35000.0000000000 -35000.0000000000
-650735.9029394793 -650735.9029394793 -650735.9029394793 -150000.0000000000 -150000.0000000000 -150000.0000000000 -35000.0000000000 -35000.0000000000
-650735.9029394793 -650735.9029394793 -650735.9029394793 -150000.0000000000 -150000.0000000000 -150000.0000000000 -35000.0000000000 -35000.0000000000
-650735.9029394793 -650735.9029394793 -650735.9029394793 -150000.0000000000 -150000.0000000000 -150000.0000000000 -35000.0000000000 -35000.0000000000
-650735.9029394793 -650735.9029394793 -650735.9029394793 -150000.0000000000 -150000.0000000000 -150000.0000000000 -35000.0000000000 -35000.0000000000
-650735.9029394793 -650735.9029394793 -650735.9029394793 -150000.0000000000 -150000.0000000000 -150000.0000000000 -35000.0000000000 -35000.0000000000
-650735.9029394793 -650735.9029394793 -650735.9029394793 -150000.0000000000 -150000.0000000000 -150000.0000000000 -35000.0000000000 -35000.0000000000
-650735.9029394793 -650735.9029394793 -650735.9029394793 -150000.0000000000 -150000.0000000000 -150000.0000000000 -35000.0000000000 -35000.0000000000
-650735.9029394793 -650735.9029394793 -650735.9029394793 -150000.0000000000 -150000.0000000000 -150000.0000000000 -35000.0000000000 -35000.0000000000
-650735.9029394793 -650735.9029394793 -650735.9029394793 -150000.0000000000 -150000.0000000000 -150000.0000000000 -35000.0000000000 -35000.0000000000
