C	1.0 1.0 1000.0 1000.0 1.0 0.01 0.01 1000.0 1000.0
rho	3300.0 3300.0 3300.0 2800.0 3300.0 3300.0 2750.0 3300.0 2750.0
H	0.0 0.0 0.0 0.0 0.0 0.0 0.0 0.0 0.0
A	0.0 0.0 0.0 0.0 0.0 0.0 0.0 0.0 0.0
n	0.0 0.0 0.0 0.0 0.0 0.0 0.0 0.0 0.0
Q	0.0 0.0 0.0 0.0 0.0 0.0 0.0 0.0 0.0
V	0.0 0.0 0.0 0.0 0.0 0.0 0.0 0.0 0.0
-660000.0000000000 -41894.8057405618 -6000.0000000000 0.0000000000 0.0000000000 0.0000000000 0.0000000000 0.0000000000
-660000.0000000000 -42696.5747388174 -6000.0000000000 0.0000000000 0.0000000000 0.0000000000 0.0000000000 0.0000000000
-660000.0000000000 -43498.3437370730 -6000.0000000000 0.0000000000 0.0000000000 0.0000000000 0.0000000000 0.0000000000
-660000.0000000000 -44300.1127353286 -6000.0000000000 0.0000000000 0.0000000000 0.0000000000 0.0000000000 0.0000000000
-660000.0000000000 -45101.8817335843 -6000.0000000000 0.0000000000 0.0000000000 0.0000000000 0.0000000000 0.0000000000
-660000.0000000000 -45184.4062831098 -6000.0000000000 0.0000000000 0.0000000000 0.0000000000 0.0000000000 0.0000000000
-660000.0000000000 -45903.6507318399 -6000.0000000000 0.0000000000 0.0000000000 0.0000000000 0.0000000000 0.0000000000
-660000.0000000000 -46440.0997011270 -6000.0000000000 0.0000000000 0.0000000000 0.0000000000 0.0000000000 0.0000000000
-660000.0000000000 -46687.7890966428 -6000.0000000000 0.0000000000 0.0000000000 0.0000000000 0.0000000000 0.0000000000
-660000.0000000000 -46574.8071613564 -6000.0000000000 0.0000000000 0.0000000000 0.0000000000 0.0000000000 0.0000000000
-660000.0000000000 -46218.5556307833 -6000.0000000000 0.0000000000 0.0000000000 0.0000000000 0.0000000000 0.0000000000
-660000.0000000000 -46705.4197300955 -6000.0000000000 0.0000000000 0.0000000000 0.0000000000 0.0000000000 0.0000000000
-660000.0000000000 -47507.1887283511 -6000.0000000000 0.0000000000 0.0000000000 0.0000000000 0.0000000000 0.0000000000
-660000.0000000000 -48308.9577266067 -6000.0000000000 0.0000000000 0.0000000000 0.0000000000 0.0000000000 0.0000000000
-660000.0000000000 -49110.7267248623 -6000.0000000000 0.0000000000 0.0000000000 0.0000000000 0.0000000000 0.0000000000
-660000.0000000000 -49912.4957231179 -6000.0000000000 0.0000000000 0.0000000000 0.0000000000 0.0000000000 0.0000000000
-660000.0000000000 -50714.2647213735 -6000.0000000000 0.0000000000 0.0000000000 0.0000000000 0.0000000000 0.0000000000
-660000.0000000000 -51516.0337196291 -6000.0000000000 0.0000000000 0.0000000000 0.0000000000 0.0000000000 0.0000000000
-660000.0000000000 -52317.8027178848 -6000.0000000000 0.0000000000 0.0000000000 0.0000000000 0.0000000000 0.0000000000
-660000.0000000000 -53119.5717161404 -6000.0000000000 0.0000000000 0.0000000000 0.0000000000 0.0000000000 0.0000000000
-660000.0000000000 -53921.3407143960 -6000.0000000000 0.0000000000 0.0000000000 0.0000000000 0.0000000000 0.0000000000
-660000.0000000000 -54723.1097126516 -6000.0000000000 0.0000000000 0.0000000000 0.0000000000 0.0000000000 0.0000000000
-660000.0000000000 -55524.8787109072 -6000.0000000000 0.0000000000 0.0000000000 0.0000000000 0.0000000000 0.0000000000
-660000.0000000000 -56326.6477091628 -6000.0000000000 0.0000000000 0.0000000000 0.0000000000 0.0000000000 0.0000000000
-660000.0000000000 -57128.4167074184 -6000.0000000000 0.0000000000 0.0000000000 0.0000000000 0.0000000000 0.0000000000
-660000.0000000000 -57930.1857056740 -6000.0000000000 0.0000000000 0.0000000000 0.0000000000 0.0000000000 0.0000000000
-660000.0000000000 -58731.9547039297 -6000.0000000000 0.0000000000 0.0000000000 0.0000000000 0.0000000000 0.0000000000
-660000.0000000000 -59533.7237021853 -6000.0000000000 0.0000000000 0.0000000000 0.0000000000 0.0000000000 0.0000000000
-660000.0000000000 -60335.4927004409 -6000.0000000000 0.0000000000 0.0000000000 0.0000000000 0.0000000000 0.0000000000
-660000.0000000000 -61137.2616986965 -6000.0000000000 0.0000000000 0.0000000000 0.0000000000 0.0000000000 0.0000000000
-660000.0000000000 -61939.0306969521 -6000.0000000000 0.0000000000 0.0000000000 0.0000000000 0.0000000000 0.0000000000
-660000.0000000000 -62740.7996952077 -6000.0000000000 0.0000000000 0.0000000000 0.0000000000 0.0000000000 0.0000000000
-660000.0000000000 -63542.5686934633 -6000.0000000000 0.0000000000 0.0000000000 0.0000000000 0.0000000000 0.0000000000
-660000.0000000000 -63993.0868480102 -6000.0000000000 0.0000000000 0.0000000000 0.0000000000 0.0000000000 0.0000000000
-660000.0000000000 -64852.7330798888 -6000.0000000000 0.0000000000 0.0000000000 0.0000000000 0.0000000000 0.0000000000
-660000.0000000000 -65415.6880964519 -6000.0000000000 0.0000000000 0.0000000000 0.0000000000 0.0000000000 0.0000000000
-660000.0000000000 -65709.6221121508 -6000.0000000000 0.0000000000 0.0000000000 0.0000000000 0.0000000000 0.0000000000
-660000.0000000000 -65722.0284499012 -6000.0000000000 0.0000000000 0.0000000000 0.0000000000 0.0000000000 0.0000000000
-660000.0000000000 -65481.1157304985 -6000.0000000000 0.0000000000 0.0000000000 0.0000000000 0.0000000000 0.0000000000
-660000.0000000000 -65006.4891104662 -6000.0000000000 0.0000000000 0.0000000000 0.0000000000 0.0000000000 0.0000000000
-660000.0000000000 -64336.3166045023 -6000.0000000000 0.0000000000 0.0000000000 0.0000000000 0.0000000000 0.0000000000
-660000.0000000000 -64344.3376917189 -6000.0000000000 0.0000000000 0.0000000000 0.0000000000 0.0000000000 0.0000000000
-660000.0000000000 -65146.1066899745 -6000.0000000000 0.0000000000 0.0000000000 0.0000000000 0.0000000000 0.0000000000
-660000.0000000000 -65947.8756882301 -6000.0000000000 0.0000000000 0.0000000000 0.0000000000 0.0000000000 0.0000000000
-660000.0000000000 -66749.6446864858 -6000.0000000000 0.0000000000 0.0000000000 0.0000000000 0.0000000000 0.0000000000
-660000.0000000000 -67551.4136847414 -6000.0000000000 0.0000000000 0.0000000000 0.0000000000 0.0000000000 0.0000000000
-660000.0000000000 -68353.1826829970 -6000.0000000000 0.0000000000 0.0000000000 0.0000000000 0.0000000000 0.0000000000
-660000.0000000000 -69154.9516812526 -6000.0000000000 0.0000000000 0.0000000000 0.0000000000 0.0000000000 0.0000000000
-660000.0000000000 -69956.7206795082 -6000.0000000000 0.0000000000 0.0000000000 0.0000000000 0.0000000000 0.0000000000
-660000.0000000000 -70758.4896777638 -6000.0000000000 0.0000000000 0.0000000000 0.0000000000 0.0000000000 0.0000000000
-660000.0000000000 -71560.2586760194 -6000.0000000000 0.0000000000 0.0000000000 0.0000000000 0.0000000000 0.0000000000
-660000.0000000000 -72362.0276742750 -6000.0000000000 0.0000000000 0.0000000000 0.0000000000 0.0000000000 0.0000000000
-660000.0000000000 -73163.7966725306 -6000.0000000000 0.0000000000 0.0000000000 0.0000000000 0.0000000000 0.0000000000
-660000.0000000000 -73965.5656707862 -6000.0000000000 0.0000000000 0.0000000000 0.0000000000 0.0000000000 0.0000000000
-660000.0000000000 -74767.3346690419 -6000.0000000000 0.0000000000 0.0000000000 0.0000000000 0.0000000000 0.0000000000
-660000.0000000000 -75569.1036672975 -6000.0000000000 0.0000000000 0.0000000000 0.0000000000 0.0000000000 0.0000000000
-660000.0000000000 -76370.8726655531 -6000.0000000000 0.0000000000 0.0000000000 0.0000000000 0.0000000000 0.0000000000
-660000.0000000000 -77172.6416638087 -6000.0000000000 0.0000000000 0.0000000000 0.0000000000 0.0000000000 0.0000000000
-660000.0000000000 -77974.4106620643 -6000.0000000000 0.0000000000 0.0000000000 0.0000000000 0.0000000000 0.0000000000
-660000.0000000000 -78776.1796603199 -6000.0000000000 0.0000000000 0.0000000000 0.0000000000 0.0000000000 0.0000000000
-660000.0000000000 -79577.9486585755 -6000.0000000000 0.0000000000 0.0000000000 0.0000000000 0.0000000000 0.0000000000
-660000.0000000000 -80379.7176568311 -6000.0000000000 0.0000000000 0.0000000000 0.0000000000 0.0000000000 0.0000000000
-660000.0000000000 -81181.4866550867 -6000.0000000000 0.0000000000 0.0000000000 0.0000000000 0.0000000000 0.0000000000
-660000.0000000000 -81983.2556533423 -6000.0000000000 0.0000000000 0.0000000000 0.0000000000 0.0000000000 0.0000000000
-660000.0000000000 -82785.0246515980 -6000.0000000000 -73.5819779096 -73.5819779096 -73.5819779096 0.0000000000 0.0000000000
-660000.0000000000 -83586.7936285573 -6774.4427308056 -766.0732270300 -766.0732270300 -766.0732270300 0.0000000000 0.0000000000
-660000.0000000000 -84388.5626017609 -7449.7020478901 -1436.3004215878 -1436.3004215878 -1436.3004215878 0.0000000000 0.0000000000
-660000.0000000000 -85190.3315834012 -8119.7163366122 -2106.2079561171 -2106.2079561171 -2106.2079561171 0.0000000000 0.0000000000
-660000.0000000000 -85992.1005647094 -8789.7245868188 -2776.2386407767 -2776.2386407767 -2776.2386407767 0.0000000000 0.0000000000
-660000.0000000000 -86793.8695449700 -9459.7725361782 -3446.2910889933 -3446.2910889933 -3446.2910889933 0.0000000000 0.0000000000
-660000.0000000000 -87595.6385269905 -10129.8264534699 -4116.3454056400 -4116.3454056400 -4116.3454056400 0.0000000000 0.0000000000
-660000.0000000000 -88397.4075045747 -10799.8808601348 -4786.3998341101 -4786.3998341101 -4786.3998341101 0.0000000000 0.0000000000
-660000.0000000000 -89199.1765111608 -11469.9352946376 -5456.4542770320 -5456.4542770320 -5456.4542770320 0.0000000000 0.0000000000
-660000.0000000000 -90000.9459024439 -12139.9896872039 -6126.5087010844 -6126.5087010844 -6126.5087010844 0.0000000000 0.0000000000
-660000.0000000000 -90802.7181845705 -12810.0440902328 -6796.5629925017 -6796.5629925017 -6796.5629925017 0.0000000000 0.0000000000
-660000.0000000000 -91604.4834254238 -13480.1039971261 -7466.6175842500 -7466.6175842500 -7466.6175842500 0.0000000000 0.0000000000
-660000.0000000000 -92405.7953665165 -14150.2645760141 -8136.6921103076 -8136.6921103076 -8136.6921103076 0.0000000000 0.0000000000
-660000.0000000000 -93195.3026541320 -14822.0788520247 -8807.1022034620 -8807.1022034620 -8807.1022034620 0.0000000000 0.0000000000
-660000.0000000000 -93994.7816791106 -15516.6719868439 -9482.9965131210 -9482.9965131210 -9482.9965131210 0.0000000000 0.0000000000
-660000.0000000000 -94870.0712659974 -16273.0339773675 -10232.7377301269 -10232.7377301269 -10232.7377301269 0.0000000000 0.0000000000
-660000.0000000000 -95830.0279384985 -17115.3974678889 -11068.4423447000 -11068.4423447000 -11068.4423447000 0.0000000000 0.0000000000
-660000.0000000000 -96885.7241614760 -18052.8752370677 -11998.6721390989 -11998.6721390989 -11998.6721390989 0.0000000000 0.0000000000
-660000.0000000000 -98049.4150917049 -19093.5030403948 -13030.5686997169 -13030.5686997169 -13030.5686997169 0.0000000000 0.0000000000
-660000.0000000000 -99330.8820539334 -20245.2194451887 -14172.8812177184 -14172.8812177184 -14172.8812177184 0.0000000000 0.0000000000
-660000.0000000000 -100741.9576195093 -21515.5820160837 -15432.1908005626 -15432.1908005626 -15432.1908005626 0.0000000000 0.0000000000
-660000.0000000000 -102293.1931730488 -22911.7513223018 -16816.3719177000 -16816.3719177000 -16816.3719177000 0.0000000000 0.0000000000
-660000.0000000000 -103993.8352925408 -24439.9488770128 -18331.2437553816 -18331.2437553816 -18331.2437553816 0.0000000000 0.0000000000
-660000.0000000000 -105851.9982094549 -26105.5688097015 -19982.0843737059 -19982.0843737059 -19982.0843737059 0.0000000000 0.0000000000
-660000.0000000000 -107875.9503859634 -27912.7691342468 -21773.7924143474 -21773.7924143474 -21773.7924143474 0.0000000000 0.0000000000
-660000.0000000000 -110070.7413131900 -29864.2739025522 -23708.2025860325 -23708.2025860325 -23708.2025860325 0.0000000000 0.0000000000
-660000.0000000000 -112439.9012579690 -31961.9987413855 -25787.9219055000 -25787.9219055000 -25787.9219055000 0.0000000000 0.0000000000
-660000.0000000000 -114985.0225397419 -34206.5746703846 -28013.6493677261 -28013.6493677261 -28013.6493677261 0.0000000000 0.0000000000
-660000.0000000000 -117703.5617081815 -36597.6525598922 -30384.6795788452 -30384.6795788452 -30384.6795788452 0.0000000000 0.0000000000
-660000.0000000000 -120587.6088231076 -39133.8591824780 -32900.6809387472 -32900.6809387472 -32900.6809387472 0.0000000000 0.0000000000
-660000.0000000000 -123623.3047292664 -41811.9610595633 -35558.3740796205 -35558.3740796205 -35558.3740796205 0.0000000000 0.0000000000
-660000.0000000000 -126792.0438209717 -44626.6456347027 -38353.2638550000 -38353.2638550000 -38353.2638550000 0.0000000000 0.0000000000
-660000.0000000000 -130068.6640786021 -47570.0229814241 -41278.0775153083 -41278.0775153083 -41278.0775153083 0.0000000000 0.0000000000
-660000.0000000000 -133424.4744076836 -50630.6841194620 -44322.7591462767 -44322.7591462767 -44322.7591462767 0.0000000000 0.0000000000
-660000.0000000000 -136829.0857979111 -53793.0794489140 -47472.4684334044 -47472.4684334044 -47472.4684334044 0.0000000000 0.0000000000
-660000.0000000000 -140252.7126021056 -57037.6948204432 -50708.7451321626 -50708.7451321626 -50708.7451321626 0.0000000000 0.0000000000
-660000.0000000000 -143667.4397101542 -60341.6812683813 -54009.1552734000 -54009.1552734000 -52000.0000000000 0.0000000000 0.0000000000
-660000.0000000000 -147050.8387501042 -63679.9609585739 -57348.9842281074 -57348.9842281074 -52000.0000000000 0.0000000000 0.0000000000
-660000.0000000000 -150384.8655619569 -67026.8402654062 -60701.9995883617 -60701.9995883617 -52000.0000000000 0.0000000000 0.0000000000
-660000.0000000000 -153658.0307240121 -70358.0295964708 -64043.1514921155 -64043.1514921155 -52000.0000000000 -768.3189666594 -768.3189666594
-660000.0000000000 -156864.2457864722 -73652.6508090140 -67350.1297224832 -67350.1297224832 -52000.0000000000 -4115.1350795646 -4115.1350795646
-660000.0000000000 -160003.4302983928 -76894.9986169191 -70605.7815552000 -70605.7815552000 -52000.0000000000 -7448.5044711818 -7448.5044711818
-660000.0000000000 -163081.1334525896 -80075.5706673831 -73799.1690852959 -73799.1690852959 -52000.0000000000 -10746.3839473163 -10746.3839473163
-660000.0000000000 -166107.2655782154 -83191.6457980341 -76926.1069630112 -76926.1069630112 -52000.0000000000 -13991.4870105853 -13991.4870105853
-660000.0000000000 -169095.5981734695 -86246.9606274526 -79989.7126095678 -79989.7126095678 -52000.0000000000 -17172.6899722330 -17172.6899722330
-660000.0000000000 -172062.2204204409 -89250.7547669911 -82998.4507205161 -82998.4507205161 -52000.0000000000 -20287.1591937617 -20287.1591937617
-660000.0000000000 -175027.1868461390 -92216.7145204533 -85965.8660889001 -85965.8660889001 -52000.0000000000 -23338.6653291460 -23338.6653291460
-660000.0000000000 -178010.0960096248 -95161.6088949949 -88908.6833891099 -88908.6833891099 -52000.0000000000 -26337.9085054829 -26337.9085054829
-660000.0000000000 -181033.5748510127 -98104.0925794559 -91845.5723491404 -91845.5723491404 -52000.0000000000 -29299.9898805785 -29299.9898805785
-660000.0000000000 -184121.9414377369 -101063.8830068518 -94796.2491128107 -94796.2491128107 -52000.0000000000 -32242.8293288028 -32242.8293288028
-660000.0000000000 -187301.9835285388 -104061.3276895417 -97780.9125953012 -97780.9125953012 -52000.0000000000 -35185.8485837653 -35185.8485837653
-660000.0000000000 -190603.1055466271 -107117.3435974372 -100820.2133180001 -100820.2133180001 -52000.0000000000 -38148.6867601082 -38148.6867601082
-660000.0000000000 -194056.3629921944 -110253.5657394772 -103935.3832743014 -103935.3832743014 -52000.0000000000 -41151.0035663586 -41151.0035663586
-660000.0000000000 -197692.3745269090 -113492.4116087226 -107148.4820933455 -107148.4820933455 -52000.0000000000 -44212.0911778674 -44212.0911778674
-660000.0000000000 -201537.8401102271 -116856.4429481882 -110482.1387113041 -110482.1387113041 -52000.0000000000 -47351.0422382686 -47351.0422382686
-660000.0000000000 -205612.2671852486 -120367.7892180680 -113957.9552863115 -113957.9552863115 -52000.0000000000 -50587.4456706659 -50587.4456706659
-660000.0000000000 -209921.1767103742 -124047.0618371779 -117597.3587040000 -117597.3587040000 -53939.6579274891 -53939.6579274891 -52370.4211449407
-660000.0000000000 -214458.9059458268 -127911.2046143682 -121418.0254013864 -121418.0254013864 -57424.6285065379 -57424.6285065379 -52638.0586612658
-660000.0000000000 -219209.4477408279 -131971.9068851306 -125432.7866396576 -123294.9997915501 -61058.8509121402 -61058.8509121402 -52930.3545491384
-660000.0000000000 -224149.8649256880 -136234.8253840645 -129648.4616235636 -122566.5099454808 -64855.3842685843 -64855.3842685843 -53245.1593639976
-660000.0000000000 -229258.4463747992 -140698.5816332555 -134065.9369127648 -121878.3799818338 -68824.7787875294 -68824.7787875294 -53580.4780716210
-660000.0000000000 -234514.0996502369 -145355.0200580235 -138677.8411870000 -121277.7237986583 -72972.7925807223 -72972.7925807223 -53934.3156377863
-660000.0000000000 -239902.2271168939 -150191.4115342527 -143472.4317347488 -120811.6552940027 -77303.4609553646 -77303.4609553646 -54304.6770282708
-660000.0000000000 -245412.1694549730 -155192.2773552603 -148434.7685302091 -120560.2851550646 -81818.1484455899 -81818.1484455899 -54690.3896448217
-660000.0000000000 -251037.1586457906 -160341.6834106389 -153548.4474388932 -120679.3557716396 -86518.0210422699 -86518.0210422699 -55092.0359448890
-660000.0000000000 -256770.1210577719 -165625.5861130093 -158798.7561625982 -121283.3298784652 -91379.2829334658 -91379.2829334658 -55509.0750002026
-660000.0000000000 -262600.2804993723 -171033.0033397819 -164173.9349370000 -122331.3647384722 -96389.8219211132 -96389.8219211132 -55938.2142965494
-660000.0000000000 -268510.2915072315 -176555.8400993903 -169665.5777924514 -123455.1247987223 -101537.8258270193 -101537.8258270193 -56368.9898225015
-660000.0000000000 -274475.6982681540 -182187.6859467847 -175267.3434269763 -124197.0967669884 -106812.1701246049 -106812.1701246049 -56815.7380160982
-660000.0000000000 -280467.0232152049 -187921.6239990403 -180973.5151795791 -124391.0085550276 -112203.6953569452 -112203.6953569452 -57317.8835094386
-660000.0000000000 -286453.7150095084 -193747.4618580215 -186775.7326822023 -124185.5080475571 -117705.8996405019 -117705.8996405019 -57850.1914571103
-660000.0000000000 -292409.3529815854 -199649.6277654356 -192660.6445310001 -123778.0170269136 -123313.0035935386 -123313.0035935386 -58376.9006006107
-660000.0000000000 -298316.0654447908 -205606.3795720103 -198608.4835223978 -123256.8128200704 -123256.8128200704 -123256.8128200704 -58885.1061175273
-660000.0000000000 -304168.5957560912 -211590.9187571729 -204593.4295202993 -122687.8074148306 -122687.8074148306 -122687.8074148306 -59366.5944032387
-660000.0000000000 -309977.6228182400 -217574.3438684882 -210586.1492225371 -122136.9127989975 -122136.9127989975 -122136.9127989975 -59813.1518531232
-660000.0000000000 -315771.4214346073 -223530.3430995086 -216557.7255866647 -121670.0409603744 -121670.0409603744 -121670.0409603744 -60216.5648625592
-660000.0000000000 -321598.8214520100 -229440.5532840606 -222485.7330320002 -121353.1038867642 -121353.1038867642 -121353.1038867642 -60568.6198269248
-660000.0000000000 -327530.2277245352 -235299.5463721235 -228359.1520393251 -121250.6196653870 -121250.6196653870 -121250.6196653870 -60861.5164113103
-660000.0000000000 -333657.5748313186 -241118.4876029650 -234183.4296685349 -121425.9688030922 -121425.9688030922 -121425.9688030922 -61088.2517173074
-660000.0000000000 -340090.2506442285 -246926.6730728470 -239982.3139503631 -121982.4197941394 -121982.4197941394 -121982.4197941394 -61243.8139687006
-660000.0000000000 -346941.9273015007 -252770.9757985766 -245798.1189037779 -123254.2907129789 -123254.2907129789 -123254.2907129789 -61366.7763833633
-660000.0000000000 -354315.3165930635 -258712.7181796516 -251689.1479490000 -124927.3837500667 -124927.3837500667 -124927.3837500667 -61414.2180538771
-660000.0000000000 -362280.0520980919 -264822.9200288349 -257724.3713689515 -127269.6311167005 -127269.6311167005 -127269.6311167005 -61416.6549424172
-660000.0000000000 -370861.9086079082 -271177.0566100359 -263978.2876909684 -130281.5214226674 -130281.5214226674 -130281.5214226674 -61398.4119588039
-660000.0000000000 -380038.8514388401 -277849.0412191476 -270525.4444964323 -133762.5445943060 -133762.5445943060 -133762.5445943060 -61357.0653673946
-660000.0000000000 -389749.5533813196 -284905.3160167353 -277434.0296264315 -137551.7543111512 -137551.7543111512 -137551.7543111512 -61293.3088995128
-660000.0000000000 -399900.2009456131 -292400.8385878644 -284761.5356450000 -141497.0014325233 -141497.0014325233 -141497.0014325233 -61209.2720447686
-660000.0000000000 -410382.8947563652 -300374.2777468194 -292552.7959225953 -145446.1368177426 -145446.1368177426 -145446.1368177426 -61107.0842927717
-660000.0000000000 -421081.8371623688 -308845.5084377081 -300832.7612761831 -149247.0113261300 -149247.0113261300 -149247.0113261300 -60988.8751331321
-660000.0000000000 -431887.1438327678 -317815.0859869297 -309610.3116432425 -152747.4758170056 -152747.4758170056 -152747.4758170056 -60856.7740554598
-660000.0000000000 -442700.9330016298 -327259.7846818785 -318873.7014919902 -155795.3811496911 -155795.3811496911 -155795.3811496911 -60712.9105493645
-660000.0000000000 -453442.9605467879 -337133.2785818983 -328585.2355960000 -158231.7348466939 -158231.7348466939 -158231.7348466939 -60559.5499489793
-660000.0000000000 -464054.7130257213 -347370.1475855039 -338689.0263473323 -159672.8034175360 -159672.8034175360 -159672.8034175360 -60403.3005767099
-660000.0000000000 -474499.1355645102 -357887.3284405022 -349110.7370781191 -159811.6675896567 -159811.6675896567 -159811.6675896567 -60244.8016125090
-660000.0000000000 -484759.9696911476 -368591.0475274458 -359759.5877172060 -159244.1218274730 -159244.1218274730 -159244.1218274730 -60039.4842367245
-660000.0000000000 -494839.5398914489 -379385.0519309402 -370540.4319179772 -158166.4744478634 -158166.4744478634 -158166.4744478634 -59772.3137018716
-660000.0000000000 -487513.0979832644 -390177.5848300108 -381357.6049800002 -155701.3039775905 -155701.3039775905 -155701.3039775905 -59455.7325026176
-660000.0000000000 -480186.6560750799 -400889.6462337050 -392124.6889935253 -152246.7785489472 -152246.7785489472 -152246.7785489472 -59101.2610791252
-660000.0000000000 -472860.2141668955 -411461.8880727571 -402771.5579062240 -148086.6192059304 -148086.6192059304 -148086.6192059304 -58713.9528170442
-660000.0000000000 -465533.7722587110 -421857.1826770892 -413251.3589151037 -143433.4026343250 -143433.4026343250 -143433.4026343250 -58296.0949673357
-660000.0000000000 -458207.3303505266 -432061.7639687140 -423538.6816703790 -138499.7055199154 -138499.7055199154 -138499.7055199154 -57849.9747809603
-660000.0000000000 -450880.8884423422 -442083.0505864285 -433633.9416500002 -133498.1045484868 -133498.1045484868 -133498.1045484868 -57377.8795088789
-660000.0000000000 -443554.4465341577 -443554.4465341577 -443554.4465341577 -128641.1764058220 -128641.1764058220 -128641.1764058220 -56882.0964020523
-660000.0000000000 -124141.4977777064 -124141.4977777064 -124141.4977777064 -124141.4977777064 -124141.4977777064 -124141.4977777064 -56364.9127114412
-660000.0000000000 -120211.6453499242 -120211.6453499242 -120211.6453499242 -120211.6453499242 -120211.6453499242 -120211.6453499242 -55828.6156880065
-660000.0000000000 -117064.1958082605 -117064.1958082605 -117064.1958082605 -117064.1958082605 -117064.1958082605 -117064.1958082605 -55275.4925827092
-660000.0000000000 -114977.9467049974 -114977.9467049974 -114977.9467049974 -114977.9467049974 -114977.9467049974 -114977.9467049974 -54709.4485926442
-660000.0000000000 -114299.5716878674 -114299.5716878674 -114299.5716878674 -114299.5716878674 -114299.5716878674 -114299.5716878674 -54131.8178996773
-660000.0000000000 -114787.5976110295 -114787.5976110295 -114787.5976110295 -114787.5976110295 -114787.5976110295 -114787.5976110295 -53543.1211504626
-660000.0000000000 -117617.0979481896 -117617.0979481896 -117617.0979481896 -117617.0979481896 -117617.0979481896 -117617.0979481896 -52894.0178703166
-660000.0000000000 -122310.2767172724 -122310.2767172724 -122310.2767172724 -122310.2767172724 -122310.2767172724 -122310.2767172724 -52193.5321012838
-660000.0000000000 -128451.7721738890 -128451.7721738890 -128451.7721738890 -128451.7721738890 -128451.7721738890 -128451.7721738890 -51464.4476223906
-660000.0000000000 -135765.3079597813 -135765.3079597813 -135765.3079597813 -135765.3079597813 -135765.3079597813 -135765.3079597813 -50722.1147358276
-660000.0000000000 -143974.6077166906 -143974.6077166906 -143974.6077166906 -143974.6077166906 -143974.6077166906 -143974.6077166906 -49981.8837437851
-660000.0000000000 -152803.3950863575 -152803.3950863575 -152803.3950863575 -152803.3950863575 -152803.3950863575 -152803.3950863575 -49259.1049484538
-660000.0000000000 -161975.3937105262 -161975.3937105262 -161975.3937105262 -161975.3937105262 -161975.3937105262 -161975.3937105262 -48569.1286520237
-660000.0000000000 -171214.3272309371 -171214.3272309371 -171214.3272309371 -171214.3272309371 -171214.3272309371 -171214.3272309371 -47927.3051566856
-660000.0000000000 -180243.9192893312 -180243.9192893312 -180243.9192893312 -180243.9192893312 -180243.9192893312 -180243.9192893312 -47348.9847646297
-660000.0000000000 -188787.8935274509 -188787.8935274509 -188787.8935274509 -188787.8935274509 -188787.8935274509 -188787.8935274509 -46849.5177780466
-660000.0000000000 -196569.9735870385 -196569.9735870385 -196569.9735870385 -196569.9735870385 -196569.9735870385 -196569.9735870385 -46444.2544991267
-660000.0000000000 -203313.8831098349 -203313.8831098349 -203313.8831098349 -203313.8831098349 -203313.8831098349 -203313.8831098349 -46148.5452300604
-660000.0000000000 -208741.6872901722 -208741.6872901722 -208741.6872901722 -208741.6872901722 -208741.6872901722 -208741.6872901722 -45985.2257402813
-660000.0000000000 -212051.7527892003 -212051.7527892003 -212051.7527892003 -212051.7527892003 -212051.7527892003 -212051.7527892003 -45962.6185605711
-660000.0000000000 -213085.3933452211 -213085.3933452211 -213085.3933452211 -213085.3933452211 -213085.3933452211 -213085.3933452211 -46078.0429243879
-660000.0000000000 -212122.9293630782 -212122.9293630782 -212122.9293630782 -212122.9293630782 -212122.9293630782 -212122.9293630782 -46308.6360905189
-660000.0000000000 -209411.1672963176 -209411.1672963176 -209411.1672963176 -209411.1672963176 -209411.1672963176 -209411.1672963176 -46631.8296755710
-660000.0000000000 -205197.9413303907 -205197.9413303907 -205197.9413303907 -205197.9413303907 -205197.9413303907 -205197.9413303907 -47024.9680436593
-660000.0000000000 -199736.0789589401 -199736.0789589401 -199736.0789589401 -199736.0789589401 -199736.0789589401 -199736.0789589401 -47464.9822887689
-660000.0000000000 -193273.6898303448 -193273.6898303448 -193273.6898303448 -193273.6898303448 -193273.6898303448 -193273.6898303448 -47929.2202280427
-660000.0000000000 -186057.9672261191 -186057.9672261191 -186057.9672261191 -186057.9672261191 -186057.9672261191 -186057.9672261191 -48395.1085845059
-660000.0000000000 -178336.1044277775 -178336.1044277775 -178336.1044277775 -178336.1044277775 -178336.1044277775 -178336.1044277775 -48840.0740811837
-660000.0000000000 -170355.2947168334 -170355.2947168334 -170355.2947168334 -170355.2947168334 -170355.2947168334 -170355.2947168334 -49241.5434411015
-660000.0000000000 -162363.2016865406 -162363.2016865406 -162363.2016865406 -162363.2016865406 -162363.2016865406 -162363.2016865406 -49574.0495174282
-660000.0000000000 -154330.0053821152 -154330.0053821152 -154330.0053821152 -154330.0053821152 -154330.0053821152 -154330.0053821152 -49829.9120713985
-660000.0000000000 -147224.5968978977 -147224.5968978977 -147224.5968978977 -147224.5968978977 -147224.5968978977 -147224.5968978977 -50015.1624208672
-660000.0000000000 -140840.3800077754 -140840.3800077754 -140840.3800077754 -140840.3800077754 -140840.3800077754 -140840.3800077754 -50133.4448939993
-660000.0000000000 -135096.7187239659 -135096.7187239659 -135096.7187239659 -135096.7187239659 -135096.7187239659 -135096.7187239659 -50195.3853294000
-660000.0000000000 -129944.4725960574 -129944.4725960574 -129944.4725960574 -129944.4725960574 -129944.4725960574 -129944.4725960574 -50209.9483651241
-660000.0000000000 -125334.5011736379 -125334.5011736379 -125334.5011736379 -125334.5011736379 -125334.5011736379 -125334.5011736379 -50186.0986392262
-660000.0000000000 -121217.6640062949 -121217.6640062949 -121217.6640062949 -121217.6640062949 -121217.6640062949 -121217.6640062949 -50132.8007897612
-660000.0000000000 -117544.8206436158 -117544.8206436158 -117544.8206436158 -117544.8206436158 -117544.8206436158 -117544.8206436158 -50059.0194547838
-660000.0000000000 -114266.8306351888 -114266.8306351888 -114266.8306351888 -114266.8306351888 -114266.8306351888 -114266.8306351888 -49973.7192723488
-660000.0000000000 -111336.5652093979 -111336.5652093979 -111336.5652093979 -111336.5652093979 -111336.5652093979 -111336.5652093979 -49885.8616788081
-660000.0000000000 -108836.0182933085 -108836.0182933085 -108836.0182933085 -108836.0182933085 -108836.0182933085 -108836.0182933085 -49804.6912456823
-660000.0000000000 -107213.1425518866 -107213.1425518866 -107213.1425518866 -107213.1425518866 -107213.1425518866 -107213.1425518866 -49735.5363550111
-660000.0000000000 -106393.8861125156 -106393.8861125156 -106393.8861125156 -106393.8861125156 -106393.8861125156 -106393.8861125156 -49687.5537236416
-660000.0000000000 -105163.6808761181 -105163.6808761181 -105163.6808761181 -105163.6808761181 -105163.6808761181 -105163.6808761181 -49665.3228352026
-660000.0000000000 -103789.8595526476 -103789.8595526476 -103789.8595526476 -103789.8595526476 -103789.8595526476 -103789.8595526476 -49649.3422512133
-660000.0000000000 -102385.4935216374 -102385.4935216374 -102385.4935216374 -102385.4935216374 -102385.4935216374 -102385.4935216374 -49641.8456663085
-660000.0000000000 -101058.1676537365 -101058.1676537365 -101058.1676537365 -101058.1676537365 -101058.1676537365 -101058.1676537365 -49644.8809699139
-660000.0000000000 -100000.0000000000 -100000.0000000000 -100000.0000000000 -100000.0000000000 -100000.0000000000 -100000.0000000000 -49657.4222069214
-660000.0000000000 -100000.0000000000 -100000.0000000000 -100000.0000000000 -100000.0000000000 -100000.0000000000 -100000.0000000000 -49678.3034908489
-660000.0000000000 -100000.0000000000 -100000.0000000000 -100000.0000000000 -100000.0000000000 -100000.0000000000 -100000.0000000000 -49706.2858493375
-660000.0000000000 -100000.0000000000 -100000.0000000000 -100000.0000000000 -100000.0000000000 -100000.0000000000 -100000.0000000000 -49736.7031202186
-660000.0000000000 -100000.0000000000 -100000.0000000000 -100000.0000000000 -100000.0000000000 -100000.0000000000 -100000.0000000000 -49763.9181370918
-660000.0000000000 -100000.0000000000 -100000.0000000000 -100000.0000000000 -100000.0000000000 -100000.0000000000 -100000.0000000000 -49793.8584344407
-660000.0000000000 -100000.0000000000 -100000.0000000000 -100000.0000000000 -100000.0000000000 -100000.0000000000 -100000.0000000000 -49853.1593312838
-660000.0000000000 -100000.0000000000 -100000.0000000000 -100000.0000000000 -100000.0000000000 -100000.0000000000 -100000.0000000000 -49897.7979620595
-660000.0000000000 -100000.0000000000 -100000.0000000000 -100000.0000000000 -100000.0000000000 -100000.0000000000 -100000.0000000000 -49899.0745120490
-660000.0000000000 -100000.0000000000 -100000.0000000000 -100000.0000000000 -100000.0000000000 -100000.0000000000 -100000.0000000000 -49880.4078278655
-660000.0000000000 -100000.0000000000 -100000.0000000000 -100000.0000000000 -100000.0000000000 -100000.0000000000 -100000.0000000000 -49850.1424248019
-660000.0000000000 -100000.0000000000 -100000.0000000000 -100000.0000000000 -100000.0000000000 -100000.0000000000 -100000.0000000000 -49806.5805646735
-660000.0000000000 -100000.0000000000 -100000.0000000000 -100000.0000000000 -100000.0000000000 -100000.0000000000 -100000.0000000000 -49748.0067246685
-660000.0000000000 -100000.0000000000 -100000.0000000000 -100000.0000000000 -100000.0000000000 -100000.0000000000 -100000.0000000000 -49668.8873810650
-660000.0000000000 -100000.0000000000 -100000.0000000000 -100000.0000000000 -100000.0000000000 -100000.0000000000 -100000.0000000000 -49555.7736767377
-660000.0000000000 -100000.0000000000 -100000.0000000000 -100000.0000000000 -100000.0000000000 -100000.0000000000 -100000.0000000000 -49394.3011265901
-660000.0000000000 -100000.0000000000 -100000.0000000000 -100000.0000000000 -100000.0000000000 -100000.0000000000 -100000.0000000000 -49150.7049383312
-660000.0000000000 -100000.0000000000 -100000.0000000000 -100000.0000000000 -100000.0000000000 -100000.0000000000 -100000.0000000000 -48742.3790447979
-660000.0000000000 -100000.0000000000 -100000.0000000000 -100000.0000000000 -100000.0000000000 -100000.0000000000 -100000.0000000000 -48217.1725862990
-660000.0000000000 -100000.0000000000 -100000.0000000000 -100000.0000000000 -100000.0000000000 -100000.0000000000 -100000.0000000000 -47695.5297491668
-660000.0000000000 -100000.0000000000 -100000.0000000000 -100000.0000000000 -100000.0000000000 -100000.0000000000 -100000.0000000000 -47239.3491210489
-660000.0000000000 -100000.0000000000 -100000.0000000000 -100000.0000000000 -100000.0000000000 -100000.0000000000 -100000.0000000000 -46875.4899139584
-660000.0000000000 -100000.0000000000 -100000.0000000000 -100000.0000000000 -100000.0000000000 -100000.0000000000 -100000.0000000000 -46611.6898940423
-660000.0000000000 -100000.0000000000 -100000.0000000000 -100000.0000000000 -100000.0000000000 -100000.0000000000 -100000.0000000000 -46430.1414332541
-660000.0000000000 -100000.0000000000 -100000.0000000000 -100000.0000000000 -100000.0000000000 -100000.0000000000 -100000.0000000000 -46311.3933385971
-660000.0000000000 -100000.0000000000 -100000.0000000000 -100000.0000000000 -100000.0000000000 -100000.0000000000 -100000.0000000000 -46246.6139441350
-660000.0000000000 -100000.0000000000 -100000.0000000000 -100000.0000000000 -100000.0000000000 -100000.0000000000 -100000.0000000000 -46257.9905493720
-660000.0000000000 -100118.3187703187 -100118.3187703187 -100118.3187703187 -100118.3187703187 -100118.3187703187 -100118.3187703187 -46366.1984443486
-660000.0000000000 -100613.9406595900 -100613.9406595900 -100613.9406595900 -100613.9406595900 -100613.9406595900 -100613.9406595900 -46540.0874425064
-660000.0000000000 -100901.4925123431 -100901.4925123431 -100901.4925123431 -100901.4925123431 -100901.4925123431 -100901.4925123431 -46763.8073776270
-660000.0000000000 -101048.7905053937 -101048.7905053937 -101048.7905053937 -101048.7905053937 -101048.7905053937 -101048.7905053937 -47027.0378574824
-660000.0000000000 -101040.6549761776 -101040.6549761776 -101040.6549761776 -101040.6549761776 -101040.6549761776 -101040.6549761776 -47291.6051063963
-660000.0000000000 -100792.7677218253 -100792.7677218253 -100792.7677218253 -100792.7677218253 -100792.7677218253 -100792.7677218253 -47519.1178229693
-660000.0000000000 -100221.8953862033 -100221.8953862033 -100221.8953862033 -100221.8953862033 -100221.8953862033 -100221.8953862033 -47676.2422066433
-660000.0000000000 -100000.0000000000 -100000.0000000000 -100000.0000000000 -100000.0000000000 -100000.0000000000 -100000.0000000000 -47761.9195669487
-660000.0000000000 -100000.0000000000 -100000.0000000000 -100000.0000000000 -100000.0000000000 -100000.0000000000 -100000.0000000000 -47851.4008439119
-660000.0000000000 -100000.0000000000 -100000.0000000000 -100000.0000000000 -100000.0000000000 -100000.0000000000 -100000.0000000000 -47953.1557516519
-660000.0000000000 -100000.0000000000 -100000.0000000000 -100000.0000000000 -100000.0000000000 -100000.0000000000 -100000.0000000000 -48092.7593904610
-660000.0000000000 -100000.0000000000 -100000.0000000000 -100000.0000000000 -100000.0000000000 -100000.0000000000 -100000.0000000000 -48287.3891161561
-660000.0000000000 -100000.0000000000 -100000.0000000000 -100000.0000000000 -100000.0000000000 -100000.0000000000 -100000.0000000000 -48503.6992379227
-660000.0000000000 -100000.0000000000 -100000.0000000000 -100000.0000000000 -100000.0000000000 -100000.0000000000 -100000.0000000000 -48725.8948057793
-660000.0000000000 -100000.0000000000 -100000.0000000000 -100000.0000000000 -100000.0000000000 -100000.0000000000 -100000.0000000000 -48947.3449313984
-660000.0000000000 -100000.0000000000 -100000.0000000000 -100000.0000000000 -100000.0000000000 -100000.0000000000 -100000.0000000000 -49161.9354915741
-660000.0000000000 -100000.0000000000 -100000.0000000000 -100000.0000000000 -100000.0000000000 -100000.0000000000 -100000.0000000000 -49365.7116617849
-660000.0000000000 -100000.0000000000 -100000.0000000000 -100000.0000000000 -100000.0000000000 -100000.0000000000 -100000.0000000000 -49553.4677179848
-660000.0000000000 -100000.0000000000 -100000.0000000000 -100000.0000000000 -100000.0000000000 -100000.0000000000 -100000.0000000000 -49718.9918087508
-660000.0000000000 -100000.0000000000 -100000.0000000000 -100000.0000000000 -100000.0000000000 -100000.0000000000 -100000.0000000000 -49856.1866078899
-660000.0000000000 -100000.0000000000 -100000.0000000000 -100000.0000000000 -100000.0000000000 -100000.0000000000 -100000.0000000000 -49963.6197671350
-660000.0000000000 -100000.0000000000 -100000.0000000000 -100000.0000000000 -100000.0000000000 -100000.0000000000 -100000.0000000000 -50050.8174706688
-660000.0000000000 -100000.0000000000 -100000.0000000000 -100000.0000000000 -100000.0000000000 -100000.0000000000 -100000.0000000000 -50126.9575417890
-660000.0000000000 -100000.0000000000 -100000.0000000000 -100000.0000000000 -100000.0000000000 -100000.0000000000 -100000.0000000000 -50174.1166757287
-660000.0000000000 -100000.0000000000 -100000.0000000000 -100000.0000000000 -100000.0000000000 -100000.0000000000 -100000.0000000000 -50192.5968782521
-660000.0000000000 -100000.0000000000 -100000.0000000000 -100000.0000000000 -100000.0000000000 -100000.0000000000 -100000.0000000000 -50187.2782594808
-660000.0000000000 -100000.0000000000 -100000.0000000000 -100000.0000000000 -100000.0000000000 -100000.0000000000 -100000.0000000000 -50162.4170653546
-660000.0000000000 -100000.0000000000 -100000.0000000000 -100000.0000000000 -100000.0000000000 -100000.0000000000 -100000.0000000000 -50122.2856810130
-660000.0000000000 -100000.0000000000 -100000.0000000000 -100000.0000000000 -100000.0000000000 -100000.0000000000 -100000.0000000000 -50071.1564915955
-660000.0000000000 -100000.0000000000 -100000.0000000000 -100000.0000000000 -100000.0000000000 -100000.0000000000 -100000.0000000000 -50013.3018822418
-660000.0000000000 -100000.0000000000 -100000.0000000000 -100000.0000000000 -100000.0000000000 -100000.0000000000 -100000.0000000000 -49952.9942380911
-660000.0000000000 -100000.0000000000 -100000.0000000000 -100000.0000000000 -100000.0000000000 -100000.0000000000 -100000.0000000000 -49894.5059442832
-660000.0000000000 -100000.0000000000 -100000.0000000000 -100000.0000000000 -100000.0000000000 -100000.0000000000 -100000.0000000000 -49844.7342385315
-660000.0000000000 -100000.0000000000 -100000.0000000000 -100000.0000000000 -100000.0000000000 -100000.0000000000 -100000.0000000000 -49804.9122887359
-660000.0000000000 -100000.0000000000 -100000.0000000000 -100000.0000000000 -100000.0000000000 -100000.0000000000 -100000.0000000000 -49770.2752864936
-660000.0000000000 -100000.0000000000 -100000.0000000000 -100000.0000000000 -100000.0000000000 -100000.0000000000 -100000.0000000000 -49744.4977461649
-660000.0000000000 -100000.0000000000 -100000.0000000000 -100000.0000000000 -100000.0000000000 -100000.0000000000 -100000.0000000000 -49726.1586209932
-660000.0000000000 -100000.0000000000 -100000.0000000000 -100000.0000000000 -100000.0000000000 -100000.0000000000 -100000.0000000000 -49713.3704062469
-660000.0000000000 -100000.0000000000 -100000.0000000000 -100000.0000000000 -100000.0000000000 -100000.0000000000 -100000.0000000000 -49704.1874650313
-660000.0000000000 -100000.0000000000 -100000.0000000000 -100000.0000000000 -100000.0000000000 -100000.0000000000 -100000.0000000000 -49697.1228719101
-660000.0000000000 -100000.0000000000 -100000.0000000000 -100000.0000000000 -100000.0000000000 -100000.0000000000 -100000.0000000000 -49690.6897400351
-660000.0000000000 -100000.0000000000 -100000.0000000000 -100000.0000000000 -100000.0000000000 -100000.0000000000 -100000.0000000000 -49683.4011825581
-660000.0000000000 -100000.0000000000 -100000.0000000000 -100000.0000000000 -100000.0000000000 -100000.0000000000 -100000.0000000000 -49673.7703126306
-660000.0000000000 -100000.0000000000 -100000.0000000000 -100000.0000000000 -100000.0000000000 -100000.0000000000 -100000.0000000000 -49660.3589596539
-660000.0000000000 -100000.0000000000 -100000.0000000000 -100000.0000000000 -100000.0000000000 -100000.0000000000 -100000.0000000000 -49643.4757830315
-660000.0000000000 -100000.0000000000 -100000.0000000000 -100000.0000000000 -100000.0000000000 -100000.0000000000 -100000.0000000000 -49641.4862609046
-660000.0000000000 -100000.0000000000 -100000.0000000000 -100000.0000000000 -100000.0000000000 -100000.0000000000 -100000.0000000000 -49653.6477361829
-660000.0000000000 -111360.3934797563 -111360.3934797563 -111360.3934797563 -111360.3934797563 -111360.3934797563 -111360.3934797563 -49675.4245657540
-660000.0000000000 -126759.9245217970 -126759.9245217970 -126759.9245217970 -126759.9245217970 -126759.9245217970 -126759.9245217970 -49707.6352321909
-660000.0000000000 -143322.1355506410 -143322.1355506410 -143322.1355506410 -143322.1355506410 -143322.1355506410 -143322.1355506410 -49751.0089545238
-660000.0000000000 -160469.9055092369 -160469.9055092369 -160469.9055092369 -160469.9055092369 -160469.9055092369 -160469.9055092369 -49806.1541704919
-660000.0000000000 -177626.2257305369 -177626.2257305369 -177626.2257305369 -177626.2257305369 -177626.2257305369 -177626.2257305369 -49873.6790697749
-660000.0000000000 -194214.0875474931 -194214.0875474931 -194214.0875474931 -194214.0875474931 -194214.0875474931 -194214.0875474931 -49954.1918420527
-660000.0000000000 -209425.6219915016 -209425.6219915016 -209425.6219915016 -209425.6219915016 -209425.6219915016 -209425.6219915016 -50048.6825510480
-660000.0000000000 -221546.0788945532 -221546.0788945532 -221546.0788945532 -221546.0788945532 -221546.0788945532 -221546.0788945532 -50159.6487916113
-660000.0000000000 -229092.4482588403 -229092.4482588403 -229092.4482588403 -229092.4482588403 -229092.4482588403 -229092.4482588403 -50290.4626712581
-660000.0000000000 -233085.4700377669 -233085.4700377669 -233085.4700377669 -233085.4700377669 -233085.4700377669 -233085.4700377669 -50470.3292895367
-660000.0000000000 -235151.3204691344 -235151.3204691344 -235151.3204691344 -235151.3204691344 -235151.3204691344 -235151.3204691344 -50676.2538843539
-660000.0000000000 -236625.0041655577 -236625.0041655577 -236625.0041655577 -236625.0041655577 -236625.0041655577 -236625.0041655577 -50839.7003628504
-660000.0000000000 -237423.2908856681 -237423.2908856681 -237423.2908856681 -237423.2908856681 -237423.2908856681 -237423.2908856681 -50943.2491231875
-660000.0000000000 -236994.5966739177 -236994.5966739177 -236994.5966739177 -236994.5966739177 -236994.5966739177 -236994.5966739177 -50988.1447244207
-660000.0000000000 -235437.3535512056 -235437.3535512056 -235437.3535512056 -235437.3535512056 -235437.3535512056 -235437.3535512056 -50990.6480764003
-660000.0000000000 -232871.9051488776 -232871.9051488776 -232871.9051488776 -232871.9051488776 -232871.9051488776 -232871.9051488776 -50967.2884242762
-660000.0000000000 -229468.9948003193 -229468.9948003193 -229468.9948003193 -229468.9948003193 -229468.9948003193 -229468.9948003193 -50934.5732015876
-660000.0000000000 -225809.1542403893 -225809.1542403893 -225809.1542403893 -225809.1542403893 -225809.1542403893 -225809.1542403893 -50899.6669605503
-660000.0000000000 -222644.8917360468 -222644.8917360468 -222644.8917360468 -222644.8917360468 -222644.8917360468 -222644.8917360468 -50858.9861689946
-660000.0000000000 -220704.5428805389 -220704.5428805389 -220704.5428805389 -220704.5428805389 -220704.5428805389 -220704.5428805389 -50807.6908770827
-660000.0000000000 -219563.7976428028 -219563.7976428028 -219563.7976428028 -219563.7976428028 -219563.7976428028 -219563.7976428028 -50707.9884321975
-660000.0000000000 -218766.3735102824 -218766.3735102824 -218766.3735102824 -218766.3735102824 -218766.3735102824 -218766.3735102824 -50550.8248557929
-660000.0000000000 -218221.3464068148 -218221.3464068148 -218221.3464068148 -218221.3464068148 -218221.3464068148 -218221.3464068148 -50359.9853616996
-660000.0000000000 -217509.6079936261 -217509.6079936261 -217509.6079936261 -217509.6079936261 -217509.6079936261 -217509.6079936261 -50189.7956658202
-660000.0000000000 -216379.1556465912 -216379.1556465912 -216379.1556465912 -216379.1556465912 -216379.1556465912 -216379.1556465912 -50066.1444339734
-660000.0000000000 -214680.7289616528 -214680.7289616528 -214680.7289616528 -214680.7289616528 -214680.7289616528 -214680.7289616528 -50010.3871620598
-660000.0000000000 -212653.9034084411 -212653.9034084411 -212653.9034084411 -212653.9034084411 -212653.9034084411 -212653.9034084411 -50018.2402050830
-660000.0000000000 -210473.0868507110 -210473.0868507110 -210473.0868507110 -210473.0868507110 -210473.0868507110 -210473.0868507110 -50064.8099270550
-660000.0000000000 -208415.2338827769 -208415.2338827769 -208415.2338827769 -208415.2338827769 -208415.2338827769 -208415.2338827769 -50110.8322779063
-660000.0000000000 -207066.5995250792 -207066.5995250792 -207066.5995250792 -207066.5995250792 -207066.5995250792 -207066.5995250792 -50086.5050536152
-660000.0000000000 -206693.2710654118 -206693.2710654118 -206693.2710654118 -206693.2710654118 -206693.2710654118 -206693.2710654118 -49963.3982537595
-660000.0000000000 -207216.6702702617 -207216.6702702617 -207216.6702702617 -207216.6702702617 -207216.6702702617 -207216.6702702617 -49755.5400322579
-660000.0000000000 -208300.8879983767 -208300.8879983767 -208300.8879983767 -208300.8879983767 -208300.8879983767 -208300.8879983767 -49497.2261358557
-660000.0000000000 -209644.9205297875 -209644.9205297875 -209644.9205297875 -209644.9205297875 -209644.9205297875 -209644.9205297875 -49215.0995732428
-660000.0000000000 -210958.9100962458 -210958.9100962458 -210958.9100962458 -210958.9100962458 -210958.9100962458 -210958.9100962458 -48934.0443466426
-660000.0000000000 -212115.0541908553 -212115.0541908553 -212115.0541908553 -212115.0541908553 -212115.0541908553 -212115.0541908553 -48659.7137846758
-660000.0000000000 -213100.4343680744 -213100.4343680744 -213100.4343680744 -213100.4343680744 -213100.4343680744 -213100.4343680744 -48385.9973678172
-660000.0000000000 -213904.2477687544 -213904.2477687544 -213904.2477687544 -213904.2477687544 -213904.2477687544 -213904.2477687544 -48106.6200855627
-660000.0000000000 -214506.8353547702 -214506.8353547702 -214506.8353547702 -214506.8353547702 -214506.8353547702 -214506.8353547702 -47816.7954285073
-660000.0000000000 -214867.3298426624 -214867.3298426624 -214867.3298426624 -214867.3298426624 -214867.3298426624 -214867.3298426624 -47524.5709516003
-660000.0000000000 -214920.6241534075 -214920.6241534075 -214920.6241534075 -214920.6241534075 -214920.6241534075 -214920.6241534075 -47268.3166685166
-660000.0000000000 -214337.4808104799 -214337.4808104799 -214337.4808104799 -214337.4808104799 -214337.4808104799 -214337.4808104799 -47136.9066117478
-660000.0000000000 -212680.4207943217 -212680.4207943217 -212680.4207943217 -212680.4207943217 -212680.4207943217 -212680.4207943217 -47088.6422391102
-660000.0000000000 -210143.6998659002 -210143.6998659002 -210143.6998659002 -210143.6998659002 -210143.6998659002 -210143.6998659002 -47086.2790904940
-660000.0000000000 -207141.8853950904 -207141.8853950904 -207141.8853950904 -207141.8853950904 -207141.8853950904 -207141.8853950904 -47115.2712458304
-660000.0000000000 -203975.9383354964 -203975.9383354964 -203975.9383354964 -203975.9383354964 -203975.9383354964 -203975.9383354964 -47165.4792406910
-660000.0000000000 -200832.1427751144 -200832.1427751144 -200832.1427751144 -200832.1427751144 -200832.1427751144 -200832.1427751144 -47230.6208144546
-660000.0000000000 -197896.3398768200 -197896.3398768200 -197896.3398768200 -197896.3398768200 -197896.3398768200 -197896.3398768200 -47304.4276682914
-660000.0000000000 -195354.3708034879 -195354.3708034879 -195354.3708034879 -195354.3708034879 -195354.3708034879 -195354.3708034879 -47380.6315033716
-660000.0000000000 -193392.2405634256 -193392.2405634256 -193392.2405634256 -193392.2405634256 -193392.2405634256 -193392.2405634256 -47452.9554014984
-660000.0000000000 -192275.0797027916 -192275.0797027916 -192275.0797027916 -192275.0797027916 -192275.0797027916 -192275.0797027916 -47510.9866746285
-660000.0000000000 -192306.0044258349 -192306.0044258349 -192306.0044258349 -192306.0044258349 -192306.0044258349 -192306.0044258349 -47551.7146752897
-660000.0000000000 -193289.4514158439 -193289.4514158439 -193289.4514158439 -193289.4514158439 -193289.4514158439 -193289.4514158439 -47595.0104479390
-660000.0000000000 -194766.0850572878 -194766.0850572878 -194766.0850572878 -194766.0850572878 -194766.0850572878 -194766.0850572878 -47615.4844526751
-660000.0000000000 -196827.8743815914 -196827.8743815914 -196827.8743815914 -196827.8743815914 -196827.8743815914 -196827.8743815914 -47631.0190523237
-660000.0000000000 -199380.0402011221 -199380.0402011221 -199380.0402011221 -199380.0402011221 -199380.0402011221 -199380.0402011221 -47639.6651193670
-660000.0000000000 -202307.4231629885 -202307.4231629885 -202307.4231629885 -202307.4231629885 -202307.4231629885 -202307.4231629885 -47638.8896282343
-660000.0000000000 -205494.8692310421 -205494.8692310421 -205494.8692310421 -205494.8692310421 -205494.8692310421 -205494.8692310421 -47626.0011274099
-660000.0000000000 -208826.7340679957 -208826.7340679957 -208826.7340679957 -208826.7340679957 -208826.7340679957 -208826.7340679957 -47595.6773343214
-660000.0000000000 -212185.9561686528 -212185.9561686528 -212185.9561686528 -212185.9561686528 -212185.9561686528 -212185.9561686528 -47544.4478109709
-660000.0000000000 -215455.2564721753 -215455.2564721753 -215455.2564721753 -215455.2564721753 -215455.2564721753 -215455.2564721753 -47469.8902355898
-660000.0000000000 -218517.3559177257 -218517.3559177257 -218517.3559177257 -218517.3559177257 -218517.3559177257 -218517.3559177257 -47369.5822864096
-660000.0000000000 -221213.5547453094 -221213.5547453094 -221213.5547453094 -221213.5547453094 -221213.5547453094 -221213.5547453094 -47243.1853367165
